{
    "Name"          : "dri3proto",
    "Version"       : "1.0",
    "Url"           : "http://xorg.freedesktop.org//releases/individual/proto/dri3proto-1.0.tar.bz2",
    "Group"         : "x11",
    "StageDir"      : "",
    "Inherit"       : "gnu",
    "Oid"           : "CA993D7580796DE53D930DEB0D08A6A725492DAA2647658D8885C90C6DD6EDE5",
    "BuildInStage"  : false,
    "BuildTime"     : 0,
    "Date"          : "2016-10-20T21:31:23.83410904-07:00",
    "Size"          : 4661,
    "SubPackages"   : null,
    "AutoDepends"   : [],
    "ManualDepends" : null,
    "BuildDepends"  : null,
    "Flags"         : null,
    "Patch"         : null,
    "Build"         : null,
    "Package"       : null,
    "PostInstall"   : null,
    "Remove"        : null,
    "Files"         : [
                    "usr/local/via/include/X11/extensions/dri3proto.h",
                    "usr/local/via/lib/pkgconfig/dri3proto.pc"
    ]
}
