{
    "Name"          : "libpthread-stubs",
    "Version"       : "0.3",
    "Url"           : "http://xcb.freedesktop.org/dist/libpthread-stubs-0.3.tar.gz",
    "Group"         : "x11",
    "StageDir"      : "",
    "Inherit"       : "gnu",
    "Oid"           : "8B3137D7702DE5B00091B53BEC4E6151ED5A684A1B6E315D24C1FCE23A9C3D1C",
    "BuildInStage"  : false,
    "BuildTime"     : 0,
    "Date"          : "2016-10-20T21:28:35.219471417-07:00",
    "Size"          : 179,
    "SubPackages"   : null,
    "AutoDepends"   : [],
    "ManualDepends" : null,
    "BuildDepends"  : null,
    "Flags"         : null,
    "Patch"         : null,
    "Build"         : null,
    "Package"       : null,
    "PostInstall"   : null,
    "Remove"        : null,
    "Files"         : [
                    "usr/local/via/lib/pkgconfig/pthread-stubs.pc"
    ]
}
