{
    "Name"         : "libXext",
    "Version"      : "1.3.3",
    "Url"          : "http://xorg.freedesktop.org//releases/individual/lib/libXext-1.3.3.tar.bz2",
    "Group"        : "x11",
    "StageDir"     : "",
    "Inherit"      : "gnu",
    "Oid"          : "128713BB16A892CDC5DBDC034BF0971F212735810F3C13355EC97E1A3CB83941",
    "BuildInStage" : false,
    "BuildTime"    : 0,
    "Date"         : "2016-10-20T21:11:12.695073231-07:00",
    "Size"         : 142953,
    "SubPackages"  : null,
    "AutoDepends"  : [
                   "glibc",
                   "libxau",
                   "libxcb"
    ],
    "ManualDepends" : [
                    "libX11",
                    "xextproto"
    ],
    "BuildDepends" : null,
    "Flags"        : null,
    "Patch"        : null,
    "Build"        : null,
    "Package"      : null,
    "PostInstall"  : null,
    "Remove"       : null,
    "Files"        : [
                   "usr/local/via/include/X11/extensions/MITMisc.h",
                   "usr/local/via/include/X11/extensions/XEVI.h",
                   "usr/local/via/include/X11/extensions/XLbx.h",
                   "usr/local/via/include/X11/extensions/XShm.h",
                   "usr/local/via/include/X11/extensions/Xag.h",
                   "usr/local/via/include/X11/extensions/Xcup.h",
                   "usr/local/via/include/X11/extensions/Xdbe.h",
                   "usr/local/via/include/X11/extensions/Xext.h",
                   "usr/local/via/include/X11/extensions/Xge.h",
                   "usr/local/via/include/X11/extensions/dpms.h",
                   "usr/local/via/include/X11/extensions/extutil.h",
                   "usr/local/via/include/X11/extensions/multibuf.h",
                   "usr/local/via/include/X11/extensions/security.h",
                   "usr/local/via/include/X11/extensions/shape.h",
                   "usr/local/via/include/X11/extensions/sync.h",
                   "usr/local/via/include/X11/extensions/xtestext1.h",
                   "usr/local/via/lib/libXext.la",
                   "usr/local/via/lib/libXext.so",
                   "usr/local/via/lib/libXext.so.6",
                   "usr/local/via/lib/libXext.so.6.4.0",
                   "usr/local/via/lib/pkgconfig/xext.pc"
    ]
}
