{
    "Name"         : "libXdamage",
    "Version"      : "1.1.4",
    "Url"          : "http://xorg.freedesktop.org//releases/individual/lib/libXdamage-1.1.4.tar.bz2",
    "Group"        : "x11",
    "StageDir"     : "",
    "Inherit"      : "gnu",
    "Oid"          : "30EB28C8396378CA6F6BDBFFFD1C268B66ECC6E647DB49BEEF2CA9075FCA4DD4",
    "BuildInStage" : false,
    "BuildTime"    : 0,
    "Date"         : "2016-10-20T21:22:04.643803976-07:00",
    "Size"         : 16560,
    "SubPackages"  : null,
    "AutoDepends"  : [
                   "glibc",
                   "libX11",
                   "libXfixes",
                   "libxau",
                   "libxcb"
    ],
    "ManualDepends" : [
                    "damageproto"
    ],
    "BuildDepends" : null,
    "Flags"        : null,
    "Patch"        : null,
    "Build"        : null,
    "Package"      : null,
    "PostInstall"  : null,
    "Remove"       : null,
    "Files"        : [
                   "usr/local/via/include/X11/extensions/Xdamage.h",
                   "usr/local/via/lib/libXdamage.la",
                   "usr/local/via/lib/libXdamage.so",
                   "usr/local/via/lib/libXdamage.so.1",
                   "usr/local/via/lib/libXdamage.so.1.1.0",
                   "usr/local/via/lib/pkgconfig/xdamage.pc"
    ]
}
