{
    "Name"         : "libXinerama",
    "Version"      : "1.1.3",
    "Url"          : "http://xorg.freedesktop.org//releases/individual/lib/libXinerama-1.1.3.tar.bz2",
    "Group"        : "x11",
    "StageDir"     : "",
    "Inherit"      : "gnu",
    "Oid"          : "D91157B6E07068230C1162596A3F1CD6E0F829370747F68DAF68DF4315A0EA01",
    "BuildInStage" : false,
    "BuildTime"    : 0,
    "Date"         : "2016-10-20T21:22:54.926010813-07:00",
    "Size"         : 19268,
    "SubPackages"  : null,
    "AutoDepends"  : [
                   "glibc",
                   "libX11",
                   "libXext",
                   "libxau",
                   "libxcb"
    ],
    "ManualDepends" : [
                    "xineramaproto"
    ],
    "BuildDepends" : null,
    "Flags"        : null,
    "Patch"        : null,
    "Build"        : null,
    "Package"      : null,
    "PostInstall"  : null,
    "Remove"       : null,
    "Files"        : [
                   "usr/local/via/include/X11/extensions/Xinerama.h",
                   "usr/local/via/include/X11/extensions/panoramiXext.h",
                   "usr/local/via/lib/libXinerama.la",
                   "usr/local/via/lib/libXinerama.so",
                   "usr/local/via/lib/libXinerama.so.1",
                   "usr/local/via/lib/libXinerama.so.1.0.0",
                   "usr/local/via/lib/pkgconfig/xinerama.pc"
    ]
}
