{
    "Name"          : "presentproto",
    "Version"       : "1.0",
    "Url"           : "http://xorg.freedesktop.org//releases/individual/proto/presentproto-1.0.tar.bz2",
    "Group"         : "x11",
    "StageDir"      : "",
    "Inherit"       : "gnu",
    "Oid"           : "36AD6C14DBBAAE86BD7F10D7E7DC741D93AE98F002EA7945CE9578D177ACB227",
    "BuildInStage"  : false,
    "BuildTime"     : 0,
    "Date"          : "2016-10-20T21:31:52.753006898-07:00",
    "Size"          : 9064,
    "SubPackages"   : null,
    "AutoDepends"   : [],
    "ManualDepends" : null,
    "BuildDepends"  : null,
    "Flags"         : null,
    "Patch"         : null,
    "Build"         : null,
    "Package"       : null,
    "PostInstall"   : null,
    "Remove"        : null,
    "Files"         : [
                    "usr/local/via/include/X11/extensions/presentproto.h",
                    "usr/local/via/include/X11/extensions/presenttokens.h",
                    "usr/local/via/lib/pkgconfig/presentproto.pc"
    ]
}
