{
    "Name"          : "xcb-proto",
    "Version"       : "1.11",
    "Url"           : "http://xcb.freedesktop.org//dist/xcb-proto-1.11.tar.bz2",
    "Group"         : "x11",
    "StageDir"      : "",
    "Inherit"       : "gnu",
    "Oid"           : "5D2A38259FB6F9F14C837F774EB135E8597258945C8B7E168D7EE007CA32D519",
    "BuildInStage"  : false,
    "BuildTime"     : 0,
    "Date"          : "2016-10-20T20:55:22.856364406-07:00",
    "Size"          : 757674,
    "SubPackages"   : null,
    "AutoDepends"   : [],
    "ManualDepends" : null,
    "BuildDepends"  : null,
    "Flags"         : null,
    "Patch"         : null,
    "Build"         : null,
    "Package"       : null,
    "PostInstall"   : null,
    "Remove"        : null,
    "Files"         : [
                    "usr/local/via/lib/pkgconfig/xcb-proto.pc",
                    "usr/local/via/lib/python2.7/site-packages/xcbgen/__init__.py",
                    "usr/local/via/lib/python2.7/site-packages/xcbgen/__init__.pyc",
                    "usr/local/via/lib/python2.7/site-packages/xcbgen/__init__.pyo",
                    "usr/local/via/lib/python2.7/site-packages/xcbgen/error.py",
                    "usr/local/via/lib/python2.7/site-packages/xcbgen/error.pyc",
                    "usr/local/via/lib/python2.7/site-packages/xcbgen/error.pyo",
                    "usr/local/via/lib/python2.7/site-packages/xcbgen/expr.py",
                    "usr/local/via/lib/python2.7/site-packages/xcbgen/expr.pyc",
                    "usr/local/via/lib/python2.7/site-packages/xcbgen/expr.pyo",
                    "usr/local/via/lib/python2.7/site-packages/xcbgen/matcher.py",
                    "usr/local/via/lib/python2.7/site-packages/xcbgen/matcher.pyc",
                    "usr/local/via/lib/python2.7/site-packages/xcbgen/matcher.pyo",
                    "usr/local/via/lib/python2.7/site-packages/xcbgen/state.py",
                    "usr/local/via/lib/python2.7/site-packages/xcbgen/state.pyc",
                    "usr/local/via/lib/python2.7/site-packages/xcbgen/state.pyo",
                    "usr/local/via/lib/python2.7/site-packages/xcbgen/xtypes.py",
                    "usr/local/via/lib/python2.7/site-packages/xcbgen/xtypes.pyc",
                    "usr/local/via/lib/python2.7/site-packages/xcbgen/xtypes.pyo",
                    "usr/local/via/share/xcb/bigreq.xml",
                    "usr/local/via/share/xcb/composite.xml",
                    "usr/local/via/share/xcb/damage.xml",
                    "usr/local/via/share/xcb/dpms.xml",
                    "usr/local/via/share/xcb/dri2.xml",
                    "usr/local/via/share/xcb/dri3.xml",
                    "usr/local/via/share/xcb/ge.xml",
                    "usr/local/via/share/xcb/glx.xml",
                    "usr/local/via/share/xcb/present.xml",
                    "usr/local/via/share/xcb/randr.xml",
                    "usr/local/via/share/xcb/record.xml",
                    "usr/local/via/share/xcb/render.xml",
                    "usr/local/via/share/xcb/res.xml",
                    "usr/local/via/share/xcb/screensaver.xml",
                    "usr/local/via/share/xcb/shape.xml",
                    "usr/local/via/share/xcb/shm.xml",
                    "usr/local/via/share/xcb/sync.xml",
                    "usr/local/via/share/xcb/xc_misc.xml",
                    "usr/local/via/share/xcb/xcb.xsd",
                    "usr/local/via/share/xcb/xevie.xml",
                    "usr/local/via/share/xcb/xf86dri.xml",
                    "usr/local/via/share/xcb/xf86vidmode.xml",
                    "usr/local/via/share/xcb/xfixes.xml",
                    "usr/local/via/share/xcb/xinerama.xml",
                    "usr/local/via/share/xcb/xinput.xml",
                    "usr/local/via/share/xcb/xkb.xml",
                    "usr/local/via/share/xcb/xprint.xml",
                    "usr/local/via/share/xcb/xproto.xml",
                    "usr/local/via/share/xcb/xselinux.xml",
                    "usr/local/via/share/xcb/xtest.xml",
                    "usr/local/via/share/xcb/xv.xml",
                    "usr/local/via/share/xcb/xvmc.xml"
    ]
}
