{
    "Name"         : "jasper",
    "Version"      : "1.900.1",
    "Url"          : "http://www.ece.uvic.ca/~mdadams/jasper/software/jasper-1.900.1.zip",
    "Group"        : "extra",
    "StageDir"     : "",
    "Inherit"      : "gnu",
    "Oid"          : "",
    "BuildInStage" : false,
    "BuildTime"    : 0,
    "Date"         : "2016-03-09T02:26:03.250289843-08:00",
    "Size"         : 1061528,
    "SubPackages"  : null,
    "AutoDepends"  : [
                   "glibc",
                   "libjpeg-turbo"
    ],
    "ManualDepends" : null,
    "BuildDepends"  : null,
    "Flags"         : null,
    "Patch"         : null,
    "Build"         : null,
    "Package"       : null,
    "PostInstall"   : null,
    "Remove"        : null,
    "Files"         : [
                    "home/mrosset/.local/bin/imgcmp",
                    "home/mrosset/.local/bin/imginfo",
                    "home/mrosset/.local/bin/jasper",
                    "home/mrosset/.local/bin/tmrdemo",
                    "home/mrosset/.local/include/jasper/jas_cm.h",
                    "home/mrosset/.local/include/jasper/jas_config.h",
                    "home/mrosset/.local/include/jasper/jas_config2.h",
                    "home/mrosset/.local/include/jasper/jas_debug.h",
                    "home/mrosset/.local/include/jasper/jas_fix.h",
                    "home/mrosset/.local/include/jasper/jas_getopt.h",
                    "home/mrosset/.local/include/jasper/jas_icc.h",
                    "home/mrosset/.local/include/jasper/jas_image.h",
                    "home/mrosset/.local/include/jasper/jas_init.h",
                    "home/mrosset/.local/include/jasper/jas_malloc.h",
                    "home/mrosset/.local/include/jasper/jas_math.h",
                    "home/mrosset/.local/include/jasper/jas_seq.h",
                    "home/mrosset/.local/include/jasper/jas_stream.h",
                    "home/mrosset/.local/include/jasper/jas_string.h",
                    "home/mrosset/.local/include/jasper/jas_tmr.h",
                    "home/mrosset/.local/include/jasper/jas_tvp.h",
                    "home/mrosset/.local/include/jasper/jas_types.h",
                    "home/mrosset/.local/include/jasper/jas_version.h",
                    "home/mrosset/.local/include/jasper/jasper.h",
                    "home/mrosset/.local/lib/libjasper.a",
                    "home/mrosset/.local/lib/libjasper.la",
                    "home/mrosset/.local/lib/libjasper.so",
                    "home/mrosset/.local/lib/libjasper.so.1",
                    "home/mrosset/.local/lib/libjasper.so.1.0.0",
                    "home/mrosset/.local/man/man1/imgcmp.1",
                    "home/mrosset/.local/man/man1/imginfo.1",
                    "home/mrosset/.local/man/man1/jasper.1",
                    "home/mrosset/.local/man/man1/jiv.1"
    ]
}
