{
    "Name"         : "libpciaccess",
    "Version"      : "0.13.4",
    "Url"          : "http://xorg.freedesktop.org//releases/individual/lib/libpciaccess-0.13.4.tar.bz2",
    "Group"        : "extra",
    "StageDir"     : "",
    "Inherit"      : "gnu",
    "Oid"          : "6223A5CE2ABEA5A5A9A3C761C43D6FA81442D312EF228CA6C369B02DF31C8E5F",
    "BuildInStage" : false,
    "BuildTime"    : 0,
    "Date"         : "2016-10-20T21:29:31.257716326-07:00",
    "Size"         : 59411,
    "SubPackages"  : null,
    "AutoDepends"  : [
                   "glibc"
    ],
    "ManualDepends" : null,
    "BuildDepends"  : null,
    "Flags"         : null,
    "Patch"         : null,
    "Build"         : null,
    "Package"       : null,
    "PostInstall"   : null,
    "Remove"        : null,
    "Files"         : [
                    "usr/local/via/include/pciaccess.h",
                    "usr/local/via/lib/libpciaccess.la",
                    "usr/local/via/lib/libpciaccess.so",
                    "usr/local/via/lib/libpciaccess.so.0",
                    "usr/local/via/lib/libpciaccess.so.0.11.1",
                    "usr/local/via/lib/pkgconfig/pciaccess.pc"
    ]
}
