{
    "Name"          : "mosh",
    "Version"       : "1.2.5",
    "Url"           : "http://mosh.mit.edu/mosh-1.2.5.tar.gz",
    "Group"         : "extra",
    "StageDir"      : "",
    "Inherit"       : "gnu",
    "Oid"           : "",
    "BuildInStage"  : false,
    "BuildTime"     : 0,
    "Date"          : "0001-01-01T00:00:00Z",
    "Size"          : 0,
    "SubPackages"   : null,
    "AutoDepends"   : null,
    "ManualDepends" : null,
    "BuildDepends"  : null,
    "Flags"         : null,
    "Patch"         : null,
    "Build"         : null,
    "Package"       : null,
    "PostInstall"   : null,
    "Remove"        : null,
    "Files"         : null
}
