{
    "Name"         : "pixman",
    "Version"      : "0.34.0",
    "Url"          : "http://xorg.freedesktop.org/releases/individual/lib/pixman-0.34.0.tar.bz2",
    "Group"        : "extra",
    "StageDir"     : "",
    "Inherit"      : "gnu",
    "Oid"          : "3AE852BE2AC373E570FDF9F71FACCC11F67709DB1B5EC3B91CC1D532E7607088",
    "BuildInStage" : false,
    "BuildTime"    : 0,
    "Date"         : "2016-10-20T21:19:12.704916148-07:00",
    "Size"         : 777540,
    "SubPackages"  : null,
    "AutoDepends"  : [
                   "glibc"
    ],
    "ManualDepends" : null,
    "BuildDepends"  : null,
    "Flags"         : null,
    "Patch"         : null,
    "Build"         : null,
    "Package"       : null,
    "PostInstall"   : null,
    "Remove"        : null,
    "Files"         : [
                    "usr/local/via/include/pixman-1/pixman-version.h",
                    "usr/local/via/include/pixman-1/pixman.h",
                    "usr/local/via/lib/libpixman-1.la",
                    "usr/local/via/lib/libpixman-1.so",
                    "usr/local/via/lib/libpixman-1.so.0",
                    "usr/local/via/lib/libpixman-1.so.0.34.0",
                    "usr/local/via/lib/pkgconfig/pixman-1.pc"
    ]
}
