{
    "Name"          : "setuptools",
    "Version"       : "20.2.2",
    "Url"           : "https://pypi.python.org/packages/source/s/setuptools/setuptools-20.2.2.tar.gz",
    "Group"         : "extra",
    "StageDir"      : "",
    "Inherit"       : "",
    "Oid"           : "85BB487267817D8A1A9BE76483FCB626F862453EEC34F8F01C4B1AC143D2365E",
    "BuildInStage"  : true,
    "BuildTime"     : 0,
    "Date"          : "2016-10-12T01:53:30.184560374-07:00",
    "Size"          : 2174937,
    "SubPackages"   : null,
    "AutoDepends"   : [],
    "ManualDepends" : null,
    "BuildDepends"  : null,
    "Flags"         : null,
    "Patch"         : null,
    "Build"         : null,
    "Package"       : [
                    "python setup.py install --prefix=$PREFIX --root=$PKGDIR --optimize=1"
    ],
    "PostInstall" : null,
    "Remove"      : null,
    "Files"       : [
                  "usr/local/via/bin/easy_install",
                  "usr/local/via/bin/easy_install-2.7",
                  "usr/local/via/lib/python2.7/site-packages/easy_install.py",
                  "usr/local/via/lib/python2.7/site-packages/easy_install.pyc",
                  "usr/local/via/lib/python2.7/site-packages/easy_install.pyo",
                  "usr/local/via/lib/python2.7/site-packages/pkg_resources/__init__.py",
                  "usr/local/via/lib/python2.7/site-packages/pkg_resources/__init__.pyc",
                  "usr/local/via/lib/python2.7/site-packages/pkg_resources/__init__.pyo",
                  "usr/local/via/lib/python2.7/site-packages/pkg_resources/_vendor/__init__.py",
                  "usr/local/via/lib/python2.7/site-packages/pkg_resources/_vendor/__init__.pyc",
                  "usr/local/via/lib/python2.7/site-packages/pkg_resources/_vendor/__init__.pyo",
                  "usr/local/via/lib/python2.7/site-packages/pkg_resources/_vendor/packaging/__about__.py",
                  "usr/local/via/lib/python2.7/site-packages/pkg_resources/_vendor/packaging/__about__.pyc",
                  "usr/local/via/lib/python2.7/site-packages/pkg_resources/_vendor/packaging/__about__.pyo",
                  "usr/local/via/lib/python2.7/site-packages/pkg_resources/_vendor/packaging/__init__.py",
                  "usr/local/via/lib/python2.7/site-packages/pkg_resources/_vendor/packaging/__init__.pyc",
                  "usr/local/via/lib/python2.7/site-packages/pkg_resources/_vendor/packaging/__init__.pyo",
                  "usr/local/via/lib/python2.7/site-packages/pkg_resources/_vendor/packaging/_compat.py",
                  "usr/local/via/lib/python2.7/site-packages/pkg_resources/_vendor/packaging/_compat.pyc",
                  "usr/local/via/lib/python2.7/site-packages/pkg_resources/_vendor/packaging/_compat.pyo",
                  "usr/local/via/lib/python2.7/site-packages/pkg_resources/_vendor/packaging/_structures.py",
                  "usr/local/via/lib/python2.7/site-packages/pkg_resources/_vendor/packaging/_structures.pyc",
                  "usr/local/via/lib/python2.7/site-packages/pkg_resources/_vendor/packaging/_structures.pyo",
                  "usr/local/via/lib/python2.7/site-packages/pkg_resources/_vendor/packaging/markers.py",
                  "usr/local/via/lib/python2.7/site-packages/pkg_resources/_vendor/packaging/markers.pyc",
                  "usr/local/via/lib/python2.7/site-packages/pkg_resources/_vendor/packaging/markers.pyo",
                  "usr/local/via/lib/python2.7/site-packages/pkg_resources/_vendor/packaging/requirements.py",
                  "usr/local/via/lib/python2.7/site-packages/pkg_resources/_vendor/packaging/requirements.pyc",
                  "usr/local/via/lib/python2.7/site-packages/pkg_resources/_vendor/packaging/requirements.pyo",
                  "usr/local/via/lib/python2.7/site-packages/pkg_resources/_vendor/packaging/specifiers.py",
                  "usr/local/via/lib/python2.7/site-packages/pkg_resources/_vendor/packaging/specifiers.pyc",
                  "usr/local/via/lib/python2.7/site-packages/pkg_resources/_vendor/packaging/specifiers.pyo",
                  "usr/local/via/lib/python2.7/site-packages/pkg_resources/_vendor/packaging/utils.py",
                  "usr/local/via/lib/python2.7/site-packages/pkg_resources/_vendor/packaging/utils.pyc",
                  "usr/local/via/lib/python2.7/site-packages/pkg_resources/_vendor/packaging/utils.pyo",
                  "usr/local/via/lib/python2.7/site-packages/pkg_resources/_vendor/packaging/version.py",
                  "usr/local/via/lib/python2.7/site-packages/pkg_resources/_vendor/packaging/version.pyc",
                  "usr/local/via/lib/python2.7/site-packages/pkg_resources/_vendor/packaging/version.pyo",
                  "usr/local/via/lib/python2.7/site-packages/pkg_resources/_vendor/pyparsing.py",
                  "usr/local/via/lib/python2.7/site-packages/pkg_resources/_vendor/pyparsing.pyc",
                  "usr/local/via/lib/python2.7/site-packages/pkg_resources/_vendor/pyparsing.pyo",
                  "usr/local/via/lib/python2.7/site-packages/pkg_resources/_vendor/six.py",
                  "usr/local/via/lib/python2.7/site-packages/pkg_resources/_vendor/six.pyc",
                  "usr/local/via/lib/python2.7/site-packages/pkg_resources/_vendor/six.pyo",
                  "usr/local/via/lib/python2.7/site-packages/pkg_resources/extern/__init__.py",
                  "usr/local/via/lib/python2.7/site-packages/pkg_resources/extern/__init__.pyc",
                  "usr/local/via/lib/python2.7/site-packages/pkg_resources/extern/__init__.pyo",
                  "usr/local/via/lib/python2.7/site-packages/setuptools/__init__.py",
                  "usr/local/via/lib/python2.7/site-packages/setuptools/__init__.pyc",
                  "usr/local/via/lib/python2.7/site-packages/setuptools/__init__.pyo",
                  "usr/local/via/lib/python2.7/site-packages/setuptools/archive_util.py",
                  "usr/local/via/lib/python2.7/site-packages/setuptools/archive_util.pyc",
                  "usr/local/via/lib/python2.7/site-packages/setuptools/archive_util.pyo",
                  "usr/local/via/lib/python2.7/site-packages/setuptools/command/__init__.py",
                  "usr/local/via/lib/python2.7/site-packages/setuptools/command/__init__.pyc",
                  "usr/local/via/lib/python2.7/site-packages/setuptools/command/__init__.pyo",
                  "usr/local/via/lib/python2.7/site-packages/setuptools/command/alias.py",
                  "usr/local/via/lib/python2.7/site-packages/setuptools/command/alias.pyc",
                  "usr/local/via/lib/python2.7/site-packages/setuptools/command/alias.pyo",
                  "usr/local/via/lib/python2.7/site-packages/setuptools/command/bdist_egg.py",
                  "usr/local/via/lib/python2.7/site-packages/setuptools/command/bdist_egg.pyc",
                  "usr/local/via/lib/python2.7/site-packages/setuptools/command/bdist_egg.pyo",
                  "usr/local/via/lib/python2.7/site-packages/setuptools/command/bdist_rpm.py",
                  "usr/local/via/lib/python2.7/site-packages/setuptools/command/bdist_rpm.pyc",
                  "usr/local/via/lib/python2.7/site-packages/setuptools/command/bdist_rpm.pyo",
                  "usr/local/via/lib/python2.7/site-packages/setuptools/command/bdist_wininst.py",
                  "usr/local/via/lib/python2.7/site-packages/setuptools/command/bdist_wininst.pyc",
                  "usr/local/via/lib/python2.7/site-packages/setuptools/command/bdist_wininst.pyo",
                  "usr/local/via/lib/python2.7/site-packages/setuptools/command/build_ext.py",
                  "usr/local/via/lib/python2.7/site-packages/setuptools/command/build_ext.pyc",
                  "usr/local/via/lib/python2.7/site-packages/setuptools/command/build_ext.pyo",
                  "usr/local/via/lib/python2.7/site-packages/setuptools/command/build_py.py",
                  "usr/local/via/lib/python2.7/site-packages/setuptools/command/build_py.pyc",
                  "usr/local/via/lib/python2.7/site-packages/setuptools/command/build_py.pyo",
                  "usr/local/via/lib/python2.7/site-packages/setuptools/command/develop.py",
                  "usr/local/via/lib/python2.7/site-packages/setuptools/command/develop.pyc",
                  "usr/local/via/lib/python2.7/site-packages/setuptools/command/develop.pyo",
                  "usr/local/via/lib/python2.7/site-packages/setuptools/command/easy_install.py",
                  "usr/local/via/lib/python2.7/site-packages/setuptools/command/easy_install.pyc",
                  "usr/local/via/lib/python2.7/site-packages/setuptools/command/easy_install.pyo",
                  "usr/local/via/lib/python2.7/site-packages/setuptools/command/egg_info.py",
                  "usr/local/via/lib/python2.7/site-packages/setuptools/command/egg_info.pyc",
                  "usr/local/via/lib/python2.7/site-packages/setuptools/command/egg_info.pyo",
                  "usr/local/via/lib/python2.7/site-packages/setuptools/command/install.py",
                  "usr/local/via/lib/python2.7/site-packages/setuptools/command/install.pyc",
                  "usr/local/via/lib/python2.7/site-packages/setuptools/command/install.pyo",
                  "usr/local/via/lib/python2.7/site-packages/setuptools/command/install_egg_info.py",
                  "usr/local/via/lib/python2.7/site-packages/setuptools/command/install_egg_info.pyc",
                  "usr/local/via/lib/python2.7/site-packages/setuptools/command/install_egg_info.pyo",
                  "usr/local/via/lib/python2.7/site-packages/setuptools/command/install_lib.py",
                  "usr/local/via/lib/python2.7/site-packages/setuptools/command/install_lib.pyc",
                  "usr/local/via/lib/python2.7/site-packages/setuptools/command/install_lib.pyo",
                  "usr/local/via/lib/python2.7/site-packages/setuptools/command/install_scripts.py",
                  "usr/local/via/lib/python2.7/site-packages/setuptools/command/install_scripts.pyc",
                  "usr/local/via/lib/python2.7/site-packages/setuptools/command/install_scripts.pyo",
                  "usr/local/via/lib/python2.7/site-packages/setuptools/command/register.py",
                  "usr/local/via/lib/python2.7/site-packages/setuptools/command/register.pyc",
                  "usr/local/via/lib/python2.7/site-packages/setuptools/command/register.pyo",
                  "usr/local/via/lib/python2.7/site-packages/setuptools/command/rotate.py",
                  "usr/local/via/lib/python2.7/site-packages/setuptools/command/rotate.pyc",
                  "usr/local/via/lib/python2.7/site-packages/setuptools/command/rotate.pyo",
                  "usr/local/via/lib/python2.7/site-packages/setuptools/command/saveopts.py",
                  "usr/local/via/lib/python2.7/site-packages/setuptools/command/saveopts.pyc",
                  "usr/local/via/lib/python2.7/site-packages/setuptools/command/saveopts.pyo",
                  "usr/local/via/lib/python2.7/site-packages/setuptools/command/sdist.py",
                  "usr/local/via/lib/python2.7/site-packages/setuptools/command/sdist.pyc",
                  "usr/local/via/lib/python2.7/site-packages/setuptools/command/sdist.pyo",
                  "usr/local/via/lib/python2.7/site-packages/setuptools/command/setopt.py",
                  "usr/local/via/lib/python2.7/site-packages/setuptools/command/setopt.pyc",
                  "usr/local/via/lib/python2.7/site-packages/setuptools/command/setopt.pyo",
                  "usr/local/via/lib/python2.7/site-packages/setuptools/command/test.py",
                  "usr/local/via/lib/python2.7/site-packages/setuptools/command/test.pyc",
                  "usr/local/via/lib/python2.7/site-packages/setuptools/command/test.pyo",
                  "usr/local/via/lib/python2.7/site-packages/setuptools/command/upload.py",
                  "usr/local/via/lib/python2.7/site-packages/setuptools/command/upload.pyc",
                  "usr/local/via/lib/python2.7/site-packages/setuptools/command/upload.pyo",
                  "usr/local/via/lib/python2.7/site-packages/setuptools/command/upload_docs.py",
                  "usr/local/via/lib/python2.7/site-packages/setuptools/command/upload_docs.pyc",
                  "usr/local/via/lib/python2.7/site-packages/setuptools/command/upload_docs.pyo",
                  "usr/local/via/lib/python2.7/site-packages/setuptools/depends.py",
                  "usr/local/via/lib/python2.7/site-packages/setuptools/depends.pyc",
                  "usr/local/via/lib/python2.7/site-packages/setuptools/depends.pyo",
                  "usr/local/via/lib/python2.7/site-packages/setuptools/dist.py",
                  "usr/local/via/lib/python2.7/site-packages/setuptools/dist.pyc",
                  "usr/local/via/lib/python2.7/site-packages/setuptools/dist.pyo",
                  "usr/local/via/lib/python2.7/site-packages/setuptools/extension.py",
                  "usr/local/via/lib/python2.7/site-packages/setuptools/extension.pyc",
                  "usr/local/via/lib/python2.7/site-packages/setuptools/extension.pyo",
                  "usr/local/via/lib/python2.7/site-packages/setuptools/extern/__init__.py",
                  "usr/local/via/lib/python2.7/site-packages/setuptools/extern/__init__.pyc",
                  "usr/local/via/lib/python2.7/site-packages/setuptools/extern/__init__.pyo",
                  "usr/local/via/lib/python2.7/site-packages/setuptools/launch.py",
                  "usr/local/via/lib/python2.7/site-packages/setuptools/launch.pyc",
                  "usr/local/via/lib/python2.7/site-packages/setuptools/launch.pyo",
                  "usr/local/via/lib/python2.7/site-packages/setuptools/lib2to3_ex.py",
                  "usr/local/via/lib/python2.7/site-packages/setuptools/lib2to3_ex.pyc",
                  "usr/local/via/lib/python2.7/site-packages/setuptools/lib2to3_ex.pyo",
                  "usr/local/via/lib/python2.7/site-packages/setuptools/msvc9_support.py",
                  "usr/local/via/lib/python2.7/site-packages/setuptools/msvc9_support.pyc",
                  "usr/local/via/lib/python2.7/site-packages/setuptools/msvc9_support.pyo",
                  "usr/local/via/lib/python2.7/site-packages/setuptools/package_index.py",
                  "usr/local/via/lib/python2.7/site-packages/setuptools/package_index.pyc",
                  "usr/local/via/lib/python2.7/site-packages/setuptools/package_index.pyo",
                  "usr/local/via/lib/python2.7/site-packages/setuptools/py26compat.py",
                  "usr/local/via/lib/python2.7/site-packages/setuptools/py26compat.pyc",
                  "usr/local/via/lib/python2.7/site-packages/setuptools/py26compat.pyo",
                  "usr/local/via/lib/python2.7/site-packages/setuptools/py27compat.py",
                  "usr/local/via/lib/python2.7/site-packages/setuptools/py27compat.pyc",
                  "usr/local/via/lib/python2.7/site-packages/setuptools/py27compat.pyo",
                  "usr/local/via/lib/python2.7/site-packages/setuptools/py31compat.py",
                  "usr/local/via/lib/python2.7/site-packages/setuptools/py31compat.pyc",
                  "usr/local/via/lib/python2.7/site-packages/setuptools/py31compat.pyo",
                  "usr/local/via/lib/python2.7/site-packages/setuptools/sandbox.py",
                  "usr/local/via/lib/python2.7/site-packages/setuptools/sandbox.pyc",
                  "usr/local/via/lib/python2.7/site-packages/setuptools/sandbox.pyo",
                  "usr/local/via/lib/python2.7/site-packages/setuptools/script (dev).tmpl",
                  "usr/local/via/lib/python2.7/site-packages/setuptools/script.tmpl",
                  "usr/local/via/lib/python2.7/site-packages/setuptools/site-patch.py",
                  "usr/local/via/lib/python2.7/site-packages/setuptools/site-patch.pyc",
                  "usr/local/via/lib/python2.7/site-packages/setuptools/site-patch.pyo",
                  "usr/local/via/lib/python2.7/site-packages/setuptools/ssl_support.py",
                  "usr/local/via/lib/python2.7/site-packages/setuptools/ssl_support.pyc",
                  "usr/local/via/lib/python2.7/site-packages/setuptools/ssl_support.pyo",
                  "usr/local/via/lib/python2.7/site-packages/setuptools/unicode_utils.py",
                  "usr/local/via/lib/python2.7/site-packages/setuptools/unicode_utils.pyc",
                  "usr/local/via/lib/python2.7/site-packages/setuptools/unicode_utils.pyo",
                  "usr/local/via/lib/python2.7/site-packages/setuptools/utils.py",
                  "usr/local/via/lib/python2.7/site-packages/setuptools/utils.pyc",
                  "usr/local/via/lib/python2.7/site-packages/setuptools/utils.pyo",
                  "usr/local/via/lib/python2.7/site-packages/setuptools/version.py",
                  "usr/local/via/lib/python2.7/site-packages/setuptools/version.pyc",
                  "usr/local/via/lib/python2.7/site-packages/setuptools/version.pyo",
                  "usr/local/via/lib/python2.7/site-packages/setuptools/windows_support.py",
                  "usr/local/via/lib/python2.7/site-packages/setuptools/windows_support.pyc",
                  "usr/local/via/lib/python2.7/site-packages/setuptools/windows_support.pyo",
                  "usr/local/via/lib/python2.7/site-packages/setuptools-20.2.2-py2.7.egg-info/PKG-INFO",
                  "usr/local/via/lib/python2.7/site-packages/setuptools-20.2.2-py2.7.egg-info/SOURCES.txt",
                  "usr/local/via/lib/python2.7/site-packages/setuptools-20.2.2-py2.7.egg-info/dependency_links.txt",
                  "usr/local/via/lib/python2.7/site-packages/setuptools-20.2.2-py2.7.egg-info/entry_points.txt",
                  "usr/local/via/lib/python2.7/site-packages/setuptools-20.2.2-py2.7.egg-info/requires.txt",
                  "usr/local/via/lib/python2.7/site-packages/setuptools-20.2.2-py2.7.egg-info/top_level.txt",
                  "usr/local/via/lib/python2.7/site-packages/setuptools-20.2.2-py2.7.egg-info/zip-safe"
    ]
}
