{
    "Name"         : "binutils-i686",
    "Version"      : "2.26",
    "Url"          : "http://mirrors.kernel.org/gnu/binutils/binutils-2.26.tar.bz2",
    "Group"        : "core",
    "StageDir"     : "binutils-2.26",
    "Inherit"      : "gnu-i686-cross",
    "Oid"          : "",
    "BuildInStage" : false,
    "BuildTime"    : 0,
    "Date"         : "2016-02-10T14:40:19.400383301-08:00",
    "Size"         : 34299879,
    "SubPackages"  : null,
    "AutoDepends"  : [
                   "glibc",
                   "glibc-i686"
    ],
    "ManualDepends" : null,
    "BuildDepends"  : null,
    "Flags"         : null,
    "Patch"         : null,
    "Build"         : null,
    "Package"       : null,
    "PostInstall"   : null,
    "Remove"        : null,
    "Files"         : [
                    "usr/local/via/bin/i686-via-linux-newlib-addr2line",
                    "usr/local/via/bin/i686-via-linux-newlib-ar",
                    "usr/local/via/bin/i686-via-linux-newlib-as",
                    "usr/local/via/bin/i686-via-linux-newlib-c++filt",
                    "usr/local/via/bin/i686-via-linux-newlib-elfedit",
                    "usr/local/via/bin/i686-via-linux-newlib-gprof",
                    "usr/local/via/bin/i686-via-linux-newlib-ld",
                    "usr/local/via/bin/i686-via-linux-newlib-ld.bfd",
                    "usr/local/via/bin/i686-via-linux-newlib-nm",
                    "usr/local/via/bin/i686-via-linux-newlib-objcopy",
                    "usr/local/via/bin/i686-via-linux-newlib-objdump",
                    "usr/local/via/bin/i686-via-linux-newlib-ranlib",
                    "usr/local/via/bin/i686-via-linux-newlib-readelf",
                    "usr/local/via/bin/i686-via-linux-newlib-size",
                    "usr/local/via/bin/i686-via-linux-newlib-strings",
                    "usr/local/via/bin/i686-via-linux-newlib-strip",
                    "usr/local/via/i686-via-linux-newlib/bin/ar",
                    "usr/local/via/i686-via-linux-newlib/bin/as",
                    "usr/local/via/i686-via-linux-newlib/bin/ld",
                    "usr/local/via/i686-via-linux-newlib/bin/ld.bfd",
                    "usr/local/via/i686-via-linux-newlib/bin/nm",
                    "usr/local/via/i686-via-linux-newlib/bin/objcopy",
                    "usr/local/via/i686-via-linux-newlib/bin/objdump",
                    "usr/local/via/i686-via-linux-newlib/bin/ranlib",
                    "usr/local/via/i686-via-linux-newlib/bin/readelf",
                    "usr/local/via/i686-via-linux-newlib/bin/strip",
                    "usr/local/via/i686-via-linux-newlib/lib/ldscripts/elf32_x86_64.x",
                    "usr/local/via/i686-via-linux-newlib/lib/ldscripts/elf32_x86_64.xbn",
                    "usr/local/via/i686-via-linux-newlib/lib/ldscripts/elf32_x86_64.xc",
                    "usr/local/via/i686-via-linux-newlib/lib/ldscripts/elf32_x86_64.xd",
                    "usr/local/via/i686-via-linux-newlib/lib/ldscripts/elf32_x86_64.xdc",
                    "usr/local/via/i686-via-linux-newlib/lib/ldscripts/elf32_x86_64.xdw",
                    "usr/local/via/i686-via-linux-newlib/lib/ldscripts/elf32_x86_64.xn",
                    "usr/local/via/i686-via-linux-newlib/lib/ldscripts/elf32_x86_64.xr",
                    "usr/local/via/i686-via-linux-newlib/lib/ldscripts/elf32_x86_64.xs",
                    "usr/local/via/i686-via-linux-newlib/lib/ldscripts/elf32_x86_64.xsc",
                    "usr/local/via/i686-via-linux-newlib/lib/ldscripts/elf32_x86_64.xsw",
                    "usr/local/via/i686-via-linux-newlib/lib/ldscripts/elf32_x86_64.xu",
                    "usr/local/via/i686-via-linux-newlib/lib/ldscripts/elf32_x86_64.xw",
                    "usr/local/via/i686-via-linux-newlib/lib/ldscripts/elf_i386.x",
                    "usr/local/via/i686-via-linux-newlib/lib/ldscripts/elf_i386.xbn",
                    "usr/local/via/i686-via-linux-newlib/lib/ldscripts/elf_i386.xc",
                    "usr/local/via/i686-via-linux-newlib/lib/ldscripts/elf_i386.xd",
                    "usr/local/via/i686-via-linux-newlib/lib/ldscripts/elf_i386.xdc",
                    "usr/local/via/i686-via-linux-newlib/lib/ldscripts/elf_i386.xdw",
                    "usr/local/via/i686-via-linux-newlib/lib/ldscripts/elf_i386.xn",
                    "usr/local/via/i686-via-linux-newlib/lib/ldscripts/elf_i386.xr",
                    "usr/local/via/i686-via-linux-newlib/lib/ldscripts/elf_i386.xs",
                    "usr/local/via/i686-via-linux-newlib/lib/ldscripts/elf_i386.xsc",
                    "usr/local/via/i686-via-linux-newlib/lib/ldscripts/elf_i386.xsw",
                    "usr/local/via/i686-via-linux-newlib/lib/ldscripts/elf_i386.xu",
                    "usr/local/via/i686-via-linux-newlib/lib/ldscripts/elf_i386.xw",
                    "usr/local/via/i686-via-linux-newlib/lib/ldscripts/elf_iamcu.x",
                    "usr/local/via/i686-via-linux-newlib/lib/ldscripts/elf_iamcu.xbn",
                    "usr/local/via/i686-via-linux-newlib/lib/ldscripts/elf_iamcu.xc",
                    "usr/local/via/i686-via-linux-newlib/lib/ldscripts/elf_iamcu.xd",
                    "usr/local/via/i686-via-linux-newlib/lib/ldscripts/elf_iamcu.xdc",
                    "usr/local/via/i686-via-linux-newlib/lib/ldscripts/elf_iamcu.xdw",
                    "usr/local/via/i686-via-linux-newlib/lib/ldscripts/elf_iamcu.xn",
                    "usr/local/via/i686-via-linux-newlib/lib/ldscripts/elf_iamcu.xr",
                    "usr/local/via/i686-via-linux-newlib/lib/ldscripts/elf_iamcu.xs",
                    "usr/local/via/i686-via-linux-newlib/lib/ldscripts/elf_iamcu.xsc",
                    "usr/local/via/i686-via-linux-newlib/lib/ldscripts/elf_iamcu.xsw",
                    "usr/local/via/i686-via-linux-newlib/lib/ldscripts/elf_iamcu.xu",
                    "usr/local/via/i686-via-linux-newlib/lib/ldscripts/elf_iamcu.xw",
                    "usr/local/via/i686-via-linux-newlib/lib/ldscripts/elf_k1om.x",
                    "usr/local/via/i686-via-linux-newlib/lib/ldscripts/elf_k1om.xbn",
                    "usr/local/via/i686-via-linux-newlib/lib/ldscripts/elf_k1om.xc",
                    "usr/local/via/i686-via-linux-newlib/lib/ldscripts/elf_k1om.xd",
                    "usr/local/via/i686-via-linux-newlib/lib/ldscripts/elf_k1om.xdc",
                    "usr/local/via/i686-via-linux-newlib/lib/ldscripts/elf_k1om.xdw",
                    "usr/local/via/i686-via-linux-newlib/lib/ldscripts/elf_k1om.xn",
                    "usr/local/via/i686-via-linux-newlib/lib/ldscripts/elf_k1om.xr",
                    "usr/local/via/i686-via-linux-newlib/lib/ldscripts/elf_k1om.xs",
                    "usr/local/via/i686-via-linux-newlib/lib/ldscripts/elf_k1om.xsc",
                    "usr/local/via/i686-via-linux-newlib/lib/ldscripts/elf_k1om.xsw",
                    "usr/local/via/i686-via-linux-newlib/lib/ldscripts/elf_k1om.xu",
                    "usr/local/via/i686-via-linux-newlib/lib/ldscripts/elf_k1om.xw",
                    "usr/local/via/i686-via-linux-newlib/lib/ldscripts/elf_l1om.x",
                    "usr/local/via/i686-via-linux-newlib/lib/ldscripts/elf_l1om.xbn",
                    "usr/local/via/i686-via-linux-newlib/lib/ldscripts/elf_l1om.xc",
                    "usr/local/via/i686-via-linux-newlib/lib/ldscripts/elf_l1om.xd",
                    "usr/local/via/i686-via-linux-newlib/lib/ldscripts/elf_l1om.xdc",
                    "usr/local/via/i686-via-linux-newlib/lib/ldscripts/elf_l1om.xdw",
                    "usr/local/via/i686-via-linux-newlib/lib/ldscripts/elf_l1om.xn",
                    "usr/local/via/i686-via-linux-newlib/lib/ldscripts/elf_l1om.xr",
                    "usr/local/via/i686-via-linux-newlib/lib/ldscripts/elf_l1om.xs",
                    "usr/local/via/i686-via-linux-newlib/lib/ldscripts/elf_l1om.xsc",
                    "usr/local/via/i686-via-linux-newlib/lib/ldscripts/elf_l1om.xsw",
                    "usr/local/via/i686-via-linux-newlib/lib/ldscripts/elf_l1om.xu",
                    "usr/local/via/i686-via-linux-newlib/lib/ldscripts/elf_l1om.xw",
                    "usr/local/via/i686-via-linux-newlib/lib/ldscripts/elf_x86_64.x",
                    "usr/local/via/i686-via-linux-newlib/lib/ldscripts/elf_x86_64.xbn",
                    "usr/local/via/i686-via-linux-newlib/lib/ldscripts/elf_x86_64.xc",
                    "usr/local/via/i686-via-linux-newlib/lib/ldscripts/elf_x86_64.xd",
                    "usr/local/via/i686-via-linux-newlib/lib/ldscripts/elf_x86_64.xdc",
                    "usr/local/via/i686-via-linux-newlib/lib/ldscripts/elf_x86_64.xdw",
                    "usr/local/via/i686-via-linux-newlib/lib/ldscripts/elf_x86_64.xn",
                    "usr/local/via/i686-via-linux-newlib/lib/ldscripts/elf_x86_64.xr",
                    "usr/local/via/i686-via-linux-newlib/lib/ldscripts/elf_x86_64.xs",
                    "usr/local/via/i686-via-linux-newlib/lib/ldscripts/elf_x86_64.xsc",
                    "usr/local/via/i686-via-linux-newlib/lib/ldscripts/elf_x86_64.xsw",
                    "usr/local/via/i686-via-linux-newlib/lib/ldscripts/elf_x86_64.xu",
                    "usr/local/via/i686-via-linux-newlib/lib/ldscripts/elf_x86_64.xw",
                    "usr/local/via/i686-via-linux-newlib/lib/ldscripts/i386linux.x",
                    "usr/local/via/i686-via-linux-newlib/lib/ldscripts/i386linux.xbn",
                    "usr/local/via/i686-via-linux-newlib/lib/ldscripts/i386linux.xn",
                    "usr/local/via/i686-via-linux-newlib/lib/ldscripts/i386linux.xr",
                    "usr/local/via/i686-via-linux-newlib/lib/ldscripts/i386linux.xu"
    ]
}
