{
    "Name"         : "ccache",
    "Version"      : "3.1.7",
    "Url"          : "http://samba.org/ftp/ccache/ccache-$Version.tar.gz",
    "Group"        : "core",
    "StageDir"     : "",
    "Inherit"      : "gnu-nostrip",
    "Oid"          : "3B237FA618A91124600083AD455644981264BAC9CF36DEACBD72428FBAC0DE9D",
    "BuildInStage" : false,
    "BuildTime"    : 4665966173,
    "Date"         : "2016-10-12T16:55:39.123351799-07:00",
    "Size"         : 99629,
    "SubPackages"  : null,
    "AutoDepends"  : [
                   "glibc",
                   "zlib"
    ],
    "ManualDepends" : null,
    "BuildDepends"  : null,
    "Flags"         : null,
    "Patch"         : null,
    "Build"         : null,
    "Package"       : [
                    "mkdir -p $PKGDIR/$PREFIX/lib/ccache",
                    "ln -s $PREFIX/bin/ccache $PKGDIR/$PREFIX/lib/ccache/gcc",
                    "ln -s $PREFIX/bin/ccache $PKGDIR/$PREFIX/lib/ccache/clang",
                    "ln -s $PREFIX/bin/ccache $PKGDIR/$PREFIX/lib/ccache/g++",
                    "ln -s $PREFIX/bin/ccache $PKGDIR/$PREFIX/lib/ccache/cpp",
                    "ln -s $PREFIX/bin/ccache $PKGDIR/$PREFIX/lib/ccache/i686-via-linux-gnu-gcc"
    ],
    "PostInstall" : null,
    "Remove"      : null,
    "Files"       : [
                  "usr/local/via/bin/ccache",
                  "usr/local/via/lib/ccache/clang",
                  "usr/local/via/lib/ccache/cpp",
                  "usr/local/via/lib/ccache/g++",
                  "usr/local/via/lib/ccache/gcc",
                  "usr/local/via/lib/ccache/i686-via-linux-gnu-gcc"
    ]
}
