{
    "Name"         : "expat",
    "Version"      : "2.1.0",
    "Url"          : "http://downloads.sourceforge.net/project/expat/expat/2.1.0/expat-2.1.0.tar.gz",
    "Group"        : "core",
    "StageDir"     : "",
    "Inherit"      : "gnu-nostrip",
    "Oid"          : "E8079C3A33801680C3FE2C714D3F487F9AFDAF3F83BC322C8812C4587F6E8ADC",
    "BuildInStage" : false,
    "BuildTime"    : 0,
    "Date"         : "2016-10-12T15:18:30.894838971-07:00",
    "Size"         : 276338,
    "SubPackages"  : null,
    "AutoDepends"  : [
                   "glibc"
    ],
    "ManualDepends" : null,
    "BuildDepends"  : null,
    "Flags"         : null,
    "Patch"         : null,
    "Build"         : null,
    "Package"       : null,
    "PostInstall"   : null,
    "Remove"        : null,
    "Files"         : [
                    "usr/local/via/bin/xmlwf",
                    "usr/local/via/include/expat.h",
                    "usr/local/via/include/expat_external.h",
                    "usr/local/via/lib/libexpat.la",
                    "usr/local/via/lib/libexpat.so",
                    "usr/local/via/lib/libexpat.so.1",
                    "usr/local/via/lib/libexpat.so.1.6.0",
                    "usr/local/via/lib/pkgconfig/expat.pc"
    ]
}
