{
    "Name"         : "gawk",
    "Version"      : "4.1.3",
    "Url"          : "http://mirrors.kernel.org/gnu/gawk/gawk-4.1.3.tar.gz",
    "Group"        : "core",
    "StageDir"     : "",
    "Inherit"      : "gnu",
    "Oid"          : "D4E22EBC21394040ABCCF2C7DB934705C15BAFBA6E3383BD02DEB2BA4C781B67",
    "BuildInStage" : false,
    "BuildTime"    : 19356772859,
    "Date"         : "2016-10-11T20:41:25.109550385-07:00",
    "Size"         : 1593110,
    "SubPackages"  : null,
    "AutoDepends"  : [
                   "glibc",
                   "gmp",
                   "mpfr"
    ],
    "ManualDepends" : null,
    "BuildDepends"  : null,
    "Flags"         : null,
    "Patch"         : null,
    "Build"         : null,
    "Package"       : null,
    "PostInstall"   : null,
    "Remove"        : null,
    "Files"         : [
                    "usr/local/via/bin/awk",
                    "usr/local/via/bin/gawk",
                    "usr/local/via/bin/gawk-4.1.3",
                    "usr/local/via/bin/igawk",
                    "usr/local/via/include/gawkapi.h",
                    "usr/local/via/lib/awk/grcat",
                    "usr/local/via/lib/awk/pwcat",
                    "usr/local/via/lib/gawk/filefuncs.so",
                    "usr/local/via/lib/gawk/fnmatch.so",
                    "usr/local/via/lib/gawk/fork.so",
                    "usr/local/via/lib/gawk/inplace.so",
                    "usr/local/via/lib/gawk/ordchr.so",
                    "usr/local/via/lib/gawk/readdir.so",
                    "usr/local/via/lib/gawk/readfile.so",
                    "usr/local/via/lib/gawk/revoutput.so",
                    "usr/local/via/lib/gawk/revtwoway.so",
                    "usr/local/via/lib/gawk/rwarray.so",
                    "usr/local/via/lib/gawk/testext.so",
                    "usr/local/via/lib/gawk/time.so",
                    "usr/local/via/share/awk/assert.awk",
                    "usr/local/via/share/awk/bits2str.awk",
                    "usr/local/via/share/awk/cliff_rand.awk",
                    "usr/local/via/share/awk/ctime.awk",
                    "usr/local/via/share/awk/ftrans.awk",
                    "usr/local/via/share/awk/getopt.awk",
                    "usr/local/via/share/awk/gettime.awk",
                    "usr/local/via/share/awk/group.awk",
                    "usr/local/via/share/awk/inplace.awk",
                    "usr/local/via/share/awk/join.awk",
                    "usr/local/via/share/awk/libintl.awk",
                    "usr/local/via/share/awk/noassign.awk",
                    "usr/local/via/share/awk/ord.awk",
                    "usr/local/via/share/awk/passwd.awk",
                    "usr/local/via/share/awk/processarray.awk",
                    "usr/local/via/share/awk/quicksort.awk",
                    "usr/local/via/share/awk/readable.awk",
                    "usr/local/via/share/awk/readfile.awk",
                    "usr/local/via/share/awk/rewind.awk",
                    "usr/local/via/share/awk/round.awk",
                    "usr/local/via/share/awk/shellquote.awk",
                    "usr/local/via/share/awk/strtonum.awk",
                    "usr/local/via/share/awk/walkarray.awk",
                    "usr/local/via/share/awk/zerofile.awk"
    ]
}
