{
    "Name"         : "gdbm",
    "Version"      : "1.11",
    "Url"          : "http://mirrors.kernel.org/gnu/gdbm/gdbm-1.11.tar.gz",
    "Group"        : "core",
    "StageDir"     : "",
    "Inherit"      : "gnu",
    "Oid"          : "EE50A3BB8B573297D5B80E36318B1B7BD9772E5C6B0CF586C52E8AEE3A574024",
    "BuildInStage" : false,
    "BuildTime"    : 0,
    "Date"         : "2016-10-12T14:13:00.873112264-07:00",
    "Size"         : 232100,
    "SubPackages"  : null,
    "AutoDepends"  : [
                   "glibc"
    ],
    "ManualDepends" : null,
    "BuildDepends"  : null,
    "Flags"         : [
                    "--enable-libgdbm-compat"
    ],
    "Patch"   : null,
    "Build"   : null,
    "Package" : [
              "mkdir -p $PKGDIR/$PREFIX/include/gdbm",
              "ln -sf ../gdbm.h $PKGDIR/$PREFIX/include/gdbm/gdbm.h",
              "ln -sf ../ndbm.h $PKGDIR/$PREFIX/include/gdbm/ndbm.h",
              "ln -sf ../dbm.h $PKGDIR/$PREFIX/include/gdbm/dbm.h"
    ],
    "PostInstall" : null,
    "Remove"      : null,
    "Files"       : [
                  "usr/local/via/bin/gdbm_dump",
                  "usr/local/via/bin/gdbm_load",
                  "usr/local/via/bin/gdbmtool",
                  "usr/local/via/include/dbm.h",
                  "usr/local/via/include/gdbm/dbm.h",
                  "usr/local/via/include/gdbm/gdbm.h",
                  "usr/local/via/include/gdbm/ndbm.h",
                  "usr/local/via/include/gdbm.h",
                  "usr/local/via/include/ndbm.h",
                  "usr/local/via/lib/libgdbm.la",
                  "usr/local/via/lib/libgdbm.so",
                  "usr/local/via/lib/libgdbm.so.4",
                  "usr/local/via/lib/libgdbm.so.4.0.0",
                  "usr/local/via/lib/libgdbm_compat.la",
                  "usr/local/via/lib/libgdbm_compat.so",
                  "usr/local/via/lib/libgdbm_compat.so.4",
                  "usr/local/via/lib/libgdbm_compat.so.4.0.0"
    ]
}
