{
    "Name"         : "gperf",
    "Version"      : "3.0.4",
    "Url"          : "http://mirrors.kernel.org/gnu/gperf/gperf-3.0.4.tar.gz",
    "Group"        : "core",
    "StageDir"     : "",
    "Inherit"      : "gnu-nostrip",
    "Oid"          : "F49DD54C7719DB6F2E25237F9E02975D25DED25D5638ABC4CBF57FE36788F88A",
    "BuildInStage" : false,
    "BuildTime"    : 0,
    "Date"         : "2016-10-20T22:20:58.542963472-07:00",
    "Size"         : 103008,
    "SubPackages"  : null,
    "AutoDepends"  : [
                   "glibc",
                   "libgcc",
                   "libstdc++"
    ],
    "ManualDepends" : null,
    "BuildDepends"  : null,
    "Flags"         : null,
    "Patch"         : null,
    "Build"         : null,
    "Package"       : null,
    "PostInstall"   : null,
    "Remove"        : null,
    "Files"         : [
                    "usr/local/via/bin/gperf"
    ]
}
