{
    "Name"         : "groff",
    "Version"      : "1.22.3",
    "Url"          : "http://mirrors.kernel.org/gnu/groff/groff-1.22.3.tar.gz",
    "Group"        : "core",
    "StageDir"     : "",
    "Inherit"      : "gnu-nostrip",
    "Oid"          : "",
    "BuildInStage" : false,
    "BuildTime"    : 0,
    "Date"         : "2016-02-08T10:21:38.580197128-08:00",
    "Size"         : 9302739,
    "SubPackages"  : null,
    "AutoDepends"  : [
                   "glibc",
                   "libgcc",
                   "libstdc++"
    ],
    "ManualDepends" : null,
    "BuildDepends"  : null,
    "Flags"         : [
                    "--without-x"
    ],
    "Patch"       : null,
    "Build"       : null,
    "Package"     : null,
    "PostInstall" : null,
    "Remove"      : null,
    "Files"       : [
                  "usr/local/via/bin/addftinfo",
                  "usr/local/via/bin/afmtodit",
                  "usr/local/via/bin/chem",
                  "usr/local/via/bin/eqn",
                  "usr/local/via/bin/eqn2graph",
                  "usr/local/via/bin/gdiffmk",
                  "usr/local/via/bin/glilypond",
                  "usr/local/via/bin/gperl",
                  "usr/local/via/bin/gpinyin",
                  "usr/local/via/bin/grap2graph",
                  "usr/local/via/bin/grn",
                  "usr/local/via/bin/grodvi",
                  "usr/local/via/bin/groff",
                  "usr/local/via/bin/groffer",
                  "usr/local/via/bin/grog",
                  "usr/local/via/bin/grolbp",
                  "usr/local/via/bin/grolj4",
                  "usr/local/via/bin/gropdf",
                  "usr/local/via/bin/grops",
                  "usr/local/via/bin/grotty",
                  "usr/local/via/bin/hpftodit",
                  "usr/local/via/bin/indxbib",
                  "usr/local/via/bin/lkbib",
                  "usr/local/via/bin/lookbib",
                  "usr/local/via/bin/mmroff",
                  "usr/local/via/bin/neqn",
                  "usr/local/via/bin/nroff",
                  "usr/local/via/bin/pdfmom",
                  "usr/local/via/bin/pdfroff",
                  "usr/local/via/bin/pfbtops",
                  "usr/local/via/bin/pic",
                  "usr/local/via/bin/pic2graph",
                  "usr/local/via/bin/post-grohtml",
                  "usr/local/via/bin/pre-grohtml",
                  "usr/local/via/bin/preconv",
                  "usr/local/via/bin/refer",
                  "usr/local/via/bin/roff2dvi",
                  "usr/local/via/bin/roff2html",
                  "usr/local/via/bin/roff2pdf",
                  "usr/local/via/bin/roff2ps",
                  "usr/local/via/bin/roff2text",
                  "usr/local/via/bin/roff2x",
                  "usr/local/via/bin/soelim",
                  "usr/local/via/bin/tbl",
                  "usr/local/via/bin/tfmtodit",
                  "usr/local/via/bin/troff",
                  "usr/local/via/lib/groff/glilypond/args.pl",
                  "usr/local/via/lib/groff/glilypond/oop_fh.pl",
                  "usr/local/via/lib/groff/glilypond/subs.pl",
                  "usr/local/via/lib/groff/gpinyin/subs.pl",
                  "usr/local/via/lib/groff/groff_opts_no_arg.txt",
                  "usr/local/via/lib/groff/groff_opts_with_arg.txt",
                  "usr/local/via/lib/groff/groffer/main_subs.pl",
                  "usr/local/via/lib/groff/groffer/man.pl",
                  "usr/local/via/lib/groff/groffer/split_env.sh",
                  "usr/local/via/lib/groff/groffer/subs.pl",
                  "usr/local/via/lib/groff/groffer/version.sh",
                  "usr/local/via/lib/groff/grog/subs.pl",
                  "usr/local/via/share/groff/1.22.3/eign",
                  "usr/local/via/share/groff/1.22.3/font/devascii/B",
                  "usr/local/via/share/groff/1.22.3/font/devascii/BI",
                  "usr/local/via/share/groff/1.22.3/font/devascii/DESC",
                  "usr/local/via/share/groff/1.22.3/font/devascii/I",
                  "usr/local/via/share/groff/1.22.3/font/devascii/R",
                  "usr/local/via/share/groff/1.22.3/font/devdvi/CW",
                  "usr/local/via/share/groff/1.22.3/font/devdvi/CWEC",
                  "usr/local/via/share/groff/1.22.3/font/devdvi/CWI",
                  "usr/local/via/share/groff/1.22.3/font/devdvi/CWIEC",
                  "usr/local/via/share/groff/1.22.3/font/devdvi/CWITC",
                  "usr/local/via/share/groff/1.22.3/font/devdvi/CWTC",
                  "usr/local/via/share/groff/1.22.3/font/devdvi/DESC",
                  "usr/local/via/share/groff/1.22.3/font/devdvi/EX",
                  "usr/local/via/share/groff/1.22.3/font/devdvi/HB",
                  "usr/local/via/share/groff/1.22.3/font/devdvi/HBEC",
                  "usr/local/via/share/groff/1.22.3/font/devdvi/HBI",
                  "usr/local/via/share/groff/1.22.3/font/devdvi/HBIEC",
                  "usr/local/via/share/groff/1.22.3/font/devdvi/HBITC",
                  "usr/local/via/share/groff/1.22.3/font/devdvi/HBTC",
                  "usr/local/via/share/groff/1.22.3/font/devdvi/HI",
                  "usr/local/via/share/groff/1.22.3/font/devdvi/HIEC",
                  "usr/local/via/share/groff/1.22.3/font/devdvi/HITC",
                  "usr/local/via/share/groff/1.22.3/font/devdvi/HR",
                  "usr/local/via/share/groff/1.22.3/font/devdvi/HREC",
                  "usr/local/via/share/groff/1.22.3/font/devdvi/HRTC",
                  "usr/local/via/share/groff/1.22.3/font/devdvi/MI",
                  "usr/local/via/share/groff/1.22.3/font/devdvi/S",
                  "usr/local/via/share/groff/1.22.3/font/devdvi/SA",
                  "usr/local/via/share/groff/1.22.3/font/devdvi/SB",
                  "usr/local/via/share/groff/1.22.3/font/devdvi/SC",
                  "usr/local/via/share/groff/1.22.3/font/devdvi/TB",
                  "usr/local/via/share/groff/1.22.3/font/devdvi/TBEC",
                  "usr/local/via/share/groff/1.22.3/font/devdvi/TBI",
                  "usr/local/via/share/groff/1.22.3/font/devdvi/TBIEC",
                  "usr/local/via/share/groff/1.22.3/font/devdvi/TBITC",
                  "usr/local/via/share/groff/1.22.3/font/devdvi/TBTC",
                  "usr/local/via/share/groff/1.22.3/font/devdvi/TI",
                  "usr/local/via/share/groff/1.22.3/font/devdvi/TIEC",
                  "usr/local/via/share/groff/1.22.3/font/devdvi/TITC",
                  "usr/local/via/share/groff/1.22.3/font/devdvi/TR",
                  "usr/local/via/share/groff/1.22.3/font/devdvi/TREC",
                  "usr/local/via/share/groff/1.22.3/font/devdvi/TRTC",
                  "usr/local/via/share/groff/1.22.3/font/devdvi/generate/CompileFonts",
                  "usr/local/via/share/groff/1.22.3/font/devdvi/generate/Makefile",
                  "usr/local/via/share/groff/1.22.3/font/devdvi/generate/ec.map",
                  "usr/local/via/share/groff/1.22.3/font/devdvi/generate/msam.map",
                  "usr/local/via/share/groff/1.22.3/font/devdvi/generate/msbm.map",
                  "usr/local/via/share/groff/1.22.3/font/devdvi/generate/tc.map",
                  "usr/local/via/share/groff/1.22.3/font/devdvi/generate/texb.map",
                  "usr/local/via/share/groff/1.22.3/font/devdvi/generate/texex.map",
                  "usr/local/via/share/groff/1.22.3/font/devdvi/generate/texi.map",
                  "usr/local/via/share/groff/1.22.3/font/devdvi/generate/texmi.map",
                  "usr/local/via/share/groff/1.22.3/font/devdvi/generate/texr.map",
                  "usr/local/via/share/groff/1.22.3/font/devdvi/generate/texsy.map",
                  "usr/local/via/share/groff/1.22.3/font/devdvi/generate/textex.map",
                  "usr/local/via/share/groff/1.22.3/font/devdvi/generate/textt.map",
                  "usr/local/via/share/groff/1.22.3/font/devhtml/B",
                  "usr/local/via/share/groff/1.22.3/font/devhtml/BI",
                  "usr/local/via/share/groff/1.22.3/font/devhtml/CB",
                  "usr/local/via/share/groff/1.22.3/font/devhtml/CBI",
                  "usr/local/via/share/groff/1.22.3/font/devhtml/CI",
                  "usr/local/via/share/groff/1.22.3/font/devhtml/CR",
                  "usr/local/via/share/groff/1.22.3/font/devhtml/DESC",
                  "usr/local/via/share/groff/1.22.3/font/devhtml/I",
                  "usr/local/via/share/groff/1.22.3/font/devhtml/R",
                  "usr/local/via/share/groff/1.22.3/font/devhtml/S",
                  "usr/local/via/share/groff/1.22.3/font/devlatin1/B",
                  "usr/local/via/share/groff/1.22.3/font/devlatin1/BI",
                  "usr/local/via/share/groff/1.22.3/font/devlatin1/DESC",
                  "usr/local/via/share/groff/1.22.3/font/devlatin1/I",
                  "usr/local/via/share/groff/1.22.3/font/devlatin1/R",
                  "usr/local/via/share/groff/1.22.3/font/devlbp/CB",
                  "usr/local/via/share/groff/1.22.3/font/devlbp/CI",
                  "usr/local/via/share/groff/1.22.3/font/devlbp/CR",
                  "usr/local/via/share/groff/1.22.3/font/devlbp/DESC",
                  "usr/local/via/share/groff/1.22.3/font/devlbp/EB",
                  "usr/local/via/share/groff/1.22.3/font/devlbp/EI",
                  "usr/local/via/share/groff/1.22.3/font/devlbp/ER",
                  "usr/local/via/share/groff/1.22.3/font/devlbp/HB",
                  "usr/local/via/share/groff/1.22.3/font/devlbp/HBI",
                  "usr/local/via/share/groff/1.22.3/font/devlbp/HI",
                  "usr/local/via/share/groff/1.22.3/font/devlbp/HNB",
                  "usr/local/via/share/groff/1.22.3/font/devlbp/HNBI",
                  "usr/local/via/share/groff/1.22.3/font/devlbp/HNI",
                  "usr/local/via/share/groff/1.22.3/font/devlbp/HNR",
                  "usr/local/via/share/groff/1.22.3/font/devlbp/HR",
                  "usr/local/via/share/groff/1.22.3/font/devlbp/TB",
                  "usr/local/via/share/groff/1.22.3/font/devlbp/TBI",
                  "usr/local/via/share/groff/1.22.3/font/devlbp/TI",
                  "usr/local/via/share/groff/1.22.3/font/devlbp/TR",
                  "usr/local/via/share/groff/1.22.3/font/devlj4/AB",
                  "usr/local/via/share/groff/1.22.3/font/devlj4/ABI",
                  "usr/local/via/share/groff/1.22.3/font/devlj4/AI",
                  "usr/local/via/share/groff/1.22.3/font/devlj4/ALBB",
                  "usr/local/via/share/groff/1.22.3/font/devlj4/ALBR",
                  "usr/local/via/share/groff/1.22.3/font/devlj4/AOB",
                  "usr/local/via/share/groff/1.22.3/font/devlj4/AOI",
                  "usr/local/via/share/groff/1.22.3/font/devlj4/AOR",
                  "usr/local/via/share/groff/1.22.3/font/devlj4/AR",
                  "usr/local/via/share/groff/1.22.3/font/devlj4/CB",
                  "usr/local/via/share/groff/1.22.3/font/devlj4/CBI",
                  "usr/local/via/share/groff/1.22.3/font/devlj4/CI",
                  "usr/local/via/share/groff/1.22.3/font/devlj4/CLARENDON",
                  "usr/local/via/share/groff/1.22.3/font/devlj4/CORONET",
                  "usr/local/via/share/groff/1.22.3/font/devlj4/CR",
                  "usr/local/via/share/groff/1.22.3/font/devlj4/DESC",
                  "usr/local/via/share/groff/1.22.3/font/devlj4/GB",
                  "usr/local/via/share/groff/1.22.3/font/devlj4/GBI",
                  "usr/local/via/share/groff/1.22.3/font/devlj4/GI",
                  "usr/local/via/share/groff/1.22.3/font/devlj4/GR",
                  "usr/local/via/share/groff/1.22.3/font/devlj4/LGB",
                  "usr/local/via/share/groff/1.22.3/font/devlj4/LGI",
                  "usr/local/via/share/groff/1.22.3/font/devlj4/LGR",
                  "usr/local/via/share/groff/1.22.3/font/devlj4/MARIGOLD",
                  "usr/local/via/share/groff/1.22.3/font/devlj4/OB",
                  "usr/local/via/share/groff/1.22.3/font/devlj4/OBI",
                  "usr/local/via/share/groff/1.22.3/font/devlj4/OI",
                  "usr/local/via/share/groff/1.22.3/font/devlj4/OR",
                  "usr/local/via/share/groff/1.22.3/font/devlj4/S",
                  "usr/local/via/share/groff/1.22.3/font/devlj4/SYMBOL",
                  "usr/local/via/share/groff/1.22.3/font/devlj4/TB",
                  "usr/local/via/share/groff/1.22.3/font/devlj4/TBI",
                  "usr/local/via/share/groff/1.22.3/font/devlj4/TI",
                  "usr/local/via/share/groff/1.22.3/font/devlj4/TNRB",
                  "usr/local/via/share/groff/1.22.3/font/devlj4/TNRBI",
                  "usr/local/via/share/groff/1.22.3/font/devlj4/TNRI",
                  "usr/local/via/share/groff/1.22.3/font/devlj4/TNRR",
                  "usr/local/via/share/groff/1.22.3/font/devlj4/TR",
                  "usr/local/via/share/groff/1.22.3/font/devlj4/UB",
                  "usr/local/via/share/groff/1.22.3/font/devlj4/UBI",
                  "usr/local/via/share/groff/1.22.3/font/devlj4/UCB",
                  "usr/local/via/share/groff/1.22.3/font/devlj4/UCBI",
                  "usr/local/via/share/groff/1.22.3/font/devlj4/UCI",
                  "usr/local/via/share/groff/1.22.3/font/devlj4/UCR",
                  "usr/local/via/share/groff/1.22.3/font/devlj4/UI",
                  "usr/local/via/share/groff/1.22.3/font/devlj4/UR",
                  "usr/local/via/share/groff/1.22.3/font/devlj4/WINGDINGS",
                  "usr/local/via/share/groff/1.22.3/font/devlj4/generate/Makefile",
                  "usr/local/via/share/groff/1.22.3/font/devlj4/generate/special.awk",
                  "usr/local/via/share/groff/1.22.3/font/devlj4/generate/special.map",
                  "usr/local/via/share/groff/1.22.3/font/devlj4/generate/symbol.map",
                  "usr/local/via/share/groff/1.22.3/font/devlj4/generate/text.map",
                  "usr/local/via/share/groff/1.22.3/font/devlj4/generate/wingdings.map",
                  "usr/local/via/share/groff/1.22.3/font/devpdf/AB",
                  "usr/local/via/share/groff/1.22.3/font/devpdf/ABI",
                  "usr/local/via/share/groff/1.22.3/font/devpdf/AI",
                  "usr/local/via/share/groff/1.22.3/font/devpdf/AR",
                  "usr/local/via/share/groff/1.22.3/font/devpdf/BMB",
                  "usr/local/via/share/groff/1.22.3/font/devpdf/BMBI",
                  "usr/local/via/share/groff/1.22.3/font/devpdf/BMI",
                  "usr/local/via/share/groff/1.22.3/font/devpdf/BMR",
                  "usr/local/via/share/groff/1.22.3/font/devpdf/CB",
                  "usr/local/via/share/groff/1.22.3/font/devpdf/CBI",
                  "usr/local/via/share/groff/1.22.3/font/devpdf/CI",
                  "usr/local/via/share/groff/1.22.3/font/devpdf/CR",
                  "usr/local/via/share/groff/1.22.3/font/devpdf/DESC",
                  "usr/local/via/share/groff/1.22.3/font/devpdf/EURO",
                  "usr/local/via/share/groff/1.22.3/font/devpdf/Foundry",
                  "usr/local/via/share/groff/1.22.3/font/devpdf/HB",
                  "usr/local/via/share/groff/1.22.3/font/devpdf/HBI",
                  "usr/local/via/share/groff/1.22.3/font/devpdf/HI",
                  "usr/local/via/share/groff/1.22.3/font/devpdf/HNB",
                  "usr/local/via/share/groff/1.22.3/font/devpdf/HNBI",
                  "usr/local/via/share/groff/1.22.3/font/devpdf/HNI",
                  "usr/local/via/share/groff/1.22.3/font/devpdf/HNR",
                  "usr/local/via/share/groff/1.22.3/font/devpdf/HR",
                  "usr/local/via/share/groff/1.22.3/font/devpdf/NB",
                  "usr/local/via/share/groff/1.22.3/font/devpdf/NBI",
                  "usr/local/via/share/groff/1.22.3/font/devpdf/NI",
                  "usr/local/via/share/groff/1.22.3/font/devpdf/NR",
                  "usr/local/via/share/groff/1.22.3/font/devpdf/PB",
                  "usr/local/via/share/groff/1.22.3/font/devpdf/PBI",
                  "usr/local/via/share/groff/1.22.3/font/devpdf/PI",
                  "usr/local/via/share/groff/1.22.3/font/devpdf/PR",
                  "usr/local/via/share/groff/1.22.3/font/devpdf/S",
                  "usr/local/via/share/groff/1.22.3/font/devpdf/TB",
                  "usr/local/via/share/groff/1.22.3/font/devpdf/TBI",
                  "usr/local/via/share/groff/1.22.3/font/devpdf/TI",
                  "usr/local/via/share/groff/1.22.3/font/devpdf/TR",
                  "usr/local/via/share/groff/1.22.3/font/devpdf/U-AB",
                  "usr/local/via/share/groff/1.22.3/font/devpdf/U-ABI",
                  "usr/local/via/share/groff/1.22.3/font/devpdf/U-AI",
                  "usr/local/via/share/groff/1.22.3/font/devpdf/U-AR",
                  "usr/local/via/share/groff/1.22.3/font/devpdf/U-BMB",
                  "usr/local/via/share/groff/1.22.3/font/devpdf/U-BMBI",
                  "usr/local/via/share/groff/1.22.3/font/devpdf/U-BMI",
                  "usr/local/via/share/groff/1.22.3/font/devpdf/U-BMR",
                  "usr/local/via/share/groff/1.22.3/font/devpdf/U-CB",
                  "usr/local/via/share/groff/1.22.3/font/devpdf/U-CBI",
                  "usr/local/via/share/groff/1.22.3/font/devpdf/U-CI",
                  "usr/local/via/share/groff/1.22.3/font/devpdf/U-CR",
                  "usr/local/via/share/groff/1.22.3/font/devpdf/U-HB",
                  "usr/local/via/share/groff/1.22.3/font/devpdf/U-HBI",
                  "usr/local/via/share/groff/1.22.3/font/devpdf/U-HI",
                  "usr/local/via/share/groff/1.22.3/font/devpdf/U-HNB",
                  "usr/local/via/share/groff/1.22.3/font/devpdf/U-HNBI",
                  "usr/local/via/share/groff/1.22.3/font/devpdf/U-HNI",
                  "usr/local/via/share/groff/1.22.3/font/devpdf/U-HNR",
                  "usr/local/via/share/groff/1.22.3/font/devpdf/U-HR",
                  "usr/local/via/share/groff/1.22.3/font/devpdf/U-NB",
                  "usr/local/via/share/groff/1.22.3/font/devpdf/U-NBI",
                  "usr/local/via/share/groff/1.22.3/font/devpdf/U-NI",
                  "usr/local/via/share/groff/1.22.3/font/devpdf/U-NR",
                  "usr/local/via/share/groff/1.22.3/font/devpdf/U-PB",
                  "usr/local/via/share/groff/1.22.3/font/devpdf/U-PBI",
                  "usr/local/via/share/groff/1.22.3/font/devpdf/U-PI",
                  "usr/local/via/share/groff/1.22.3/font/devpdf/U-PR",
                  "usr/local/via/share/groff/1.22.3/font/devpdf/U-S",
                  "usr/local/via/share/groff/1.22.3/font/devpdf/U-TB",
                  "usr/local/via/share/groff/1.22.3/font/devpdf/U-TBI",
                  "usr/local/via/share/groff/1.22.3/font/devpdf/U-TI",
                  "usr/local/via/share/groff/1.22.3/font/devpdf/U-TR",
                  "usr/local/via/share/groff/1.22.3/font/devpdf/U-ZCMI",
                  "usr/local/via/share/groff/1.22.3/font/devpdf/U-ZD",
                  "usr/local/via/share/groff/1.22.3/font/devpdf/ZCMI",
                  "usr/local/via/share/groff/1.22.3/font/devpdf/ZD",
                  "usr/local/via/share/groff/1.22.3/font/devpdf/download",
                  "usr/local/via/share/groff/1.22.3/font/devpdf/enc/text.enc",
                  "usr/local/via/share/groff/1.22.3/font/devpdf/map/dingbats.map",
                  "usr/local/via/share/groff/1.22.3/font/devpdf/map/symbolchars",
                  "usr/local/via/share/groff/1.22.3/font/devpdf/map/symbolmap",
                  "usr/local/via/share/groff/1.22.3/font/devpdf/map/textmap",
                  "usr/local/via/share/groff/1.22.3/font/devpdf/util/BuildFoundries",
                  "usr/local/via/share/groff/1.22.3/font/devps/AB",
                  "usr/local/via/share/groff/1.22.3/font/devps/ABI",
                  "usr/local/via/share/groff/1.22.3/font/devps/AI",
                  "usr/local/via/share/groff/1.22.3/font/devps/AR",
                  "usr/local/via/share/groff/1.22.3/font/devps/BMB",
                  "usr/local/via/share/groff/1.22.3/font/devps/BMBI",
                  "usr/local/via/share/groff/1.22.3/font/devps/BMI",
                  "usr/local/via/share/groff/1.22.3/font/devps/BMR",
                  "usr/local/via/share/groff/1.22.3/font/devps/CB",
                  "usr/local/via/share/groff/1.22.3/font/devps/CBI",
                  "usr/local/via/share/groff/1.22.3/font/devps/CI",
                  "usr/local/via/share/groff/1.22.3/font/devps/CR",
                  "usr/local/via/share/groff/1.22.3/font/devps/DESC",
                  "usr/local/via/share/groff/1.22.3/font/devps/EURO",
                  "usr/local/via/share/groff/1.22.3/font/devps/HB",
                  "usr/local/via/share/groff/1.22.3/font/devps/HBI",
                  "usr/local/via/share/groff/1.22.3/font/devps/HI",
                  "usr/local/via/share/groff/1.22.3/font/devps/HNB",
                  "usr/local/via/share/groff/1.22.3/font/devps/HNBI",
                  "usr/local/via/share/groff/1.22.3/font/devps/HNI",
                  "usr/local/via/share/groff/1.22.3/font/devps/HNR",
                  "usr/local/via/share/groff/1.22.3/font/devps/HR",
                  "usr/local/via/share/groff/1.22.3/font/devps/NB",
                  "usr/local/via/share/groff/1.22.3/font/devps/NBI",
                  "usr/local/via/share/groff/1.22.3/font/devps/NI",
                  "usr/local/via/share/groff/1.22.3/font/devps/NR",
                  "usr/local/via/share/groff/1.22.3/font/devps/PB",
                  "usr/local/via/share/groff/1.22.3/font/devps/PBI",
                  "usr/local/via/share/groff/1.22.3/font/devps/PI",
                  "usr/local/via/share/groff/1.22.3/font/devps/PR",
                  "usr/local/via/share/groff/1.22.3/font/devps/S",
                  "usr/local/via/share/groff/1.22.3/font/devps/SS",
                  "usr/local/via/share/groff/1.22.3/font/devps/TB",
                  "usr/local/via/share/groff/1.22.3/font/devps/TBI",
                  "usr/local/via/share/groff/1.22.3/font/devps/TI",
                  "usr/local/via/share/groff/1.22.3/font/devps/TR",
                  "usr/local/via/share/groff/1.22.3/font/devps/ZCMI",
                  "usr/local/via/share/groff/1.22.3/font/devps/ZD",
                  "usr/local/via/share/groff/1.22.3/font/devps/ZDR",
                  "usr/local/via/share/groff/1.22.3/font/devps/download",
                  "usr/local/via/share/groff/1.22.3/font/devps/freeeuro.afm",
                  "usr/local/via/share/groff/1.22.3/font/devps/freeeuro.pfa",
                  "usr/local/via/share/groff/1.22.3/font/devps/generate/Makefile",
                  "usr/local/via/share/groff/1.22.3/font/devps/generate/afmname",
                  "usr/local/via/share/groff/1.22.3/font/devps/generate/dingbats.map",
                  "usr/local/via/share/groff/1.22.3/font/devps/generate/dingbats.rmap",
                  "usr/local/via/share/groff/1.22.3/font/devps/generate/lgreekmap",
                  "usr/local/via/share/groff/1.22.3/font/devps/generate/symbol.sed",
                  "usr/local/via/share/groff/1.22.3/font/devps/generate/symbolchars",
                  "usr/local/via/share/groff/1.22.3/font/devps/generate/symbolsl.afm",
                  "usr/local/via/share/groff/1.22.3/font/devps/generate/textmap",
                  "usr/local/via/share/groff/1.22.3/font/devps/prologue",
                  "usr/local/via/share/groff/1.22.3/font/devps/symbolsl.pfa",
                  "usr/local/via/share/groff/1.22.3/font/devps/text.enc",
                  "usr/local/via/share/groff/1.22.3/font/devps/zapfdr.pfa",
                  "usr/local/via/share/groff/1.22.3/font/devutf8/B",
                  "usr/local/via/share/groff/1.22.3/font/devutf8/BI",
                  "usr/local/via/share/groff/1.22.3/font/devutf8/DESC",
                  "usr/local/via/share/groff/1.22.3/font/devutf8/I",
                  "usr/local/via/share/groff/1.22.3/font/devutf8/R",
                  "usr/local/via/share/groff/1.22.3/oldfont/devps/CB",
                  "usr/local/via/share/groff/1.22.3/oldfont/devps/CBI",
                  "usr/local/via/share/groff/1.22.3/oldfont/devps/CI",
                  "usr/local/via/share/groff/1.22.3/oldfont/devps/CR",
                  "usr/local/via/share/groff/1.22.3/oldfont/devps/HB",
                  "usr/local/via/share/groff/1.22.3/oldfont/devps/HBI",
                  "usr/local/via/share/groff/1.22.3/oldfont/devps/HI",
                  "usr/local/via/share/groff/1.22.3/oldfont/devps/HNB",
                  "usr/local/via/share/groff/1.22.3/oldfont/devps/HNBI",
                  "usr/local/via/share/groff/1.22.3/oldfont/devps/HNI",
                  "usr/local/via/share/groff/1.22.3/oldfont/devps/HNR",
                  "usr/local/via/share/groff/1.22.3/oldfont/devps/HR",
                  "usr/local/via/share/groff/1.22.3/oldfont/devps/NB",
                  "usr/local/via/share/groff/1.22.3/oldfont/devps/NBI",
                  "usr/local/via/share/groff/1.22.3/oldfont/devps/NI",
                  "usr/local/via/share/groff/1.22.3/oldfont/devps/NR",
                  "usr/local/via/share/groff/1.22.3/oldfont/devps/PB",
                  "usr/local/via/share/groff/1.22.3/oldfont/devps/PBI",
                  "usr/local/via/share/groff/1.22.3/oldfont/devps/PI",
                  "usr/local/via/share/groff/1.22.3/oldfont/devps/PR",
                  "usr/local/via/share/groff/1.22.3/oldfont/devps/S",
                  "usr/local/via/share/groff/1.22.3/oldfont/devps/SS",
                  "usr/local/via/share/groff/1.22.3/oldfont/devps/TB",
                  "usr/local/via/share/groff/1.22.3/oldfont/devps/TBI",
                  "usr/local/via/share/groff/1.22.3/oldfont/devps/TI",
                  "usr/local/via/share/groff/1.22.3/oldfont/devps/TR",
                  "usr/local/via/share/groff/1.22.3/oldfont/devps/symbol.afm",
                  "usr/local/via/share/groff/1.22.3/oldfont/devps/symbolsl.afm",
                  "usr/local/via/share/groff/1.22.3/oldfont/devps/zapfdr.afm",
                  "usr/local/via/share/groff/1.22.3/oldfont/devps/zapfdr.ps",
                  "usr/local/via/share/groff/1.22.3/pic/chem.pic",
                  "usr/local/via/share/groff/1.22.3/tmac/62bit.tmac",
                  "usr/local/via/share/groff/1.22.3/tmac/X.tmac",
                  "usr/local/via/share/groff/1.22.3/tmac/Xps.tmac",
                  "usr/local/via/share/groff/1.22.3/tmac/a4.tmac",
                  "usr/local/via/share/groff/1.22.3/tmac/an-ext.tmac",
                  "usr/local/via/share/groff/1.22.3/tmac/an-old.tmac",
                  "usr/local/via/share/groff/1.22.3/tmac/an.tmac",
                  "usr/local/via/share/groff/1.22.3/tmac/andoc.tmac",
                  "usr/local/via/share/groff/1.22.3/tmac/composite.tmac",
                  "usr/local/via/share/groff/1.22.3/tmac/cp1047.tmac",
                  "usr/local/via/share/groff/1.22.3/tmac/cs.tmac",
                  "usr/local/via/share/groff/1.22.3/tmac/de.tmac",
                  "usr/local/via/share/groff/1.22.3/tmac/den.tmac",
                  "usr/local/via/share/groff/1.22.3/tmac/devtag.tmac",
                  "usr/local/via/share/groff/1.22.3/tmac/doc-old.tmac",
                  "usr/local/via/share/groff/1.22.3/tmac/doc.tmac",
                  "usr/local/via/share/groff/1.22.3/tmac/dvi.tmac",
                  "usr/local/via/share/groff/1.22.3/tmac/e.tmac",
                  "usr/local/via/share/groff/1.22.3/tmac/ec.tmac",
                  "usr/local/via/share/groff/1.22.3/tmac/eqnrc",
                  "usr/local/via/share/groff/1.22.3/tmac/europs.tmac",
                  "usr/local/via/share/groff/1.22.3/tmac/fallbacks.tmac",
                  "usr/local/via/share/groff/1.22.3/tmac/fr.tmac",
                  "usr/local/via/share/groff/1.22.3/tmac/hdmisc.tmac",
                  "usr/local/via/share/groff/1.22.3/tmac/hdtbl.tmac",
                  "usr/local/via/share/groff/1.22.3/tmac/html-end.tmac",
                  "usr/local/via/share/groff/1.22.3/tmac/html.tmac",
                  "usr/local/via/share/groff/1.22.3/tmac/hyphen.cs",
                  "usr/local/via/share/groff/1.22.3/tmac/hyphen.den",
                  "usr/local/via/share/groff/1.22.3/tmac/hyphen.det",
                  "usr/local/via/share/groff/1.22.3/tmac/hyphen.fr",
                  "usr/local/via/share/groff/1.22.3/tmac/hyphen.sv",
                  "usr/local/via/share/groff/1.22.3/tmac/hyphen.us",
                  "usr/local/via/share/groff/1.22.3/tmac/hyphenex.cs",
                  "usr/local/via/share/groff/1.22.3/tmac/hyphenex.det",
                  "usr/local/via/share/groff/1.22.3/tmac/hyphenex.us",
                  "usr/local/via/share/groff/1.22.3/tmac/ja.tmac",
                  "usr/local/via/share/groff/1.22.3/tmac/latin1.tmac",
                  "usr/local/via/share/groff/1.22.3/tmac/latin2.tmac",
                  "usr/local/via/share/groff/1.22.3/tmac/latin5.tmac",
                  "usr/local/via/share/groff/1.22.3/tmac/latin9.tmac",
                  "usr/local/via/share/groff/1.22.3/tmac/lbp.tmac",
                  "usr/local/via/share/groff/1.22.3/tmac/lj4.tmac",
                  "usr/local/via/share/groff/1.22.3/tmac/m.tmac",
                  "usr/local/via/share/groff/1.22.3/tmac/man.tmac",
                  "usr/local/via/share/groff/1.22.3/tmac/mandoc.tmac",
                  "usr/local/via/share/groff/1.22.3/tmac/mdoc/doc-common",
                  "usr/local/via/share/groff/1.22.3/tmac/mdoc/doc-ditroff",
                  "usr/local/via/share/groff/1.22.3/tmac/mdoc/doc-nroff",
                  "usr/local/via/share/groff/1.22.3/tmac/mdoc/doc-syms",
                  "usr/local/via/share/groff/1.22.3/tmac/mdoc.tmac",
                  "usr/local/via/share/groff/1.22.3/tmac/me.tmac",
                  "usr/local/via/share/groff/1.22.3/tmac/mm/0.MT",
                  "usr/local/via/share/groff/1.22.3/tmac/mm/4.MT",
                  "usr/local/via/share/groff/1.22.3/tmac/mm/5.MT",
                  "usr/local/via/share/groff/1.22.3/tmac/mm/locale",
                  "usr/local/via/share/groff/1.22.3/tmac/mm/ms.cov",
                  "usr/local/via/share/groff/1.22.3/tmac/mm/se_locale",
                  "usr/local/via/share/groff/1.22.3/tmac/mm/se_ms.cov",
                  "usr/local/via/share/groff/1.22.3/tmac/mm.tmac",
                  "usr/local/via/share/groff/1.22.3/tmac/mmse.tmac",
                  "usr/local/via/share/groff/1.22.3/tmac/mom.tmac",
                  "usr/local/via/share/groff/1.22.3/tmac/ms.tmac",
                  "usr/local/via/share/groff/1.22.3/tmac/mse.tmac",
                  "usr/local/via/share/groff/1.22.3/tmac/om.tmac",
                  "usr/local/via/share/groff/1.22.3/tmac/papersize.tmac",
                  "usr/local/via/share/groff/1.22.3/tmac/pdf.tmac",
                  "usr/local/via/share/groff/1.22.3/tmac/pdfmark.tmac",
                  "usr/local/via/share/groff/1.22.3/tmac/pic.tmac",
                  "usr/local/via/share/groff/1.22.3/tmac/ps.tmac",
                  "usr/local/via/share/groff/1.22.3/tmac/psatk.tmac",
                  "usr/local/via/share/groff/1.22.3/tmac/psold.tmac",
                  "usr/local/via/share/groff/1.22.3/tmac/pspic.tmac",
                  "usr/local/via/share/groff/1.22.3/tmac/refer-me.tmac",
                  "usr/local/via/share/groff/1.22.3/tmac/refer-mm.tmac",
                  "usr/local/via/share/groff/1.22.3/tmac/refer-ms.tmac",
                  "usr/local/via/share/groff/1.22.3/tmac/refer.tmac",
                  "usr/local/via/share/groff/1.22.3/tmac/s.tmac",
                  "usr/local/via/share/groff/1.22.3/tmac/safer.tmac",
                  "usr/local/via/share/groff/1.22.3/tmac/spdf.tmac",
                  "usr/local/via/share/groff/1.22.3/tmac/sv.tmac",
                  "usr/local/via/share/groff/1.22.3/tmac/trace.tmac",
                  "usr/local/via/share/groff/1.22.3/tmac/trans.tmac",
                  "usr/local/via/share/groff/1.22.3/tmac/troffrc",
                  "usr/local/via/share/groff/1.22.3/tmac/troffrc-end",
                  "usr/local/via/share/groff/1.22.3/tmac/tty-char.tmac",
                  "usr/local/via/share/groff/1.22.3/tmac/tty.tmac",
                  "usr/local/via/share/groff/1.22.3/tmac/unicode.tmac",
                  "usr/local/via/share/groff/1.22.3/tmac/www.tmac",
                  "usr/local/via/share/groff/current",
                  "usr/local/via/share/groff/site-tmac/man.local",
                  "usr/local/via/share/groff/site-tmac/mdoc.local"
    ]
}
