{
    "Name"         : "less",
    "Version"      : "444",
    "Url"          : "http://www.greenwoodsoftware.com/less/less-444.tar.gz",
    "Group"        : "core",
    "StageDir"     : "",
    "Inherit"      : "gnu",
    "Oid"          : "03F0CF4AEF13AA87A7201E1A0371C9D0E7BB8C235CE000C885EC32382A69B297",
    "BuildInStage" : false,
    "BuildTime"    : 0,
    "Date"         : "2016-10-12T16:54:04.301085217-07:00",
    "Size"         : 214248,
    "SubPackages"  : null,
    "AutoDepends"  : [
                   "glibc",
                   "ncurses"
    ],
    "ManualDepends" : null,
    "BuildDepends"  : null,
    "Flags"         : null,
    "Patch"         : null,
    "Build"         : null,
    "Package"       : null,
    "PostInstall"   : null,
    "Remove"        : null,
    "Files"         : [
                    "usr/local/via/bin/less",
                    "usr/local/via/bin/lessecho",
                    "usr/local/via/bin/lesskey"
    ]
}
