{
    "Name"         : "libgpg-error",
    "Version"      : "1.21",
    "Url"          : "ftp://ftp.gnupg.org/gcrypt/libgpg-error/libgpg-error-1.21.tar.bz2",
    "Group"        : "core",
    "StageDir"     : "",
    "Inherit"      : "gnu",
    "Oid"          : "754AAC83A70DE18E3B227F364004C8DC12D3350200B4B20C92C2265C6521783F",
    "BuildInStage" : false,
    "BuildTime"    : 0,
    "Date"         : "2016-10-20T22:24:55.83761071-07:00",
    "Size"         : 210335,
    "SubPackages"  : null,
    "AutoDepends"  : [
                   "glibc"
    ],
    "ManualDepends" : null,
    "BuildDepends"  : null,
    "Flags"         : null,
    "Patch"         : null,
    "Build"         : null,
    "Package"       : null,
    "PostInstall"   : null,
    "Remove"        : null,
    "Files"         : [
                    "usr/local/via/bin/gpg-error",
                    "usr/local/via/bin/gpg-error-config",
                    "usr/local/via/include/gpg-error.h",
                    "usr/local/via/lib/libgpg-error.la",
                    "usr/local/via/lib/libgpg-error.so",
                    "usr/local/via/lib/libgpg-error.so.0",
                    "usr/local/via/lib/libgpg-error.so.0.17.0",
                    "usr/local/via/share/aclocal/gpg-error.m4",
                    "usr/local/via/share/common-lisp/source/gpg-error/gpg-error-codes.lisp",
                    "usr/local/via/share/common-lisp/source/gpg-error/gpg-error-package.lisp",
                    "usr/local/via/share/common-lisp/source/gpg-error/gpg-error.asd",
                    "usr/local/via/share/common-lisp/source/gpg-error/gpg-error.lisp"
    ]
}
