{
    "Name"         : "ncdu",
    "Version"      : "1.8",
    "Url"          : "http://dev.yorhel.nl/download/ncdu-1.8.tar.gz",
    "Group"        : "core",
    "StageDir"     : "",
    "Inherit"      : "gnu",
    "Oid"          : "CF511E0335C47BC788FDA86090895CA51A043125A9953FD38F26BCF3B93ACDC1",
    "BuildInStage" : false,
    "BuildTime"    : 0,
    "Date"         : "2016-10-14T17:15:02.178853982-07:00",
    "Size"         : 51272,
    "SubPackages"  : null,
    "AutoDepends"  : [
                   "glibc",
                   "ncurses"
    ],
    "ManualDepends" : null,
    "BuildDepends"  : null,
    "Flags"         : null,
    "Patch"         : null,
    "Build"         : null,
    "Package"       : null,
    "PostInstall"   : null,
    "Remove"        : null,
    "Files"         : [
                    "usr/local/via/bin/ncdu"
    ]
}
