{
    "Name"          : "rtorrent",
    "Version"       : "0.8.9",
    "Url"           : "http://libtorrent.rakshasa.no/downloads/rtorrent-0.8.9.tar.gz",
    "Group"         : "core",
    "StageDir"      : "",
    "Inherit"       : "",
    "Oid"           : "",
    "BuildInStage"  : false,
    "BuildTime"     : 0,
    "Date"          : "0001-01-01T00:00:00Z",
    "Size"          : 0,
    "SubPackages"   : null,
    "AutoDepends"   : null,
    "ManualDepends" : null,
    "BuildDepends"  : null,
    "Flags"         : null,
    "Patch"         : null,
    "Build"         : null,
    "Package"       : null,
    "PostInstall"   : null,
    "Remove"        : null,
    "Files"         : null
}
