{
    "Name"         : "sysfsutils",
    "Version"      : "2.1.0",
    "Url"          : "http://downloads.sourceforge.net/project/linux-diag/sysfsutils/2.1.0/sysfsutils-2.1.0.tar.gz",
    "Group"        : "core",
    "StageDir"     : "",
    "Inherit"      : "gnu",
    "Oid"          : "C1133808CC4D4D89103182CCF1336D5FD7B7375B8A893A2FB5299DECF2AEBAB4",
    "BuildInStage" : true,
    "BuildTime"    : 0,
    "Date"         : "2016-10-20T21:32:28.574546264-07:00",
    "Size"         : 148286,
    "SubPackages"  : null,
    "AutoDepends"  : [
                   "glibc"
    ],
    "ManualDepends" : null,
    "BuildDepends"  : null,
    "Flags"         : null,
    "Patch"         : null,
    "Build"         : null,
    "Package"       : null,
    "PostInstall"   : null,
    "Remove"        : null,
    "Files"         : [
                    "usr/local/via/bin/dlist_test",
                    "usr/local/via/bin/get_device",
                    "usr/local/via/bin/get_driver",
                    "usr/local/via/bin/get_module",
                    "usr/local/via/bin/systool",
                    "usr/local/via/include/sysfs/dlist.h",
                    "usr/local/via/include/sysfs/libsysfs.h",
                    "usr/local/via/lib/libsysfs.la",
                    "usr/local/via/lib/libsysfs.so",
                    "usr/local/via/lib/libsysfs.so.2",
                    "usr/local/via/lib/libsysfs.so.2.0.1",
                    "usr/local/via/man/man1/systool.1"
    ]
}
