{
    "Name"          : "tcc",
    "Version"       : "0.9.25",
    "Url"           : "http://download.savannah.nongnu.org/releases/tinycc/tcc-0.9.25.tar.bz2",
    "Group"         : "core",
    "StageDir"      : "",
    "Inherit"       : "",
    "Oid"           : "",
    "BuildInStage"  : true,
    "BuildTime"     : 0,
    "Date"          : "2014-11-19T05:58:23.815638927-08:00",
    "Size"          : 0,
    "SubPackages"   : null,
    "AutoDepends"   : [],
    "ManualDepends" : null,
    "BuildDepends"  : null,
    "Flags"         : null,
    "Patch"         : null,
    "Build"         : [
                    "$SRCDIR/configure $Flags",
                    "make"
    ],
    "Package" : [
              "make install DESTDIR=$PKGDIR"
    ],
    "PostInstall" : null,
    "Remove"      : null,
    "Files"       : null
}
