{
    "Name"          : "uclibc",
    "Version"       : "0.9.33.2",
    "Url"           : "http://www.busybox.net/downloads/uClibc-0.9.33.2.tar.xz",
    "Group"         : "core",
    "StageDir"      : "uClibc-0.9.33.2",
    "Inherit"       : "",
    "Oid"           : "",
    "BuildInStage"  : true,
    "BuildTime"     : 0,
    "Date"          : "2012-08-12T09:24:37.368535Z",
    "Size"          : 3776659,
    "SubPackages"   : null,
    "AutoDepends"   : null,
    "ManualDepends" : null,
    "BuildDepends"  : null,
    "Flags"         : null,
    "Patch"         : null,
    "Build"         : [
                    "cp $HOME/uclibc.config .config",
                    "make"
    ],
    "Package" : [
              "make install PREFIX=$PKGDIR"
    ],
    "PostInstall" : null,
    "Remove"      : null,
    "Files"       : null
}
