{
    "Name"         : "zlib",
    "Version"      : "1.2.8",
    "Url"          : "http://zlib.net/current/zlib-1.2.8.tar.gz",
    "Group"        : "core",
    "StageDir"     : "",
    "Inherit"      : "",
    "Oid"          : "44F50F27EE2A482C74F6DA939B56EBF1E16BBCD156BC17B4AE28330977EC21F6",
    "BuildInStage" : true,
    "BuildTime"    : 6129663920,
    "Date"         : "2016-10-11T20:40:53.766166996-07:00",
    "Size"         : 318121,
    "SubPackages"  : null,
    "AutoDepends"  : [
                   "glibc"
    ],
    "ManualDepends" : null,
    "BuildDepends"  : null,
    "Flags"         : null,
    "Patch"         : null,
    "Build"         : [
                    "./configure --prefix=$PREFIX",
                    "make"
    ],
    "Package" : [
              "make install DESTDIR=$PKGDIR"
    ],
    "PostInstall" : null,
    "Remove"      : null,
    "Files"       : [
                  "usr/local/via/include/zconf.h",
                  "usr/local/via/include/zlib.h",
                  "usr/local/via/lib/libz.a",
                  "usr/local/via/lib/libz.so",
                  "usr/local/via/lib/libz.so.1",
                  "usr/local/via/lib/libz.so.1.2.8",
                  "usr/local/via/lib/pkgconfig/zlib.pc"
    ]
}
