{
    "Name"          : "linux-headers-x86_64",
    "Version"       : "3.17",
    "Url"           : "http://www.kernel.org/pub/linux/kernel/v3.0/linux-3.17.tar.xz",
    "Group"         : "x86_64",
    "StageDir"      : "linux-3.17",
    "Inherit"       : "",
    "Oid"           : "",
    "BuildInStage"  : true,
    "BuildTime"     : 0,
    "Date"          : "2016-03-12T08:12:49.943666-08:00",
    "Size"          : 3454019,
    "SubPackages"   : null,
    "AutoDepends"   : [],
    "ManualDepends" : null,
    "BuildDepends"  : null,
    "Flags"         : null,
    "Patch"         : null,
    "Build"         : [
                    "make mrproper",
                    "make headers_check"
    ],
    "Package" : [
              "make ARCH=x86_64 INSTALL_HDR_PATH=$PKGDIR/$PREFIX/x86_64-via-linux-gnu  headers_install"
    ],
    "PostInstall" : null,
    "Remove"      : null,
    "Files"       : [
                  "home/mrosset/.local/x86_64-via-linux-gnu/include/asm/..install.cmd",
                  "home/mrosset/.local/x86_64-via-linux-gnu/include/asm/.install",
                  "home/mrosset/.local/x86_64-via-linux-gnu/include/asm/a.out.h",
                  "home/mrosset/.local/x86_64-via-linux-gnu/include/asm/auxvec.h",
                  "home/mrosset/.local/x86_64-via-linux-gnu/include/asm/bitsperlong.h",
                  "home/mrosset/.local/x86_64-via-linux-gnu/include/asm/boot.h",
                  "home/mrosset/.local/x86_64-via-linux-gnu/include/asm/bootparam.h",
                  "home/mrosset/.local/x86_64-via-linux-gnu/include/asm/byteorder.h",
                  "home/mrosset/.local/x86_64-via-linux-gnu/include/asm/debugreg.h",
                  "home/mrosset/.local/x86_64-via-linux-gnu/include/asm/e820.h",
                  "home/mrosset/.local/x86_64-via-linux-gnu/include/asm/errno.h",
                  "home/mrosset/.local/x86_64-via-linux-gnu/include/asm/fcntl.h",
                  "home/mrosset/.local/x86_64-via-linux-gnu/include/asm/hw_breakpoint.h",
                  "home/mrosset/.local/x86_64-via-linux-gnu/include/asm/hyperv.h",
                  "home/mrosset/.local/x86_64-via-linux-gnu/include/asm/ioctl.h",
                  "home/mrosset/.local/x86_64-via-linux-gnu/include/asm/ioctls.h",
                  "home/mrosset/.local/x86_64-via-linux-gnu/include/asm/ipcbuf.h",
                  "home/mrosset/.local/x86_64-via-linux-gnu/include/asm/ist.h",
                  "home/mrosset/.local/x86_64-via-linux-gnu/include/asm/kvm.h",
                  "home/mrosset/.local/x86_64-via-linux-gnu/include/asm/kvm_para.h",
                  "home/mrosset/.local/x86_64-via-linux-gnu/include/asm/kvm_perf.h",
                  "home/mrosset/.local/x86_64-via-linux-gnu/include/asm/ldt.h",
                  "home/mrosset/.local/x86_64-via-linux-gnu/include/asm/mce.h",
                  "home/mrosset/.local/x86_64-via-linux-gnu/include/asm/mman.h",
                  "home/mrosset/.local/x86_64-via-linux-gnu/include/asm/msgbuf.h",
                  "home/mrosset/.local/x86_64-via-linux-gnu/include/asm/msr-index.h",
                  "home/mrosset/.local/x86_64-via-linux-gnu/include/asm/msr.h",
                  "home/mrosset/.local/x86_64-via-linux-gnu/include/asm/mtrr.h",
                  "home/mrosset/.local/x86_64-via-linux-gnu/include/asm/param.h",
                  "home/mrosset/.local/x86_64-via-linux-gnu/include/asm/perf_regs.h",
                  "home/mrosset/.local/x86_64-via-linux-gnu/include/asm/poll.h",
                  "home/mrosset/.local/x86_64-via-linux-gnu/include/asm/posix_types.h",
                  "home/mrosset/.local/x86_64-via-linux-gnu/include/asm/posix_types_32.h",
                  "home/mrosset/.local/x86_64-via-linux-gnu/include/asm/posix_types_64.h",
                  "home/mrosset/.local/x86_64-via-linux-gnu/include/asm/posix_types_x32.h",
                  "home/mrosset/.local/x86_64-via-linux-gnu/include/asm/prctl.h",
                  "home/mrosset/.local/x86_64-via-linux-gnu/include/asm/processor-flags.h",
                  "home/mrosset/.local/x86_64-via-linux-gnu/include/asm/ptrace-abi.h",
                  "home/mrosset/.local/x86_64-via-linux-gnu/include/asm/ptrace.h",
                  "home/mrosset/.local/x86_64-via-linux-gnu/include/asm/resource.h",
                  "home/mrosset/.local/x86_64-via-linux-gnu/include/asm/sembuf.h",
                  "home/mrosset/.local/x86_64-via-linux-gnu/include/asm/setup.h",
                  "home/mrosset/.local/x86_64-via-linux-gnu/include/asm/shmbuf.h",
                  "home/mrosset/.local/x86_64-via-linux-gnu/include/asm/sigcontext.h",
                  "home/mrosset/.local/x86_64-via-linux-gnu/include/asm/sigcontext32.h",
                  "home/mrosset/.local/x86_64-via-linux-gnu/include/asm/siginfo.h",
                  "home/mrosset/.local/x86_64-via-linux-gnu/include/asm/signal.h",
                  "home/mrosset/.local/x86_64-via-linux-gnu/include/asm/socket.h",
                  "home/mrosset/.local/x86_64-via-linux-gnu/include/asm/sockios.h",
                  "home/mrosset/.local/x86_64-via-linux-gnu/include/asm/stat.h",
                  "home/mrosset/.local/x86_64-via-linux-gnu/include/asm/statfs.h",
                  "home/mrosset/.local/x86_64-via-linux-gnu/include/asm/svm.h",
                  "home/mrosset/.local/x86_64-via-linux-gnu/include/asm/swab.h",
                  "home/mrosset/.local/x86_64-via-linux-gnu/include/asm/termbits.h",
                  "home/mrosset/.local/x86_64-via-linux-gnu/include/asm/termios.h",
                  "home/mrosset/.local/x86_64-via-linux-gnu/include/asm/types.h",
                  "home/mrosset/.local/x86_64-via-linux-gnu/include/asm/ucontext.h",
                  "home/mrosset/.local/x86_64-via-linux-gnu/include/asm/unistd.h",
                  "home/mrosset/.local/x86_64-via-linux-gnu/include/asm/unistd_32.h",
                  "home/mrosset/.local/x86_64-via-linux-gnu/include/asm/unistd_64.h",
                  "home/mrosset/.local/x86_64-via-linux-gnu/include/asm/unistd_x32.h",
                  "home/mrosset/.local/x86_64-via-linux-gnu/include/asm/vm86.h",
                  "home/mrosset/.local/x86_64-via-linux-gnu/include/asm/vmx.h",
                  "home/mrosset/.local/x86_64-via-linux-gnu/include/asm/vsyscall.h",
                  "home/mrosset/.local/x86_64-via-linux-gnu/include/asm-generic/..install.cmd",
                  "home/mrosset/.local/x86_64-via-linux-gnu/include/asm-generic/.install",
                  "home/mrosset/.local/x86_64-via-linux-gnu/include/asm-generic/auxvec.h",
                  "home/mrosset/.local/x86_64-via-linux-gnu/include/asm-generic/bitsperlong.h",
                  "home/mrosset/.local/x86_64-via-linux-gnu/include/asm-generic/errno-base.h",
                  "home/mrosset/.local/x86_64-via-linux-gnu/include/asm-generic/errno.h",
                  "home/mrosset/.local/x86_64-via-linux-gnu/include/asm-generic/fcntl.h",
                  "home/mrosset/.local/x86_64-via-linux-gnu/include/asm-generic/int-l64.h",
                  "home/mrosset/.local/x86_64-via-linux-gnu/include/asm-generic/int-ll64.h",
                  "home/mrosset/.local/x86_64-via-linux-gnu/include/asm-generic/ioctl.h",
                  "home/mrosset/.local/x86_64-via-linux-gnu/include/asm-generic/ioctls.h",
                  "home/mrosset/.local/x86_64-via-linux-gnu/include/asm-generic/ipcbuf.h",
                  "home/mrosset/.local/x86_64-via-linux-gnu/include/asm-generic/kvm_para.h",
                  "home/mrosset/.local/x86_64-via-linux-gnu/include/asm-generic/mman-common.h",
                  "home/mrosset/.local/x86_64-via-linux-gnu/include/asm-generic/mman.h",
                  "home/mrosset/.local/x86_64-via-linux-gnu/include/asm-generic/msgbuf.h",
                  "home/mrosset/.local/x86_64-via-linux-gnu/include/asm-generic/param.h",
                  "home/mrosset/.local/x86_64-via-linux-gnu/include/asm-generic/poll.h",
                  "home/mrosset/.local/x86_64-via-linux-gnu/include/asm-generic/posix_types.h",
                  "home/mrosset/.local/x86_64-via-linux-gnu/include/asm-generic/resource.h",
                  "home/mrosset/.local/x86_64-via-linux-gnu/include/asm-generic/sembuf.h",
                  "home/mrosset/.local/x86_64-via-linux-gnu/include/asm-generic/setup.h",
                  "home/mrosset/.local/x86_64-via-linux-gnu/include/asm-generic/shmbuf.h",
                  "home/mrosset/.local/x86_64-via-linux-gnu/include/asm-generic/shmparam.h",
                  "home/mrosset/.local/x86_64-via-linux-gnu/include/asm-generic/siginfo.h",
                  "home/mrosset/.local/x86_64-via-linux-gnu/include/asm-generic/signal-defs.h",
                  "home/mrosset/.local/x86_64-via-linux-gnu/include/asm-generic/signal.h",
                  "home/mrosset/.local/x86_64-via-linux-gnu/include/asm-generic/socket.h",
                  "home/mrosset/.local/x86_64-via-linux-gnu/include/asm-generic/sockios.h",
                  "home/mrosset/.local/x86_64-via-linux-gnu/include/asm-generic/stat.h",
                  "home/mrosset/.local/x86_64-via-linux-gnu/include/asm-generic/statfs.h",
                  "home/mrosset/.local/x86_64-via-linux-gnu/include/asm-generic/swab.h",
                  "home/mrosset/.local/x86_64-via-linux-gnu/include/asm-generic/termbits.h",
                  "home/mrosset/.local/x86_64-via-linux-gnu/include/asm-generic/termios.h",
                  "home/mrosset/.local/x86_64-via-linux-gnu/include/asm-generic/types.h",
                  "home/mrosset/.local/x86_64-via-linux-gnu/include/asm-generic/ucontext.h",
                  "home/mrosset/.local/x86_64-via-linux-gnu/include/asm-generic/unistd.h",
                  "home/mrosset/.local/x86_64-via-linux-gnu/include/drm/..install.cmd",
                  "home/mrosset/.local/x86_64-via-linux-gnu/include/drm/.install",
                  "home/mrosset/.local/x86_64-via-linux-gnu/include/drm/drm.h",
                  "home/mrosset/.local/x86_64-via-linux-gnu/include/drm/drm_fourcc.h",
                  "home/mrosset/.local/x86_64-via-linux-gnu/include/drm/drm_mode.h",
                  "home/mrosset/.local/x86_64-via-linux-gnu/include/drm/drm_sarea.h",
                  "home/mrosset/.local/x86_64-via-linux-gnu/include/drm/exynos_drm.h",
                  "home/mrosset/.local/x86_64-via-linux-gnu/include/drm/i810_drm.h",
                  "home/mrosset/.local/x86_64-via-linux-gnu/include/drm/i915_drm.h",
                  "home/mrosset/.local/x86_64-via-linux-gnu/include/drm/mga_drm.h",
                  "home/mrosset/.local/x86_64-via-linux-gnu/include/drm/msm_drm.h",
                  "home/mrosset/.local/x86_64-via-linux-gnu/include/drm/nouveau_drm.h",
                  "home/mrosset/.local/x86_64-via-linux-gnu/include/drm/qxl_drm.h",
                  "home/mrosset/.local/x86_64-via-linux-gnu/include/drm/r128_drm.h",
                  "home/mrosset/.local/x86_64-via-linux-gnu/include/drm/radeon_drm.h",
                  "home/mrosset/.local/x86_64-via-linux-gnu/include/drm/savage_drm.h",
                  "home/mrosset/.local/x86_64-via-linux-gnu/include/drm/sis_drm.h",
                  "home/mrosset/.local/x86_64-via-linux-gnu/include/drm/tegra_drm.h",
                  "home/mrosset/.local/x86_64-via-linux-gnu/include/drm/via_drm.h",
                  "home/mrosset/.local/x86_64-via-linux-gnu/include/drm/vmwgfx_drm.h",
                  "home/mrosset/.local/x86_64-via-linux-gnu/include/linux/..install.cmd",
                  "home/mrosset/.local/x86_64-via-linux-gnu/include/linux/.install",
                  "home/mrosset/.local/x86_64-via-linux-gnu/include/linux/a.out.h",
                  "home/mrosset/.local/x86_64-via-linux-gnu/include/linux/acct.h",
                  "home/mrosset/.local/x86_64-via-linux-gnu/include/linux/adb.h",
                  "home/mrosset/.local/x86_64-via-linux-gnu/include/linux/adfs_fs.h",
                  "home/mrosset/.local/x86_64-via-linux-gnu/include/linux/affs_hardblocks.h",
                  "home/mrosset/.local/x86_64-via-linux-gnu/include/linux/agpgart.h",
                  "home/mrosset/.local/x86_64-via-linux-gnu/include/linux/aio_abi.h",
                  "home/mrosset/.local/x86_64-via-linux-gnu/include/linux/apm_bios.h",
                  "home/mrosset/.local/x86_64-via-linux-gnu/include/linux/arcfb.h",
                  "home/mrosset/.local/x86_64-via-linux-gnu/include/linux/atalk.h",
                  "home/mrosset/.local/x86_64-via-linux-gnu/include/linux/atm.h",
                  "home/mrosset/.local/x86_64-via-linux-gnu/include/linux/atm_eni.h",
                  "home/mrosset/.local/x86_64-via-linux-gnu/include/linux/atm_he.h",
                  "home/mrosset/.local/x86_64-via-linux-gnu/include/linux/atm_idt77105.h",
                  "home/mrosset/.local/x86_64-via-linux-gnu/include/linux/atm_nicstar.h",
                  "home/mrosset/.local/x86_64-via-linux-gnu/include/linux/atm_tcp.h",
                  "home/mrosset/.local/x86_64-via-linux-gnu/include/linux/atm_zatm.h",
                  "home/mrosset/.local/x86_64-via-linux-gnu/include/linux/atmapi.h",
                  "home/mrosset/.local/x86_64-via-linux-gnu/include/linux/atmarp.h",
                  "home/mrosset/.local/x86_64-via-linux-gnu/include/linux/atmbr2684.h",
                  "home/mrosset/.local/x86_64-via-linux-gnu/include/linux/atmclip.h",
                  "home/mrosset/.local/x86_64-via-linux-gnu/include/linux/atmdev.h",
                  "home/mrosset/.local/x86_64-via-linux-gnu/include/linux/atmioc.h",
                  "home/mrosset/.local/x86_64-via-linux-gnu/include/linux/atmlec.h",
                  "home/mrosset/.local/x86_64-via-linux-gnu/include/linux/atmmpc.h",
                  "home/mrosset/.local/x86_64-via-linux-gnu/include/linux/atmppp.h",
                  "home/mrosset/.local/x86_64-via-linux-gnu/include/linux/atmsap.h",
                  "home/mrosset/.local/x86_64-via-linux-gnu/include/linux/atmsvc.h",
                  "home/mrosset/.local/x86_64-via-linux-gnu/include/linux/audit.h",
                  "home/mrosset/.local/x86_64-via-linux-gnu/include/linux/auto_fs.h",
                  "home/mrosset/.local/x86_64-via-linux-gnu/include/linux/auto_fs4.h",
                  "home/mrosset/.local/x86_64-via-linux-gnu/include/linux/auxvec.h",
                  "home/mrosset/.local/x86_64-via-linux-gnu/include/linux/ax25.h",
                  "home/mrosset/.local/x86_64-via-linux-gnu/include/linux/b1lli.h",
                  "home/mrosset/.local/x86_64-via-linux-gnu/include/linux/baycom.h",
                  "home/mrosset/.local/x86_64-via-linux-gnu/include/linux/bcm933xx_hcs.h",
                  "home/mrosset/.local/x86_64-via-linux-gnu/include/linux/bfs_fs.h",
                  "home/mrosset/.local/x86_64-via-linux-gnu/include/linux/binfmts.h",
                  "home/mrosset/.local/x86_64-via-linux-gnu/include/linux/blkpg.h",
                  "home/mrosset/.local/x86_64-via-linux-gnu/include/linux/blktrace_api.h",
                  "home/mrosset/.local/x86_64-via-linux-gnu/include/linux/bpqether.h",
                  "home/mrosset/.local/x86_64-via-linux-gnu/include/linux/bsg.h",
                  "home/mrosset/.local/x86_64-via-linux-gnu/include/linux/btrfs.h",
                  "home/mrosset/.local/x86_64-via-linux-gnu/include/linux/byteorder/..install.cmd",
                  "home/mrosset/.local/x86_64-via-linux-gnu/include/linux/byteorder/.install",
                  "home/mrosset/.local/x86_64-via-linux-gnu/include/linux/byteorder/big_endian.h",
                  "home/mrosset/.local/x86_64-via-linux-gnu/include/linux/byteorder/little_endian.h",
                  "home/mrosset/.local/x86_64-via-linux-gnu/include/linux/caif/..install.cmd",
                  "home/mrosset/.local/x86_64-via-linux-gnu/include/linux/caif/.install",
                  "home/mrosset/.local/x86_64-via-linux-gnu/include/linux/caif/caif_socket.h",
                  "home/mrosset/.local/x86_64-via-linux-gnu/include/linux/caif/if_caif.h",
                  "home/mrosset/.local/x86_64-via-linux-gnu/include/linux/can/..install.cmd",
                  "home/mrosset/.local/x86_64-via-linux-gnu/include/linux/can/.install",
                  "home/mrosset/.local/x86_64-via-linux-gnu/include/linux/can/bcm.h",
                  "home/mrosset/.local/x86_64-via-linux-gnu/include/linux/can/error.h",
                  "home/mrosset/.local/x86_64-via-linux-gnu/include/linux/can/gw.h",
                  "home/mrosset/.local/x86_64-via-linux-gnu/include/linux/can/netlink.h",
                  "home/mrosset/.local/x86_64-via-linux-gnu/include/linux/can/raw.h",
                  "home/mrosset/.local/x86_64-via-linux-gnu/include/linux/can.h",
                  "home/mrosset/.local/x86_64-via-linux-gnu/include/linux/capability.h",
                  "home/mrosset/.local/x86_64-via-linux-gnu/include/linux/capi.h",
                  "home/mrosset/.local/x86_64-via-linux-gnu/include/linux/cciss_defs.h",
                  "home/mrosset/.local/x86_64-via-linux-gnu/include/linux/cciss_ioctl.h",
                  "home/mrosset/.local/x86_64-via-linux-gnu/include/linux/cdrom.h",
                  "home/mrosset/.local/x86_64-via-linux-gnu/include/linux/cgroupstats.h",
                  "home/mrosset/.local/x86_64-via-linux-gnu/include/linux/chio.h",
                  "home/mrosset/.local/x86_64-via-linux-gnu/include/linux/cm4000_cs.h",
                  "home/mrosset/.local/x86_64-via-linux-gnu/include/linux/cn_proc.h",
                  "home/mrosset/.local/x86_64-via-linux-gnu/include/linux/coda.h",
                  "home/mrosset/.local/x86_64-via-linux-gnu/include/linux/coda_psdev.h",
                  "home/mrosset/.local/x86_64-via-linux-gnu/include/linux/coff.h",
                  "home/mrosset/.local/x86_64-via-linux-gnu/include/linux/connector.h",
                  "home/mrosset/.local/x86_64-via-linux-gnu/include/linux/const.h",
                  "home/mrosset/.local/x86_64-via-linux-gnu/include/linux/cramfs_fs.h",
                  "home/mrosset/.local/x86_64-via-linux-gnu/include/linux/cuda.h",
                  "home/mrosset/.local/x86_64-via-linux-gnu/include/linux/cyclades.h",
                  "home/mrosset/.local/x86_64-via-linux-gnu/include/linux/cycx_cfm.h",
                  "home/mrosset/.local/x86_64-via-linux-gnu/include/linux/dcbnl.h",
                  "home/mrosset/.local/x86_64-via-linux-gnu/include/linux/dccp.h",
                  "home/mrosset/.local/x86_64-via-linux-gnu/include/linux/dlm.h",
                  "home/mrosset/.local/x86_64-via-linux-gnu/include/linux/dlm_device.h",
                  "home/mrosset/.local/x86_64-via-linux-gnu/include/linux/dlm_netlink.h",
                  "home/mrosset/.local/x86_64-via-linux-gnu/include/linux/dlm_plock.h",
                  "home/mrosset/.local/x86_64-via-linux-gnu/include/linux/dlmconstants.h",
                  "home/mrosset/.local/x86_64-via-linux-gnu/include/linux/dm-ioctl.h",
                  "home/mrosset/.local/x86_64-via-linux-gnu/include/linux/dm-log-userspace.h",
                  "home/mrosset/.local/x86_64-via-linux-gnu/include/linux/dn.h",
                  "home/mrosset/.local/x86_64-via-linux-gnu/include/linux/dqblk_xfs.h",
                  "home/mrosset/.local/x86_64-via-linux-gnu/include/linux/dvb/..install.cmd",
                  "home/mrosset/.local/x86_64-via-linux-gnu/include/linux/dvb/.install",
                  "home/mrosset/.local/x86_64-via-linux-gnu/include/linux/dvb/audio.h",
                  "home/mrosset/.local/x86_64-via-linux-gnu/include/linux/dvb/ca.h",
                  "home/mrosset/.local/x86_64-via-linux-gnu/include/linux/dvb/dmx.h",
                  "home/mrosset/.local/x86_64-via-linux-gnu/include/linux/dvb/frontend.h",
                  "home/mrosset/.local/x86_64-via-linux-gnu/include/linux/dvb/net.h",
                  "home/mrosset/.local/x86_64-via-linux-gnu/include/linux/dvb/osd.h",
                  "home/mrosset/.local/x86_64-via-linux-gnu/include/linux/dvb/version.h",
                  "home/mrosset/.local/x86_64-via-linux-gnu/include/linux/dvb/video.h",
                  "home/mrosset/.local/x86_64-via-linux-gnu/include/linux/edd.h",
                  "home/mrosset/.local/x86_64-via-linux-gnu/include/linux/efs_fs_sb.h",
                  "home/mrosset/.local/x86_64-via-linux-gnu/include/linux/elf-em.h",
                  "home/mrosset/.local/x86_64-via-linux-gnu/include/linux/elf-fdpic.h",
                  "home/mrosset/.local/x86_64-via-linux-gnu/include/linux/elf.h",
                  "home/mrosset/.local/x86_64-via-linux-gnu/include/linux/elfcore.h",
                  "home/mrosset/.local/x86_64-via-linux-gnu/include/linux/errno.h",
                  "home/mrosset/.local/x86_64-via-linux-gnu/include/linux/errqueue.h",
                  "home/mrosset/.local/x86_64-via-linux-gnu/include/linux/ethtool.h",
                  "home/mrosset/.local/x86_64-via-linux-gnu/include/linux/eventpoll.h",
                  "home/mrosset/.local/x86_64-via-linux-gnu/include/linux/fadvise.h",
                  "home/mrosset/.local/x86_64-via-linux-gnu/include/linux/falloc.h",
                  "home/mrosset/.local/x86_64-via-linux-gnu/include/linux/fanotify.h",
                  "home/mrosset/.local/x86_64-via-linux-gnu/include/linux/fb.h",
                  "home/mrosset/.local/x86_64-via-linux-gnu/include/linux/fcntl.h",
                  "home/mrosset/.local/x86_64-via-linux-gnu/include/linux/fd.h",
                  "home/mrosset/.local/x86_64-via-linux-gnu/include/linux/fdreg.h",
                  "home/mrosset/.local/x86_64-via-linux-gnu/include/linux/fib_rules.h",
                  "home/mrosset/.local/x86_64-via-linux-gnu/include/linux/fiemap.h",
                  "home/mrosset/.local/x86_64-via-linux-gnu/include/linux/filter.h",
                  "home/mrosset/.local/x86_64-via-linux-gnu/include/linux/firewire-cdev.h",
                  "home/mrosset/.local/x86_64-via-linux-gnu/include/linux/firewire-constants.h",
                  "home/mrosset/.local/x86_64-via-linux-gnu/include/linux/flat.h",
                  "home/mrosset/.local/x86_64-via-linux-gnu/include/linux/fs.h",
                  "home/mrosset/.local/x86_64-via-linux-gnu/include/linux/fsl_hypervisor.h",
                  "home/mrosset/.local/x86_64-via-linux-gnu/include/linux/fuse.h",
                  "home/mrosset/.local/x86_64-via-linux-gnu/include/linux/futex.h",
                  "home/mrosset/.local/x86_64-via-linux-gnu/include/linux/gameport.h",
                  "home/mrosset/.local/x86_64-via-linux-gnu/include/linux/gen_stats.h",
                  "home/mrosset/.local/x86_64-via-linux-gnu/include/linux/genetlink.h",
                  "home/mrosset/.local/x86_64-via-linux-gnu/include/linux/gfs2_ondisk.h",
                  "home/mrosset/.local/x86_64-via-linux-gnu/include/linux/gigaset_dev.h",
                  "home/mrosset/.local/x86_64-via-linux-gnu/include/linux/hdlc/..install.cmd",
                  "home/mrosset/.local/x86_64-via-linux-gnu/include/linux/hdlc/.install",
                  "home/mrosset/.local/x86_64-via-linux-gnu/include/linux/hdlc/ioctl.h",
                  "home/mrosset/.local/x86_64-via-linux-gnu/include/linux/hdlc.h",
                  "home/mrosset/.local/x86_64-via-linux-gnu/include/linux/hdlcdrv.h",
                  "home/mrosset/.local/x86_64-via-linux-gnu/include/linux/hdreg.h",
                  "home/mrosset/.local/x86_64-via-linux-gnu/include/linux/hid.h",
                  "home/mrosset/.local/x86_64-via-linux-gnu/include/linux/hiddev.h",
                  "home/mrosset/.local/x86_64-via-linux-gnu/include/linux/hidraw.h",
                  "home/mrosset/.local/x86_64-via-linux-gnu/include/linux/hpet.h",
                  "home/mrosset/.local/x86_64-via-linux-gnu/include/linux/hsi/..install.cmd",
                  "home/mrosset/.local/x86_64-via-linux-gnu/include/linux/hsi/.install",
                  "home/mrosset/.local/x86_64-via-linux-gnu/include/linux/hsi/hsi_char.h",
                  "home/mrosset/.local/x86_64-via-linux-gnu/include/linux/hw_breakpoint.h",
                  "home/mrosset/.local/x86_64-via-linux-gnu/include/linux/hyperv.h",
                  "home/mrosset/.local/x86_64-via-linux-gnu/include/linux/hysdn_if.h",
                  "home/mrosset/.local/x86_64-via-linux-gnu/include/linux/i2c-dev.h",
                  "home/mrosset/.local/x86_64-via-linux-gnu/include/linux/i2c.h",
                  "home/mrosset/.local/x86_64-via-linux-gnu/include/linux/i2o-dev.h",
                  "home/mrosset/.local/x86_64-via-linux-gnu/include/linux/i8k.h",
                  "home/mrosset/.local/x86_64-via-linux-gnu/include/linux/icmp.h",
                  "home/mrosset/.local/x86_64-via-linux-gnu/include/linux/icmpv6.h",
                  "home/mrosset/.local/x86_64-via-linux-gnu/include/linux/if.h",
                  "home/mrosset/.local/x86_64-via-linux-gnu/include/linux/if_addr.h",
                  "home/mrosset/.local/x86_64-via-linux-gnu/include/linux/if_addrlabel.h",
                  "home/mrosset/.local/x86_64-via-linux-gnu/include/linux/if_alg.h",
                  "home/mrosset/.local/x86_64-via-linux-gnu/include/linux/if_arcnet.h",
                  "home/mrosset/.local/x86_64-via-linux-gnu/include/linux/if_arp.h",
                  "home/mrosset/.local/x86_64-via-linux-gnu/include/linux/if_bonding.h",
                  "home/mrosset/.local/x86_64-via-linux-gnu/include/linux/if_bridge.h",
                  "home/mrosset/.local/x86_64-via-linux-gnu/include/linux/if_cablemodem.h",
                  "home/mrosset/.local/x86_64-via-linux-gnu/include/linux/if_eql.h",
                  "home/mrosset/.local/x86_64-via-linux-gnu/include/linux/if_ether.h",
                  "home/mrosset/.local/x86_64-via-linux-gnu/include/linux/if_fc.h",
                  "home/mrosset/.local/x86_64-via-linux-gnu/include/linux/if_fddi.h",
                  "home/mrosset/.local/x86_64-via-linux-gnu/include/linux/if_frad.h",
                  "home/mrosset/.local/x86_64-via-linux-gnu/include/linux/if_hippi.h",
                  "home/mrosset/.local/x86_64-via-linux-gnu/include/linux/if_infiniband.h",
                  "home/mrosset/.local/x86_64-via-linux-gnu/include/linux/if_link.h",
                  "home/mrosset/.local/x86_64-via-linux-gnu/include/linux/if_ltalk.h",
                  "home/mrosset/.local/x86_64-via-linux-gnu/include/linux/if_packet.h",
                  "home/mrosset/.local/x86_64-via-linux-gnu/include/linux/if_phonet.h",
                  "home/mrosset/.local/x86_64-via-linux-gnu/include/linux/if_plip.h",
                  "home/mrosset/.local/x86_64-via-linux-gnu/include/linux/if_ppp.h",
                  "home/mrosset/.local/x86_64-via-linux-gnu/include/linux/if_pppol2tp.h",
                  "home/mrosset/.local/x86_64-via-linux-gnu/include/linux/if_pppox.h",
                  "home/mrosset/.local/x86_64-via-linux-gnu/include/linux/if_slip.h",
                  "home/mrosset/.local/x86_64-via-linux-gnu/include/linux/if_team.h",
                  "home/mrosset/.local/x86_64-via-linux-gnu/include/linux/if_tun.h",
                  "home/mrosset/.local/x86_64-via-linux-gnu/include/linux/if_tunnel.h",
                  "home/mrosset/.local/x86_64-via-linux-gnu/include/linux/if_vlan.h",
                  "home/mrosset/.local/x86_64-via-linux-gnu/include/linux/if_x25.h",
                  "home/mrosset/.local/x86_64-via-linux-gnu/include/linux/igmp.h",
                  "home/mrosset/.local/x86_64-via-linux-gnu/include/linux/in.h",
                  "home/mrosset/.local/x86_64-via-linux-gnu/include/linux/in6.h",
                  "home/mrosset/.local/x86_64-via-linux-gnu/include/linux/in_route.h",
                  "home/mrosset/.local/x86_64-via-linux-gnu/include/linux/inet_diag.h",
                  "home/mrosset/.local/x86_64-via-linux-gnu/include/linux/inotify.h",
                  "home/mrosset/.local/x86_64-via-linux-gnu/include/linux/input.h",
                  "home/mrosset/.local/x86_64-via-linux-gnu/include/linux/ioctl.h",
                  "home/mrosset/.local/x86_64-via-linux-gnu/include/linux/ip.h",
                  "home/mrosset/.local/x86_64-via-linux-gnu/include/linux/ip6_tunnel.h",
                  "home/mrosset/.local/x86_64-via-linux-gnu/include/linux/ip_vs.h",
                  "home/mrosset/.local/x86_64-via-linux-gnu/include/linux/ipc.h",
                  "home/mrosset/.local/x86_64-via-linux-gnu/include/linux/ipmi.h",
                  "home/mrosset/.local/x86_64-via-linux-gnu/include/linux/ipmi_msgdefs.h",
                  "home/mrosset/.local/x86_64-via-linux-gnu/include/linux/ipsec.h",
                  "home/mrosset/.local/x86_64-via-linux-gnu/include/linux/ipv6.h",
                  "home/mrosset/.local/x86_64-via-linux-gnu/include/linux/ipv6_route.h",
                  "home/mrosset/.local/x86_64-via-linux-gnu/include/linux/ipx.h",
                  "home/mrosset/.local/x86_64-via-linux-gnu/include/linux/irda.h",
                  "home/mrosset/.local/x86_64-via-linux-gnu/include/linux/irqnr.h",
                  "home/mrosset/.local/x86_64-via-linux-gnu/include/linux/isdn/..install.cmd",
                  "home/mrosset/.local/x86_64-via-linux-gnu/include/linux/isdn/.install",
                  "home/mrosset/.local/x86_64-via-linux-gnu/include/linux/isdn/capicmd.h",
                  "home/mrosset/.local/x86_64-via-linux-gnu/include/linux/isdn.h",
                  "home/mrosset/.local/x86_64-via-linux-gnu/include/linux/isdn_divertif.h",
                  "home/mrosset/.local/x86_64-via-linux-gnu/include/linux/isdn_ppp.h",
                  "home/mrosset/.local/x86_64-via-linux-gnu/include/linux/isdnif.h",
                  "home/mrosset/.local/x86_64-via-linux-gnu/include/linux/iso_fs.h",
                  "home/mrosset/.local/x86_64-via-linux-gnu/include/linux/ivtv.h",
                  "home/mrosset/.local/x86_64-via-linux-gnu/include/linux/ivtvfb.h",
                  "home/mrosset/.local/x86_64-via-linux-gnu/include/linux/ixjuser.h",
                  "home/mrosset/.local/x86_64-via-linux-gnu/include/linux/jffs2.h",
                  "home/mrosset/.local/x86_64-via-linux-gnu/include/linux/joystick.h",
                  "home/mrosset/.local/x86_64-via-linux-gnu/include/linux/kd.h",
                  "home/mrosset/.local/x86_64-via-linux-gnu/include/linux/kdev_t.h",
                  "home/mrosset/.local/x86_64-via-linux-gnu/include/linux/kernel-page-flags.h",
                  "home/mrosset/.local/x86_64-via-linux-gnu/include/linux/kernel.h",
                  "home/mrosset/.local/x86_64-via-linux-gnu/include/linux/kernelcapi.h",
                  "home/mrosset/.local/x86_64-via-linux-gnu/include/linux/kexec.h",
                  "home/mrosset/.local/x86_64-via-linux-gnu/include/linux/keyboard.h",
                  "home/mrosset/.local/x86_64-via-linux-gnu/include/linux/keyctl.h",
                  "home/mrosset/.local/x86_64-via-linux-gnu/include/linux/kvm.h",
                  "home/mrosset/.local/x86_64-via-linux-gnu/include/linux/kvm_para.h",
                  "home/mrosset/.local/x86_64-via-linux-gnu/include/linux/l2tp.h",
                  "home/mrosset/.local/x86_64-via-linux-gnu/include/linux/libc-compat.h",
                  "home/mrosset/.local/x86_64-via-linux-gnu/include/linux/limits.h",
                  "home/mrosset/.local/x86_64-via-linux-gnu/include/linux/llc.h",
                  "home/mrosset/.local/x86_64-via-linux-gnu/include/linux/loop.h",
                  "home/mrosset/.local/x86_64-via-linux-gnu/include/linux/lp.h",
                  "home/mrosset/.local/x86_64-via-linux-gnu/include/linux/magic.h",
                  "home/mrosset/.local/x86_64-via-linux-gnu/include/linux/major.h",
                  "home/mrosset/.local/x86_64-via-linux-gnu/include/linux/map_to_7segment.h",
                  "home/mrosset/.local/x86_64-via-linux-gnu/include/linux/matroxfb.h",
                  "home/mrosset/.local/x86_64-via-linux-gnu/include/linux/mdio.h",
                  "home/mrosset/.local/x86_64-via-linux-gnu/include/linux/media.h",
                  "home/mrosset/.local/x86_64-via-linux-gnu/include/linux/mei.h",
                  "home/mrosset/.local/x86_64-via-linux-gnu/include/linux/memfd.h",
                  "home/mrosset/.local/x86_64-via-linux-gnu/include/linux/mempolicy.h",
                  "home/mrosset/.local/x86_64-via-linux-gnu/include/linux/meye.h",
                  "home/mrosset/.local/x86_64-via-linux-gnu/include/linux/mic_common.h",
                  "home/mrosset/.local/x86_64-via-linux-gnu/include/linux/mic_ioctl.h",
                  "home/mrosset/.local/x86_64-via-linux-gnu/include/linux/mii.h",
                  "home/mrosset/.local/x86_64-via-linux-gnu/include/linux/minix_fs.h",
                  "home/mrosset/.local/x86_64-via-linux-gnu/include/linux/mman.h",
                  "home/mrosset/.local/x86_64-via-linux-gnu/include/linux/mmc/..install.cmd",
                  "home/mrosset/.local/x86_64-via-linux-gnu/include/linux/mmc/.install",
                  "home/mrosset/.local/x86_64-via-linux-gnu/include/linux/mmc/ioctl.h",
                  "home/mrosset/.local/x86_64-via-linux-gnu/include/linux/mmtimer.h",
                  "home/mrosset/.local/x86_64-via-linux-gnu/include/linux/mqueue.h",
                  "home/mrosset/.local/x86_64-via-linux-gnu/include/linux/mroute.h",
                  "home/mrosset/.local/x86_64-via-linux-gnu/include/linux/mroute6.h",
                  "home/mrosset/.local/x86_64-via-linux-gnu/include/linux/msdos_fs.h",
                  "home/mrosset/.local/x86_64-via-linux-gnu/include/linux/msg.h",
                  "home/mrosset/.local/x86_64-via-linux-gnu/include/linux/mtio.h",
                  "home/mrosset/.local/x86_64-via-linux-gnu/include/linux/n_r3964.h",
                  "home/mrosset/.local/x86_64-via-linux-gnu/include/linux/nbd.h",
                  "home/mrosset/.local/x86_64-via-linux-gnu/include/linux/ncp.h",
                  "home/mrosset/.local/x86_64-via-linux-gnu/include/linux/ncp_fs.h",
                  "home/mrosset/.local/x86_64-via-linux-gnu/include/linux/ncp_mount.h",
                  "home/mrosset/.local/x86_64-via-linux-gnu/include/linux/ncp_no.h",
                  "home/mrosset/.local/x86_64-via-linux-gnu/include/linux/neighbour.h",
                  "home/mrosset/.local/x86_64-via-linux-gnu/include/linux/net.h",
                  "home/mrosset/.local/x86_64-via-linux-gnu/include/linux/net_dropmon.h",
                  "home/mrosset/.local/x86_64-via-linux-gnu/include/linux/net_tstamp.h",
                  "home/mrosset/.local/x86_64-via-linux-gnu/include/linux/netconf.h",
                  "home/mrosset/.local/x86_64-via-linux-gnu/include/linux/netdevice.h",
                  "home/mrosset/.local/x86_64-via-linux-gnu/include/linux/netfilter/..install.cmd",
                  "home/mrosset/.local/x86_64-via-linux-gnu/include/linux/netfilter/.install",
                  "home/mrosset/.local/x86_64-via-linux-gnu/include/linux/netfilter/ipset/..install.cmd",
                  "home/mrosset/.local/x86_64-via-linux-gnu/include/linux/netfilter/ipset/.install",
                  "home/mrosset/.local/x86_64-via-linux-gnu/include/linux/netfilter/ipset/ip_set.h",
                  "home/mrosset/.local/x86_64-via-linux-gnu/include/linux/netfilter/ipset/ip_set_bitmap.h",
                  "home/mrosset/.local/x86_64-via-linux-gnu/include/linux/netfilter/ipset/ip_set_hash.h",
                  "home/mrosset/.local/x86_64-via-linux-gnu/include/linux/netfilter/ipset/ip_set_list.h",
                  "home/mrosset/.local/x86_64-via-linux-gnu/include/linux/netfilter/nf_conntrack_common.h",
                  "home/mrosset/.local/x86_64-via-linux-gnu/include/linux/netfilter/nf_conntrack_ftp.h",
                  "home/mrosset/.local/x86_64-via-linux-gnu/include/linux/netfilter/nf_conntrack_sctp.h",
                  "home/mrosset/.local/x86_64-via-linux-gnu/include/linux/netfilter/nf_conntrack_tcp.h",
                  "home/mrosset/.local/x86_64-via-linux-gnu/include/linux/netfilter/nf_conntrack_tuple_common.h",
                  "home/mrosset/.local/x86_64-via-linux-gnu/include/linux/netfilter/nf_nat.h",
                  "home/mrosset/.local/x86_64-via-linux-gnu/include/linux/netfilter/nf_tables.h",
                  "home/mrosset/.local/x86_64-via-linux-gnu/include/linux/netfilter/nf_tables_compat.h",
                  "home/mrosset/.local/x86_64-via-linux-gnu/include/linux/netfilter/nfnetlink.h",
                  "home/mrosset/.local/x86_64-via-linux-gnu/include/linux/netfilter/nfnetlink_acct.h",
                  "home/mrosset/.local/x86_64-via-linux-gnu/include/linux/netfilter/nfnetlink_compat.h",
                  "home/mrosset/.local/x86_64-via-linux-gnu/include/linux/netfilter/nfnetlink_conntrack.h",
                  "home/mrosset/.local/x86_64-via-linux-gnu/include/linux/netfilter/nfnetlink_cthelper.h",
                  "home/mrosset/.local/x86_64-via-linux-gnu/include/linux/netfilter/nfnetlink_cttimeout.h",
                  "home/mrosset/.local/x86_64-via-linux-gnu/include/linux/netfilter/nfnetlink_log.h",
                  "home/mrosset/.local/x86_64-via-linux-gnu/include/linux/netfilter/nfnetlink_queue.h",
                  "home/mrosset/.local/x86_64-via-linux-gnu/include/linux/netfilter/x_tables.h",
                  "home/mrosset/.local/x86_64-via-linux-gnu/include/linux/netfilter/xt_AUDIT.h",
                  "home/mrosset/.local/x86_64-via-linux-gnu/include/linux/netfilter/xt_CHECKSUM.h",
                  "home/mrosset/.local/x86_64-via-linux-gnu/include/linux/netfilter/xt_CLASSIFY.h",
                  "home/mrosset/.local/x86_64-via-linux-gnu/include/linux/netfilter/xt_CONNMARK.h",
                  "home/mrosset/.local/x86_64-via-linux-gnu/include/linux/netfilter/xt_CONNSECMARK.h",
                  "home/mrosset/.local/x86_64-via-linux-gnu/include/linux/netfilter/xt_CT.h",
                  "home/mrosset/.local/x86_64-via-linux-gnu/include/linux/netfilter/xt_DSCP.h",
                  "home/mrosset/.local/x86_64-via-linux-gnu/include/linux/netfilter/xt_HMARK.h",
                  "home/mrosset/.local/x86_64-via-linux-gnu/include/linux/netfilter/xt_IDLETIMER.h",
                  "home/mrosset/.local/x86_64-via-linux-gnu/include/linux/netfilter/xt_LED.h",
                  "home/mrosset/.local/x86_64-via-linux-gnu/include/linux/netfilter/xt_LOG.h",
                  "home/mrosset/.local/x86_64-via-linux-gnu/include/linux/netfilter/xt_MARK.h",
                  "home/mrosset/.local/x86_64-via-linux-gnu/include/linux/netfilter/xt_NFLOG.h",
                  "home/mrosset/.local/x86_64-via-linux-gnu/include/linux/netfilter/xt_NFQUEUE.h",
                  "home/mrosset/.local/x86_64-via-linux-gnu/include/linux/netfilter/xt_RATEEST.h",
                  "home/mrosset/.local/x86_64-via-linux-gnu/include/linux/netfilter/xt_SECMARK.h",
                  "home/mrosset/.local/x86_64-via-linux-gnu/include/linux/netfilter/xt_TCPMSS.h",
                  "home/mrosset/.local/x86_64-via-linux-gnu/include/linux/netfilter/xt_TCPOPTSTRIP.h",
                  "home/mrosset/.local/x86_64-via-linux-gnu/include/linux/netfilter/xt_TEE.h",
                  "home/mrosset/.local/x86_64-via-linux-gnu/include/linux/netfilter/xt_TPROXY.h",
                  "home/mrosset/.local/x86_64-via-linux-gnu/include/linux/netfilter/xt_addrtype.h",
                  "home/mrosset/.local/x86_64-via-linux-gnu/include/linux/netfilter/xt_bpf.h",
                  "home/mrosset/.local/x86_64-via-linux-gnu/include/linux/netfilter/xt_cgroup.h",
                  "home/mrosset/.local/x86_64-via-linux-gnu/include/linux/netfilter/xt_cluster.h",
                  "home/mrosset/.local/x86_64-via-linux-gnu/include/linux/netfilter/xt_comment.h",
                  "home/mrosset/.local/x86_64-via-linux-gnu/include/linux/netfilter/xt_connbytes.h",
                  "home/mrosset/.local/x86_64-via-linux-gnu/include/linux/netfilter/xt_connlabel.h",
                  "home/mrosset/.local/x86_64-via-linux-gnu/include/linux/netfilter/xt_connlimit.h",
                  "home/mrosset/.local/x86_64-via-linux-gnu/include/linux/netfilter/xt_connmark.h",
                  "home/mrosset/.local/x86_64-via-linux-gnu/include/linux/netfilter/xt_conntrack.h",
                  "home/mrosset/.local/x86_64-via-linux-gnu/include/linux/netfilter/xt_cpu.h",
                  "home/mrosset/.local/x86_64-via-linux-gnu/include/linux/netfilter/xt_dccp.h",
                  "home/mrosset/.local/x86_64-via-linux-gnu/include/linux/netfilter/xt_devgroup.h",
                  "home/mrosset/.local/x86_64-via-linux-gnu/include/linux/netfilter/xt_dscp.h",
                  "home/mrosset/.local/x86_64-via-linux-gnu/include/linux/netfilter/xt_ecn.h",
                  "home/mrosset/.local/x86_64-via-linux-gnu/include/linux/netfilter/xt_esp.h",
                  "home/mrosset/.local/x86_64-via-linux-gnu/include/linux/netfilter/xt_hashlimit.h",
                  "home/mrosset/.local/x86_64-via-linux-gnu/include/linux/netfilter/xt_helper.h",
                  "home/mrosset/.local/x86_64-via-linux-gnu/include/linux/netfilter/xt_ipcomp.h",
                  "home/mrosset/.local/x86_64-via-linux-gnu/include/linux/netfilter/xt_iprange.h",
                  "home/mrosset/.local/x86_64-via-linux-gnu/include/linux/netfilter/xt_ipvs.h",
                  "home/mrosset/.local/x86_64-via-linux-gnu/include/linux/netfilter/xt_l2tp.h",
                  "home/mrosset/.local/x86_64-via-linux-gnu/include/linux/netfilter/xt_length.h",
                  "home/mrosset/.local/x86_64-via-linux-gnu/include/linux/netfilter/xt_limit.h",
                  "home/mrosset/.local/x86_64-via-linux-gnu/include/linux/netfilter/xt_mac.h",
                  "home/mrosset/.local/x86_64-via-linux-gnu/include/linux/netfilter/xt_mark.h",
                  "home/mrosset/.local/x86_64-via-linux-gnu/include/linux/netfilter/xt_multiport.h",
                  "home/mrosset/.local/x86_64-via-linux-gnu/include/linux/netfilter/xt_nfacct.h",
                  "home/mrosset/.local/x86_64-via-linux-gnu/include/linux/netfilter/xt_osf.h",
                  "home/mrosset/.local/x86_64-via-linux-gnu/include/linux/netfilter/xt_owner.h",
                  "home/mrosset/.local/x86_64-via-linux-gnu/include/linux/netfilter/xt_physdev.h",
                  "home/mrosset/.local/x86_64-via-linux-gnu/include/linux/netfilter/xt_pkttype.h",
                  "home/mrosset/.local/x86_64-via-linux-gnu/include/linux/netfilter/xt_policy.h",
                  "home/mrosset/.local/x86_64-via-linux-gnu/include/linux/netfilter/xt_quota.h",
                  "home/mrosset/.local/x86_64-via-linux-gnu/include/linux/netfilter/xt_rateest.h",
                  "home/mrosset/.local/x86_64-via-linux-gnu/include/linux/netfilter/xt_realm.h",
                  "home/mrosset/.local/x86_64-via-linux-gnu/include/linux/netfilter/xt_recent.h",
                  "home/mrosset/.local/x86_64-via-linux-gnu/include/linux/netfilter/xt_rpfilter.h",
                  "home/mrosset/.local/x86_64-via-linux-gnu/include/linux/netfilter/xt_sctp.h",
                  "home/mrosset/.local/x86_64-via-linux-gnu/include/linux/netfilter/xt_set.h",
                  "home/mrosset/.local/x86_64-via-linux-gnu/include/linux/netfilter/xt_socket.h",
                  "home/mrosset/.local/x86_64-via-linux-gnu/include/linux/netfilter/xt_state.h",
                  "home/mrosset/.local/x86_64-via-linux-gnu/include/linux/netfilter/xt_statistic.h",
                  "home/mrosset/.local/x86_64-via-linux-gnu/include/linux/netfilter/xt_string.h",
                  "home/mrosset/.local/x86_64-via-linux-gnu/include/linux/netfilter/xt_tcpmss.h",
                  "home/mrosset/.local/x86_64-via-linux-gnu/include/linux/netfilter/xt_tcpudp.h",
                  "home/mrosset/.local/x86_64-via-linux-gnu/include/linux/netfilter/xt_time.h",
                  "home/mrosset/.local/x86_64-via-linux-gnu/include/linux/netfilter/xt_u32.h",
                  "home/mrosset/.local/x86_64-via-linux-gnu/include/linux/netfilter.h",
                  "home/mrosset/.local/x86_64-via-linux-gnu/include/linux/netfilter_arp/..install.cmd",
                  "home/mrosset/.local/x86_64-via-linux-gnu/include/linux/netfilter_arp/.install",
                  "home/mrosset/.local/x86_64-via-linux-gnu/include/linux/netfilter_arp/arp_tables.h",
                  "home/mrosset/.local/x86_64-via-linux-gnu/include/linux/netfilter_arp/arpt_mangle.h",
                  "home/mrosset/.local/x86_64-via-linux-gnu/include/linux/netfilter_arp.h",
                  "home/mrosset/.local/x86_64-via-linux-gnu/include/linux/netfilter_bridge/..install.cmd",
                  "home/mrosset/.local/x86_64-via-linux-gnu/include/linux/netfilter_bridge/.install",
                  "home/mrosset/.local/x86_64-via-linux-gnu/include/linux/netfilter_bridge/ebt_802_3.h",
                  "home/mrosset/.local/x86_64-via-linux-gnu/include/linux/netfilter_bridge/ebt_among.h",
                  "home/mrosset/.local/x86_64-via-linux-gnu/include/linux/netfilter_bridge/ebt_arp.h",
                  "home/mrosset/.local/x86_64-via-linux-gnu/include/linux/netfilter_bridge/ebt_arpreply.h",
                  "home/mrosset/.local/x86_64-via-linux-gnu/include/linux/netfilter_bridge/ebt_ip.h",
                  "home/mrosset/.local/x86_64-via-linux-gnu/include/linux/netfilter_bridge/ebt_ip6.h",
                  "home/mrosset/.local/x86_64-via-linux-gnu/include/linux/netfilter_bridge/ebt_limit.h",
                  "home/mrosset/.local/x86_64-via-linux-gnu/include/linux/netfilter_bridge/ebt_log.h",
                  "home/mrosset/.local/x86_64-via-linux-gnu/include/linux/netfilter_bridge/ebt_mark_m.h",
                  "home/mrosset/.local/x86_64-via-linux-gnu/include/linux/netfilter_bridge/ebt_mark_t.h",
                  "home/mrosset/.local/x86_64-via-linux-gnu/include/linux/netfilter_bridge/ebt_nat.h",
                  "home/mrosset/.local/x86_64-via-linux-gnu/include/linux/netfilter_bridge/ebt_nflog.h",
                  "home/mrosset/.local/x86_64-via-linux-gnu/include/linux/netfilter_bridge/ebt_pkttype.h",
                  "home/mrosset/.local/x86_64-via-linux-gnu/include/linux/netfilter_bridge/ebt_redirect.h",
                  "home/mrosset/.local/x86_64-via-linux-gnu/include/linux/netfilter_bridge/ebt_stp.h",
                  "home/mrosset/.local/x86_64-via-linux-gnu/include/linux/netfilter_bridge/ebt_vlan.h",
                  "home/mrosset/.local/x86_64-via-linux-gnu/include/linux/netfilter_bridge/ebtables.h",
                  "home/mrosset/.local/x86_64-via-linux-gnu/include/linux/netfilter_bridge.h",
                  "home/mrosset/.local/x86_64-via-linux-gnu/include/linux/netfilter_decnet.h",
                  "home/mrosset/.local/x86_64-via-linux-gnu/include/linux/netfilter_ipv4/..install.cmd",
                  "home/mrosset/.local/x86_64-via-linux-gnu/include/linux/netfilter_ipv4/.install",
                  "home/mrosset/.local/x86_64-via-linux-gnu/include/linux/netfilter_ipv4/ip_tables.h",
                  "home/mrosset/.local/x86_64-via-linux-gnu/include/linux/netfilter_ipv4/ipt_CLUSTERIP.h",
                  "home/mrosset/.local/x86_64-via-linux-gnu/include/linux/netfilter_ipv4/ipt_ECN.h",
                  "home/mrosset/.local/x86_64-via-linux-gnu/include/linux/netfilter_ipv4/ipt_LOG.h",
                  "home/mrosset/.local/x86_64-via-linux-gnu/include/linux/netfilter_ipv4/ipt_REJECT.h",
                  "home/mrosset/.local/x86_64-via-linux-gnu/include/linux/netfilter_ipv4/ipt_TTL.h",
                  "home/mrosset/.local/x86_64-via-linux-gnu/include/linux/netfilter_ipv4/ipt_ah.h",
                  "home/mrosset/.local/x86_64-via-linux-gnu/include/linux/netfilter_ipv4/ipt_ecn.h",
                  "home/mrosset/.local/x86_64-via-linux-gnu/include/linux/netfilter_ipv4/ipt_ttl.h",
                  "home/mrosset/.local/x86_64-via-linux-gnu/include/linux/netfilter_ipv4.h",
                  "home/mrosset/.local/x86_64-via-linux-gnu/include/linux/netfilter_ipv6/..install.cmd",
                  "home/mrosset/.local/x86_64-via-linux-gnu/include/linux/netfilter_ipv6/.install",
                  "home/mrosset/.local/x86_64-via-linux-gnu/include/linux/netfilter_ipv6/ip6_tables.h",
                  "home/mrosset/.local/x86_64-via-linux-gnu/include/linux/netfilter_ipv6/ip6t_HL.h",
                  "home/mrosset/.local/x86_64-via-linux-gnu/include/linux/netfilter_ipv6/ip6t_LOG.h",
                  "home/mrosset/.local/x86_64-via-linux-gnu/include/linux/netfilter_ipv6/ip6t_NPT.h",
                  "home/mrosset/.local/x86_64-via-linux-gnu/include/linux/netfilter_ipv6/ip6t_REJECT.h",
                  "home/mrosset/.local/x86_64-via-linux-gnu/include/linux/netfilter_ipv6/ip6t_ah.h",
                  "home/mrosset/.local/x86_64-via-linux-gnu/include/linux/netfilter_ipv6/ip6t_frag.h",
                  "home/mrosset/.local/x86_64-via-linux-gnu/include/linux/netfilter_ipv6/ip6t_hl.h",
                  "home/mrosset/.local/x86_64-via-linux-gnu/include/linux/netfilter_ipv6/ip6t_ipv6header.h",
                  "home/mrosset/.local/x86_64-via-linux-gnu/include/linux/netfilter_ipv6/ip6t_mh.h",
                  "home/mrosset/.local/x86_64-via-linux-gnu/include/linux/netfilter_ipv6/ip6t_opts.h",
                  "home/mrosset/.local/x86_64-via-linux-gnu/include/linux/netfilter_ipv6/ip6t_rt.h",
                  "home/mrosset/.local/x86_64-via-linux-gnu/include/linux/netfilter_ipv6.h",
                  "home/mrosset/.local/x86_64-via-linux-gnu/include/linux/netlink.h",
                  "home/mrosset/.local/x86_64-via-linux-gnu/include/linux/netlink_diag.h",
                  "home/mrosset/.local/x86_64-via-linux-gnu/include/linux/netrom.h",
                  "home/mrosset/.local/x86_64-via-linux-gnu/include/linux/nfc.h",
                  "home/mrosset/.local/x86_64-via-linux-gnu/include/linux/nfs.h",
                  "home/mrosset/.local/x86_64-via-linux-gnu/include/linux/nfs2.h",
                  "home/mrosset/.local/x86_64-via-linux-gnu/include/linux/nfs3.h",
                  "home/mrosset/.local/x86_64-via-linux-gnu/include/linux/nfs4.h",
                  "home/mrosset/.local/x86_64-via-linux-gnu/include/linux/nfs4_mount.h",
                  "home/mrosset/.local/x86_64-via-linux-gnu/include/linux/nfs_fs.h",
                  "home/mrosset/.local/x86_64-via-linux-gnu/include/linux/nfs_idmap.h",
                  "home/mrosset/.local/x86_64-via-linux-gnu/include/linux/nfs_mount.h",
                  "home/mrosset/.local/x86_64-via-linux-gnu/include/linux/nfsacl.h",
                  "home/mrosset/.local/x86_64-via-linux-gnu/include/linux/nfsd/..install.cmd",
                  "home/mrosset/.local/x86_64-via-linux-gnu/include/linux/nfsd/.install",
                  "home/mrosset/.local/x86_64-via-linux-gnu/include/linux/nfsd/cld.h",
                  "home/mrosset/.local/x86_64-via-linux-gnu/include/linux/nfsd/debug.h",
                  "home/mrosset/.local/x86_64-via-linux-gnu/include/linux/nfsd/export.h",
                  "home/mrosset/.local/x86_64-via-linux-gnu/include/linux/nfsd/nfsfh.h",
                  "home/mrosset/.local/x86_64-via-linux-gnu/include/linux/nfsd/stats.h",
                  "home/mrosset/.local/x86_64-via-linux-gnu/include/linux/nl80211.h",
                  "home/mrosset/.local/x86_64-via-linux-gnu/include/linux/nubus.h",
                  "home/mrosset/.local/x86_64-via-linux-gnu/include/linux/nvme.h",
                  "home/mrosset/.local/x86_64-via-linux-gnu/include/linux/nvram.h",
                  "home/mrosset/.local/x86_64-via-linux-gnu/include/linux/omap3isp.h",
                  "home/mrosset/.local/x86_64-via-linux-gnu/include/linux/omapfb.h",
                  "home/mrosset/.local/x86_64-via-linux-gnu/include/linux/oom.h",
                  "home/mrosset/.local/x86_64-via-linux-gnu/include/linux/openvswitch.h",
                  "home/mrosset/.local/x86_64-via-linux-gnu/include/linux/packet_diag.h",
                  "home/mrosset/.local/x86_64-via-linux-gnu/include/linux/param.h",
                  "home/mrosset/.local/x86_64-via-linux-gnu/include/linux/parport.h",
                  "home/mrosset/.local/x86_64-via-linux-gnu/include/linux/patchkey.h",
                  "home/mrosset/.local/x86_64-via-linux-gnu/include/linux/pci.h",
                  "home/mrosset/.local/x86_64-via-linux-gnu/include/linux/pci_regs.h",
                  "home/mrosset/.local/x86_64-via-linux-gnu/include/linux/perf_event.h",
                  "home/mrosset/.local/x86_64-via-linux-gnu/include/linux/personality.h",
                  "home/mrosset/.local/x86_64-via-linux-gnu/include/linux/pfkeyv2.h",
                  "home/mrosset/.local/x86_64-via-linux-gnu/include/linux/pg.h",
                  "home/mrosset/.local/x86_64-via-linux-gnu/include/linux/phantom.h",
                  "home/mrosset/.local/x86_64-via-linux-gnu/include/linux/phonet.h",
                  "home/mrosset/.local/x86_64-via-linux-gnu/include/linux/pkt_cls.h",
                  "home/mrosset/.local/x86_64-via-linux-gnu/include/linux/pkt_sched.h",
                  "home/mrosset/.local/x86_64-via-linux-gnu/include/linux/pktcdvd.h",
                  "home/mrosset/.local/x86_64-via-linux-gnu/include/linux/pmu.h",
                  "home/mrosset/.local/x86_64-via-linux-gnu/include/linux/poll.h",
                  "home/mrosset/.local/x86_64-via-linux-gnu/include/linux/posix_types.h",
                  "home/mrosset/.local/x86_64-via-linux-gnu/include/linux/ppdev.h",
                  "home/mrosset/.local/x86_64-via-linux-gnu/include/linux/ppp-comp.h",
                  "home/mrosset/.local/x86_64-via-linux-gnu/include/linux/ppp-ioctl.h",
                  "home/mrosset/.local/x86_64-via-linux-gnu/include/linux/ppp_defs.h",
                  "home/mrosset/.local/x86_64-via-linux-gnu/include/linux/pps.h",
                  "home/mrosset/.local/x86_64-via-linux-gnu/include/linux/prctl.h",
                  "home/mrosset/.local/x86_64-via-linux-gnu/include/linux/psci.h",
                  "home/mrosset/.local/x86_64-via-linux-gnu/include/linux/ptp_clock.h",
                  "home/mrosset/.local/x86_64-via-linux-gnu/include/linux/ptrace.h",
                  "home/mrosset/.local/x86_64-via-linux-gnu/include/linux/qnx4_fs.h",
                  "home/mrosset/.local/x86_64-via-linux-gnu/include/linux/qnxtypes.h",
                  "home/mrosset/.local/x86_64-via-linux-gnu/include/linux/quota.h",
                  "home/mrosset/.local/x86_64-via-linux-gnu/include/linux/radeonfb.h",
                  "home/mrosset/.local/x86_64-via-linux-gnu/include/linux/raid/..install.cmd",
                  "home/mrosset/.local/x86_64-via-linux-gnu/include/linux/raid/.install",
                  "home/mrosset/.local/x86_64-via-linux-gnu/include/linux/raid/md_p.h",
                  "home/mrosset/.local/x86_64-via-linux-gnu/include/linux/raid/md_u.h",
                  "home/mrosset/.local/x86_64-via-linux-gnu/include/linux/random.h",
                  "home/mrosset/.local/x86_64-via-linux-gnu/include/linux/raw.h",
                  "home/mrosset/.local/x86_64-via-linux-gnu/include/linux/rds.h",
                  "home/mrosset/.local/x86_64-via-linux-gnu/include/linux/reboot.h",
                  "home/mrosset/.local/x86_64-via-linux-gnu/include/linux/reiserfs_fs.h",
                  "home/mrosset/.local/x86_64-via-linux-gnu/include/linux/reiserfs_xattr.h",
                  "home/mrosset/.local/x86_64-via-linux-gnu/include/linux/resource.h",
                  "home/mrosset/.local/x86_64-via-linux-gnu/include/linux/rfkill.h",
                  "home/mrosset/.local/x86_64-via-linux-gnu/include/linux/romfs_fs.h",
                  "home/mrosset/.local/x86_64-via-linux-gnu/include/linux/rose.h",
                  "home/mrosset/.local/x86_64-via-linux-gnu/include/linux/route.h",
                  "home/mrosset/.local/x86_64-via-linux-gnu/include/linux/rtc.h",
                  "home/mrosset/.local/x86_64-via-linux-gnu/include/linux/rtnetlink.h",
                  "home/mrosset/.local/x86_64-via-linux-gnu/include/linux/scc.h",
                  "home/mrosset/.local/x86_64-via-linux-gnu/include/linux/sched.h",
                  "home/mrosset/.local/x86_64-via-linux-gnu/include/linux/screen_info.h",
                  "home/mrosset/.local/x86_64-via-linux-gnu/include/linux/sctp.h",
                  "home/mrosset/.local/x86_64-via-linux-gnu/include/linux/sdla.h",
                  "home/mrosset/.local/x86_64-via-linux-gnu/include/linux/seccomp.h",
                  "home/mrosset/.local/x86_64-via-linux-gnu/include/linux/securebits.h",
                  "home/mrosset/.local/x86_64-via-linux-gnu/include/linux/selinux_netlink.h",
                  "home/mrosset/.local/x86_64-via-linux-gnu/include/linux/sem.h",
                  "home/mrosset/.local/x86_64-via-linux-gnu/include/linux/serial.h",
                  "home/mrosset/.local/x86_64-via-linux-gnu/include/linux/serial_core.h",
                  "home/mrosset/.local/x86_64-via-linux-gnu/include/linux/serial_reg.h",
                  "home/mrosset/.local/x86_64-via-linux-gnu/include/linux/serio.h",
                  "home/mrosset/.local/x86_64-via-linux-gnu/include/linux/shm.h",
                  "home/mrosset/.local/x86_64-via-linux-gnu/include/linux/signal.h",
                  "home/mrosset/.local/x86_64-via-linux-gnu/include/linux/signalfd.h",
                  "home/mrosset/.local/x86_64-via-linux-gnu/include/linux/snmp.h",
                  "home/mrosset/.local/x86_64-via-linux-gnu/include/linux/sock_diag.h",
                  "home/mrosset/.local/x86_64-via-linux-gnu/include/linux/socket.h",
                  "home/mrosset/.local/x86_64-via-linux-gnu/include/linux/sockios.h",
                  "home/mrosset/.local/x86_64-via-linux-gnu/include/linux/som.h",
                  "home/mrosset/.local/x86_64-via-linux-gnu/include/linux/sonet.h",
                  "home/mrosset/.local/x86_64-via-linux-gnu/include/linux/sonypi.h",
                  "home/mrosset/.local/x86_64-via-linux-gnu/include/linux/sound.h",
                  "home/mrosset/.local/x86_64-via-linux-gnu/include/linux/soundcard.h",
                  "home/mrosset/.local/x86_64-via-linux-gnu/include/linux/spi/..install.cmd",
                  "home/mrosset/.local/x86_64-via-linux-gnu/include/linux/spi/.install",
                  "home/mrosset/.local/x86_64-via-linux-gnu/include/linux/spi/spidev.h",
                  "home/mrosset/.local/x86_64-via-linux-gnu/include/linux/stat.h",
                  "home/mrosset/.local/x86_64-via-linux-gnu/include/linux/stddef.h",
                  "home/mrosset/.local/x86_64-via-linux-gnu/include/linux/string.h",
                  "home/mrosset/.local/x86_64-via-linux-gnu/include/linux/sunrpc/..install.cmd",
                  "home/mrosset/.local/x86_64-via-linux-gnu/include/linux/sunrpc/.install",
                  "home/mrosset/.local/x86_64-via-linux-gnu/include/linux/sunrpc/debug.h",
                  "home/mrosset/.local/x86_64-via-linux-gnu/include/linux/suspend_ioctls.h",
                  "home/mrosset/.local/x86_64-via-linux-gnu/include/linux/swab.h",
                  "home/mrosset/.local/x86_64-via-linux-gnu/include/linux/synclink.h",
                  "home/mrosset/.local/x86_64-via-linux-gnu/include/linux/sysctl.h",
                  "home/mrosset/.local/x86_64-via-linux-gnu/include/linux/sysinfo.h",
                  "home/mrosset/.local/x86_64-via-linux-gnu/include/linux/taskstats.h",
                  "home/mrosset/.local/x86_64-via-linux-gnu/include/linux/tc_act/..install.cmd",
                  "home/mrosset/.local/x86_64-via-linux-gnu/include/linux/tc_act/.install",
                  "home/mrosset/.local/x86_64-via-linux-gnu/include/linux/tc_act/tc_csum.h",
                  "home/mrosset/.local/x86_64-via-linux-gnu/include/linux/tc_act/tc_defact.h",
                  "home/mrosset/.local/x86_64-via-linux-gnu/include/linux/tc_act/tc_gact.h",
                  "home/mrosset/.local/x86_64-via-linux-gnu/include/linux/tc_act/tc_ipt.h",
                  "home/mrosset/.local/x86_64-via-linux-gnu/include/linux/tc_act/tc_mirred.h",
                  "home/mrosset/.local/x86_64-via-linux-gnu/include/linux/tc_act/tc_nat.h",
                  "home/mrosset/.local/x86_64-via-linux-gnu/include/linux/tc_act/tc_pedit.h",
                  "home/mrosset/.local/x86_64-via-linux-gnu/include/linux/tc_act/tc_skbedit.h",
                  "home/mrosset/.local/x86_64-via-linux-gnu/include/linux/tc_ematch/..install.cmd",
                  "home/mrosset/.local/x86_64-via-linux-gnu/include/linux/tc_ematch/.install",
                  "home/mrosset/.local/x86_64-via-linux-gnu/include/linux/tc_ematch/tc_em_cmp.h",
                  "home/mrosset/.local/x86_64-via-linux-gnu/include/linux/tc_ematch/tc_em_meta.h",
                  "home/mrosset/.local/x86_64-via-linux-gnu/include/linux/tc_ematch/tc_em_nbyte.h",
                  "home/mrosset/.local/x86_64-via-linux-gnu/include/linux/tc_ematch/tc_em_text.h",
                  "home/mrosset/.local/x86_64-via-linux-gnu/include/linux/tcp.h",
                  "home/mrosset/.local/x86_64-via-linux-gnu/include/linux/tcp_metrics.h",
                  "home/mrosset/.local/x86_64-via-linux-gnu/include/linux/telephony.h",
                  "home/mrosset/.local/x86_64-via-linux-gnu/include/linux/termios.h",
                  "home/mrosset/.local/x86_64-via-linux-gnu/include/linux/time.h",
                  "home/mrosset/.local/x86_64-via-linux-gnu/include/linux/times.h",
                  "home/mrosset/.local/x86_64-via-linux-gnu/include/linux/timex.h",
                  "home/mrosset/.local/x86_64-via-linux-gnu/include/linux/tiocl.h",
                  "home/mrosset/.local/x86_64-via-linux-gnu/include/linux/tipc.h",
                  "home/mrosset/.local/x86_64-via-linux-gnu/include/linux/tipc_config.h",
                  "home/mrosset/.local/x86_64-via-linux-gnu/include/linux/toshiba.h",
                  "home/mrosset/.local/x86_64-via-linux-gnu/include/linux/tty.h",
                  "home/mrosset/.local/x86_64-via-linux-gnu/include/linux/tty_flags.h",
                  "home/mrosset/.local/x86_64-via-linux-gnu/include/linux/types.h",
                  "home/mrosset/.local/x86_64-via-linux-gnu/include/linux/udf_fs_i.h",
                  "home/mrosset/.local/x86_64-via-linux-gnu/include/linux/udp.h",
                  "home/mrosset/.local/x86_64-via-linux-gnu/include/linux/uhid.h",
                  "home/mrosset/.local/x86_64-via-linux-gnu/include/linux/uinput.h",
                  "home/mrosset/.local/x86_64-via-linux-gnu/include/linux/uio.h",
                  "home/mrosset/.local/x86_64-via-linux-gnu/include/linux/ultrasound.h",
                  "home/mrosset/.local/x86_64-via-linux-gnu/include/linux/un.h",
                  "home/mrosset/.local/x86_64-via-linux-gnu/include/linux/unistd.h",
                  "home/mrosset/.local/x86_64-via-linux-gnu/include/linux/unix_diag.h",
                  "home/mrosset/.local/x86_64-via-linux-gnu/include/linux/usb/..install.cmd",
                  "home/mrosset/.local/x86_64-via-linux-gnu/include/linux/usb/.install",
                  "home/mrosset/.local/x86_64-via-linux-gnu/include/linux/usb/audio.h",
                  "home/mrosset/.local/x86_64-via-linux-gnu/include/linux/usb/cdc-wdm.h",
                  "home/mrosset/.local/x86_64-via-linux-gnu/include/linux/usb/cdc.h",
                  "home/mrosset/.local/x86_64-via-linux-gnu/include/linux/usb/ch11.h",
                  "home/mrosset/.local/x86_64-via-linux-gnu/include/linux/usb/ch9.h",
                  "home/mrosset/.local/x86_64-via-linux-gnu/include/linux/usb/functionfs.h",
                  "home/mrosset/.local/x86_64-via-linux-gnu/include/linux/usb/g_printer.h",
                  "home/mrosset/.local/x86_64-via-linux-gnu/include/linux/usb/gadgetfs.h",
                  "home/mrosset/.local/x86_64-via-linux-gnu/include/linux/usb/midi.h",
                  "home/mrosset/.local/x86_64-via-linux-gnu/include/linux/usb/tmc.h",
                  "home/mrosset/.local/x86_64-via-linux-gnu/include/linux/usb/video.h",
                  "home/mrosset/.local/x86_64-via-linux-gnu/include/linux/usbdevice_fs.h",
                  "home/mrosset/.local/x86_64-via-linux-gnu/include/linux/usbip.h",
                  "home/mrosset/.local/x86_64-via-linux-gnu/include/linux/utime.h",
                  "home/mrosset/.local/x86_64-via-linux-gnu/include/linux/utsname.h",
                  "home/mrosset/.local/x86_64-via-linux-gnu/include/linux/uuid.h",
                  "home/mrosset/.local/x86_64-via-linux-gnu/include/linux/uvcvideo.h",
                  "home/mrosset/.local/x86_64-via-linux-gnu/include/linux/v4l2-common.h",
                  "home/mrosset/.local/x86_64-via-linux-gnu/include/linux/v4l2-controls.h",
                  "home/mrosset/.local/x86_64-via-linux-gnu/include/linux/v4l2-dv-timings.h",
                  "home/mrosset/.local/x86_64-via-linux-gnu/include/linux/v4l2-mediabus.h",
                  "home/mrosset/.local/x86_64-via-linux-gnu/include/linux/v4l2-subdev.h",
                  "home/mrosset/.local/x86_64-via-linux-gnu/include/linux/version.h",
                  "home/mrosset/.local/x86_64-via-linux-gnu/include/linux/veth.h",
                  "home/mrosset/.local/x86_64-via-linux-gnu/include/linux/vfio.h",
                  "home/mrosset/.local/x86_64-via-linux-gnu/include/linux/vhost.h",
                  "home/mrosset/.local/x86_64-via-linux-gnu/include/linux/videodev2.h",
                  "home/mrosset/.local/x86_64-via-linux-gnu/include/linux/virtio_9p.h",
                  "home/mrosset/.local/x86_64-via-linux-gnu/include/linux/virtio_balloon.h",
                  "home/mrosset/.local/x86_64-via-linux-gnu/include/linux/virtio_blk.h",
                  "home/mrosset/.local/x86_64-via-linux-gnu/include/linux/virtio_config.h",
                  "home/mrosset/.local/x86_64-via-linux-gnu/include/linux/virtio_console.h",
                  "home/mrosset/.local/x86_64-via-linux-gnu/include/linux/virtio_ids.h",
                  "home/mrosset/.local/x86_64-via-linux-gnu/include/linux/virtio_net.h",
                  "home/mrosset/.local/x86_64-via-linux-gnu/include/linux/virtio_pci.h",
                  "home/mrosset/.local/x86_64-via-linux-gnu/include/linux/virtio_ring.h",
                  "home/mrosset/.local/x86_64-via-linux-gnu/include/linux/virtio_rng.h",
                  "home/mrosset/.local/x86_64-via-linux-gnu/include/linux/vt.h",
                  "home/mrosset/.local/x86_64-via-linux-gnu/include/linux/wait.h",
                  "home/mrosset/.local/x86_64-via-linux-gnu/include/linux/wanrouter.h",
                  "home/mrosset/.local/x86_64-via-linux-gnu/include/linux/watchdog.h",
                  "home/mrosset/.local/x86_64-via-linux-gnu/include/linux/wimax/..install.cmd",
                  "home/mrosset/.local/x86_64-via-linux-gnu/include/linux/wimax/.install",
                  "home/mrosset/.local/x86_64-via-linux-gnu/include/linux/wimax/i2400m.h",
                  "home/mrosset/.local/x86_64-via-linux-gnu/include/linux/wimax.h",
                  "home/mrosset/.local/x86_64-via-linux-gnu/include/linux/wireless.h",
                  "home/mrosset/.local/x86_64-via-linux-gnu/include/linux/x25.h",
                  "home/mrosset/.local/x86_64-via-linux-gnu/include/linux/xattr.h",
                  "home/mrosset/.local/x86_64-via-linux-gnu/include/linux/xfrm.h",
                  "home/mrosset/.local/x86_64-via-linux-gnu/include/linux/zorro.h",
                  "home/mrosset/.local/x86_64-via-linux-gnu/include/linux/zorro_ids.h",
                  "home/mrosset/.local/x86_64-via-linux-gnu/include/mtd/..install.cmd",
                  "home/mrosset/.local/x86_64-via-linux-gnu/include/mtd/.install",
                  "home/mrosset/.local/x86_64-via-linux-gnu/include/mtd/inftl-user.h",
                  "home/mrosset/.local/x86_64-via-linux-gnu/include/mtd/mtd-abi.h",
                  "home/mrosset/.local/x86_64-via-linux-gnu/include/mtd/mtd-user.h",
                  "home/mrosset/.local/x86_64-via-linux-gnu/include/mtd/nftl-user.h",
                  "home/mrosset/.local/x86_64-via-linux-gnu/include/mtd/ubi-user.h",
                  "home/mrosset/.local/x86_64-via-linux-gnu/include/rdma/..install.cmd",
                  "home/mrosset/.local/x86_64-via-linux-gnu/include/rdma/.install",
                  "home/mrosset/.local/x86_64-via-linux-gnu/include/rdma/ib_user_cm.h",
                  "home/mrosset/.local/x86_64-via-linux-gnu/include/rdma/ib_user_mad.h",
                  "home/mrosset/.local/x86_64-via-linux-gnu/include/rdma/ib_user_sa.h",
                  "home/mrosset/.local/x86_64-via-linux-gnu/include/rdma/ib_user_verbs.h",
                  "home/mrosset/.local/x86_64-via-linux-gnu/include/rdma/rdma_netlink.h",
                  "home/mrosset/.local/x86_64-via-linux-gnu/include/rdma/rdma_user_cm.h",
                  "home/mrosset/.local/x86_64-via-linux-gnu/include/scsi/..install.cmd",
                  "home/mrosset/.local/x86_64-via-linux-gnu/include/scsi/.install",
                  "home/mrosset/.local/x86_64-via-linux-gnu/include/scsi/fc/..install.cmd",
                  "home/mrosset/.local/x86_64-via-linux-gnu/include/scsi/fc/.install",
                  "home/mrosset/.local/x86_64-via-linux-gnu/include/scsi/fc/fc_els.h",
                  "home/mrosset/.local/x86_64-via-linux-gnu/include/scsi/fc/fc_fs.h",
                  "home/mrosset/.local/x86_64-via-linux-gnu/include/scsi/fc/fc_gs.h",
                  "home/mrosset/.local/x86_64-via-linux-gnu/include/scsi/fc/fc_ns.h",
                  "home/mrosset/.local/x86_64-via-linux-gnu/include/scsi/scsi_bsg_fc.h",
                  "home/mrosset/.local/x86_64-via-linux-gnu/include/scsi/scsi_netlink.h",
                  "home/mrosset/.local/x86_64-via-linux-gnu/include/scsi/scsi_netlink_fc.h",
                  "home/mrosset/.local/x86_64-via-linux-gnu/include/sound/..install.cmd",
                  "home/mrosset/.local/x86_64-via-linux-gnu/include/sound/.install",
                  "home/mrosset/.local/x86_64-via-linux-gnu/include/sound/asequencer.h",
                  "home/mrosset/.local/x86_64-via-linux-gnu/include/sound/asound.h",
                  "home/mrosset/.local/x86_64-via-linux-gnu/include/sound/asound_fm.h",
                  "home/mrosset/.local/x86_64-via-linux-gnu/include/sound/compress_offload.h",
                  "home/mrosset/.local/x86_64-via-linux-gnu/include/sound/compress_params.h",
                  "home/mrosset/.local/x86_64-via-linux-gnu/include/sound/emu10k1.h",
                  "home/mrosset/.local/x86_64-via-linux-gnu/include/sound/firewire.h",
                  "home/mrosset/.local/x86_64-via-linux-gnu/include/sound/hdsp.h",
                  "home/mrosset/.local/x86_64-via-linux-gnu/include/sound/hdspm.h",
                  "home/mrosset/.local/x86_64-via-linux-gnu/include/sound/sb16_csp.h",
                  "home/mrosset/.local/x86_64-via-linux-gnu/include/sound/sfnt_info.h",
                  "home/mrosset/.local/x86_64-via-linux-gnu/include/uapi/..install.cmd",
                  "home/mrosset/.local/x86_64-via-linux-gnu/include/uapi/.install",
                  "home/mrosset/.local/x86_64-via-linux-gnu/include/video/..install.cmd",
                  "home/mrosset/.local/x86_64-via-linux-gnu/include/video/.install",
                  "home/mrosset/.local/x86_64-via-linux-gnu/include/video/edid.h",
                  "home/mrosset/.local/x86_64-via-linux-gnu/include/video/sisfb.h",
                  "home/mrosset/.local/x86_64-via-linux-gnu/include/video/uvesafb.h",
                  "home/mrosset/.local/x86_64-via-linux-gnu/include/xen/..install.cmd",
                  "home/mrosset/.local/x86_64-via-linux-gnu/include/xen/.install",
                  "home/mrosset/.local/x86_64-via-linux-gnu/include/xen/evtchn.h",
                  "home/mrosset/.local/x86_64-via-linux-gnu/include/xen/gntalloc.h",
                  "home/mrosset/.local/x86_64-via-linux-gnu/include/xen/gntdev.h",
                  "home/mrosset/.local/x86_64-via-linux-gnu/include/xen/privcmd.h"
    ]
}
