{
    "Name"         : "vala",
    "Version"      : "0.32.1",
    "Url"          : "http://download.gnome.org/sources/vala/0.32/vala-0.32.1.tar.xz",
    "Group"        : "gnome",
    "StageDir"     : "",
    "Inherit"      : "gnu",
    "Oid"          : "AEB04EE397B6D231637FEE2BF4BBA4FC4FB2CFDEC73EF0CB2175A4FDA0385990",
    "BuildInStage" : false,
    "BuildTime"    : 0,
    "Date"         : "2016-10-21T23:19:04.653306343-07:00",
    "Size"         : 11302539,
    "SubPackages"  : null,
    "AutoDepends"  : [
                   "glib",
                   "glibc",
                   "libffi"
    ],
    "ManualDepends" : null,
    "BuildDepends"  : null,
    "Flags"         : null,
    "Patch"         : null,
    "Build"         : null,
    "Package"       : null,
    "PostInstall"   : null,
    "Remove"        : null,
    "Files"         : [
                    "usr/local/via/bin/vala",
                    "usr/local/via/bin/vala-0.32",
                    "usr/local/via/bin/vala-gen-introspect",
                    "usr/local/via/bin/vala-gen-introspect-0.32",
                    "usr/local/via/bin/valac",
                    "usr/local/via/bin/valac-0.32",
                    "usr/local/via/bin/vapicheck",
                    "usr/local/via/bin/vapicheck-0.32",
                    "usr/local/via/bin/vapigen",
                    "usr/local/via/bin/vapigen-0.32",
                    "usr/local/via/include/vala-0.32/vala.h",
                    "usr/local/via/include/vala-0.32/valaccode.h",
                    "usr/local/via/include/vala-0.32/valacodegen.h",
                    "usr/local/via/include/vala-0.32/valagee.h",
                    "usr/local/via/lib/libvala-0.32.la",
                    "usr/local/via/lib/libvala-0.32.so",
                    "usr/local/via/lib/libvala-0.32.so.0",
                    "usr/local/via/lib/libvala-0.32.so.0.0.0",
                    "usr/local/via/lib/pkgconfig/libvala-0.32.pc",
                    "usr/local/via/lib/vala-0.32/gen-introspect-0.32",
                    "usr/local/via/share/aclocal/vala.m4",
                    "usr/local/via/share/aclocal/vapigen.m4",
                    "usr/local/via/share/devhelp/books/vala-0.32/attributes.html",
                    "usr/local/via/share/devhelp/books/vala-0.32/classes.html",
                    "usr/local/via/share/devhelp/books/vala-0.32/default.css",
                    "usr/local/via/share/devhelp/books/vala-0.32/delegates.html",
                    "usr/local/via/share/devhelp/books/vala-0.32/enums.html",
                    "usr/local/via/share/devhelp/books/vala-0.32/exceptions.html",
                    "usr/local/via/share/devhelp/books/vala-0.32/expressions.html",
                    "usr/local/via/share/devhelp/books/vala-0.32/index.html",
                    "usr/local/via/share/devhelp/books/vala-0.32/interfaces.html",
                    "usr/local/via/share/devhelp/books/vala-0.32/methods.html",
                    "usr/local/via/share/devhelp/books/vala-0.32/namespaces.html",
                    "usr/local/via/share/devhelp/books/vala-0.32/overview.html",
                    "usr/local/via/share/devhelp/books/vala-0.32/statements.html",
                    "usr/local/via/share/devhelp/books/vala-0.32/structs.html",
                    "usr/local/via/share/devhelp/books/vala-0.32/types.html",
                    "usr/local/via/share/devhelp/books/vala-0.32/vala-0.32.devhelp2",
                    "usr/local/via/share/pkgconfig/vapigen-0.32.pc",
                    "usr/local/via/share/pkgconfig/vapigen.pc",
                    "usr/local/via/share/vala/Makefile.vapigen",
                    "usr/local/via/share/vala-0.32/vapi/alsa.deps",
                    "usr/local/via/share/vala-0.32/vapi/alsa.vapi",
                    "usr/local/via/share/vala-0.32/vapi/atk.vapi",
                    "usr/local/via/share/vala-0.32/vapi/atspi-2.deps",
                    "usr/local/via/share/vala-0.32/vapi/atspi-2.vapi",
                    "usr/local/via/share/vala-0.32/vapi/avahi-client.vapi",
                    "usr/local/via/share/vala-0.32/vapi/avahi-gobject.deps",
                    "usr/local/via/share/vala-0.32/vapi/avahi-gobject.vapi",
                    "usr/local/via/share/vala-0.32/vapi/bzlib.vapi",
                    "usr/local/via/share/vala-0.32/vapi/cairo-xcb.deps",
                    "usr/local/via/share/vala-0.32/vapi/cairo-xcb.vapi",
                    "usr/local/via/share/vala-0.32/vapi/cairo.vapi",
                    "usr/local/via/share/vala-0.32/vapi/ccss-1.vapi",
                    "usr/local/via/share/vala-0.32/vapi/clutter-1.0.deps",
                    "usr/local/via/share/vala-0.32/vapi/clutter-1.0.vapi",
                    "usr/local/via/share/vala-0.32/vapi/clutter-gdk-1.0.deps",
                    "usr/local/via/share/vala-0.32/vapi/clutter-gdk-1.0.vapi",
                    "usr/local/via/share/vala-0.32/vapi/clutter-gst-1.0.deps",
                    "usr/local/via/share/vala-0.32/vapi/clutter-gst-1.0.vapi",
                    "usr/local/via/share/vala-0.32/vapi/clutter-gst-2.0.deps",
                    "usr/local/via/share/vala-0.32/vapi/clutter-gst-2.0.vapi",
                    "usr/local/via/share/vala-0.32/vapi/clutter-gst-3.0.deps",
                    "usr/local/via/share/vala-0.32/vapi/clutter-gst-3.0.vapi",
                    "usr/local/via/share/vala-0.32/vapi/clutter-gtk-0.10.deps",
                    "usr/local/via/share/vala-0.32/vapi/clutter-gtk-0.10.vapi",
                    "usr/local/via/share/vala-0.32/vapi/clutter-gtk-1.0.deps",
                    "usr/local/via/share/vala-0.32/vapi/clutter-gtk-1.0.vapi",
                    "usr/local/via/share/vala-0.32/vapi/clutter-json-1.0.vapi",
                    "usr/local/via/share/vala-0.32/vapi/clutter-x11-1.0.deps",
                    "usr/local/via/share/vala-0.32/vapi/clutter-x11-1.0.vapi",
                    "usr/local/via/share/vala-0.32/vapi/cogl-1.0.deps",
                    "usr/local/via/share/vala-0.32/vapi/cogl-1.0.vapi",
                    "usr/local/via/share/vala-0.32/vapi/cogl-pango-1.0.deps",
                    "usr/local/via/share/vala-0.32/vapi/cogl-pango-1.0.vapi",
                    "usr/local/via/share/vala-0.32/vapi/curses.vapi",
                    "usr/local/via/share/vala-0.32/vapi/dbus-glib-1.vapi",
                    "usr/local/via/share/vala-0.32/vapi/enchant.vapi",
                    "usr/local/via/share/vala-0.32/vapi/fuse.deps",
                    "usr/local/via/share/vala-0.32/vapi/fuse.vapi",
                    "usr/local/via/share/vala-0.32/vapi/gconf-2.0.vapi",
                    "usr/local/via/share/vala-0.32/vapi/gdk-2.0.deps",
                    "usr/local/via/share/vala-0.32/vapi/gdk-2.0.vapi",
                    "usr/local/via/share/vala-0.32/vapi/gdk-3.0.deps",
                    "usr/local/via/share/vala-0.32/vapi/gdk-3.0.vapi",
                    "usr/local/via/share/vala-0.32/vapi/gdk-pixbuf-2.0.deps",
                    "usr/local/via/share/vala-0.32/vapi/gdk-pixbuf-2.0.vapi",
                    "usr/local/via/share/vala-0.32/vapi/gdk-x11-2.0.deps",
                    "usr/local/via/share/vala-0.32/vapi/gdk-x11-2.0.vapi",
                    "usr/local/via/share/vala-0.32/vapi/gdk-x11-3.0.deps",
                    "usr/local/via/share/vala-0.32/vapi/gdk-x11-3.0.vapi",
                    "usr/local/via/share/vala-0.32/vapi/gdl-1.0.deps",
                    "usr/local/via/share/vala-0.32/vapi/gdl-1.0.vapi",
                    "usr/local/via/share/vala-0.32/vapi/gdl-3.0.deps",
                    "usr/local/via/share/vala-0.32/vapi/gdl-3.0.vapi",
                    "usr/local/via/share/vala-0.32/vapi/gdu-gtk.deps",
                    "usr/local/via/share/vala-0.32/vapi/gdu-gtk.vapi",
                    "usr/local/via/share/vala-0.32/vapi/gdu.deps",
                    "usr/local/via/share/vala-0.32/vapi/gdu.vapi",
                    "usr/local/via/share/vala-0.32/vapi/gedit-2.20.deps",
                    "usr/local/via/share/vala-0.32/vapi/gedit-2.20.vapi",
                    "usr/local/via/share/vala-0.32/vapi/gedit.deps",
                    "usr/local/via/share/vala-0.32/vapi/gedit.vapi",
                    "usr/local/via/share/vala-0.32/vapi/geocode-glib-1.0.deps",
                    "usr/local/via/share/vala-0.32/vapi/geocode-glib-1.0.vapi",
                    "usr/local/via/share/vala-0.32/vapi/gio-2.0.vapi",
                    "usr/local/via/share/vala-0.32/vapi/gio-unix-2.0.deps",
                    "usr/local/via/share/vala-0.32/vapi/gio-unix-2.0.vapi",
                    "usr/local/via/share/vala-0.32/vapi/gio-windows-2.0.deps",
                    "usr/local/via/share/vala-0.32/vapi/gio-windows-2.0.vapi",
                    "usr/local/via/share/vala-0.32/vapi/glib-2.0.vapi",
                    "usr/local/via/share/vala-0.32/vapi/gmodule-2.0.vapi",
                    "usr/local/via/share/vala-0.32/vapi/gnet-2.0.deps",
                    "usr/local/via/share/vala-0.32/vapi/gnet-2.0.vapi",
                    "usr/local/via/share/vala-0.32/vapi/gnome-desktop-2.0.deps",
                    "usr/local/via/share/vala-0.32/vapi/gnome-desktop-2.0.vapi",
                    "usr/local/via/share/vala-0.32/vapi/gnome-keyring-1.vapi",
                    "usr/local/via/share/vala-0.32/vapi/gnome-vfs-2.0.vapi",
                    "usr/local/via/share/vala-0.32/vapi/gnutls.vapi",
                    "usr/local/via/share/vala-0.32/vapi/gobject-2.0.vapi",
                    "usr/local/via/share/vala-0.32/vapi/gobject-introspection-1.0.vapi",
                    "usr/local/via/share/vala-0.32/vapi/goocanvas.deps",
                    "usr/local/via/share/vala-0.32/vapi/goocanvas.vapi",
                    "usr/local/via/share/vala-0.32/vapi/gsl.vapi",
                    "usr/local/via/share/vala-0.32/vapi/gstreamer-0.10.deps",
                    "usr/local/via/share/vala-0.32/vapi/gstreamer-0.10.vapi",
                    "usr/local/via/share/vala-0.32/vapi/gstreamer-1.0.vapi",
                    "usr/local/via/share/vala-0.32/vapi/gstreamer-allocators-1.0.deps",
                    "usr/local/via/share/vala-0.32/vapi/gstreamer-allocators-1.0.vapi",
                    "usr/local/via/share/vala-0.32/vapi/gstreamer-app-0.10.deps",
                    "usr/local/via/share/vala-0.32/vapi/gstreamer-app-0.10.vapi",
                    "usr/local/via/share/vala-0.32/vapi/gstreamer-app-1.0.deps",
                    "usr/local/via/share/vala-0.32/vapi/gstreamer-app-1.0.vapi",
                    "usr/local/via/share/vala-0.32/vapi/gstreamer-audio-0.10.deps",
                    "usr/local/via/share/vala-0.32/vapi/gstreamer-audio-0.10.vapi",
                    "usr/local/via/share/vala-0.32/vapi/gstreamer-audio-1.0.deps",
                    "usr/local/via/share/vala-0.32/vapi/gstreamer-audio-1.0.vapi",
                    "usr/local/via/share/vala-0.32/vapi/gstreamer-base-0.10.deps",
                    "usr/local/via/share/vala-0.32/vapi/gstreamer-base-0.10.vapi",
                    "usr/local/via/share/vala-0.32/vapi/gstreamer-base-1.0.deps",
                    "usr/local/via/share/vala-0.32/vapi/gstreamer-base-1.0.vapi",
                    "usr/local/via/share/vala-0.32/vapi/gstreamer-cdda-0.10.deps",
                    "usr/local/via/share/vala-0.32/vapi/gstreamer-cdda-0.10.vapi",
                    "usr/local/via/share/vala-0.32/vapi/gstreamer-check-0.10.deps",
                    "usr/local/via/share/vala-0.32/vapi/gstreamer-check-0.10.vapi",
                    "usr/local/via/share/vala-0.32/vapi/gstreamer-check-1.0.deps",
                    "usr/local/via/share/vala-0.32/vapi/gstreamer-check-1.0.vapi",
                    "usr/local/via/share/vala-0.32/vapi/gstreamer-controller-0.10.deps",
                    "usr/local/via/share/vala-0.32/vapi/gstreamer-controller-0.10.vapi",
                    "usr/local/via/share/vala-0.32/vapi/gstreamer-controller-1.0.deps",
                    "usr/local/via/share/vala-0.32/vapi/gstreamer-controller-1.0.vapi",
                    "usr/local/via/share/vala-0.32/vapi/gstreamer-dataprotocol-0.10.deps",
                    "usr/local/via/share/vala-0.32/vapi/gstreamer-dataprotocol-0.10.vapi",
                    "usr/local/via/share/vala-0.32/vapi/gstreamer-fft-0.10.deps",
                    "usr/local/via/share/vala-0.32/vapi/gstreamer-fft-0.10.vapi",
                    "usr/local/via/share/vala-0.32/vapi/gstreamer-fft-1.0.deps",
                    "usr/local/via/share/vala-0.32/vapi/gstreamer-fft-1.0.vapi",
                    "usr/local/via/share/vala-0.32/vapi/gstreamer-interfaces-0.10.deps",
                    "usr/local/via/share/vala-0.32/vapi/gstreamer-interfaces-0.10.vapi",
                    "usr/local/via/share/vala-0.32/vapi/gstreamer-net-0.10.deps",
                    "usr/local/via/share/vala-0.32/vapi/gstreamer-net-0.10.vapi",
                    "usr/local/via/share/vala-0.32/vapi/gstreamer-net-1.0.deps",
                    "usr/local/via/share/vala-0.32/vapi/gstreamer-net-1.0.vapi",
                    "usr/local/via/share/vala-0.32/vapi/gstreamer-netbuffer-0.10.deps",
                    "usr/local/via/share/vala-0.32/vapi/gstreamer-netbuffer-0.10.vapi",
                    "usr/local/via/share/vala-0.32/vapi/gstreamer-pbutils-0.10.deps",
                    "usr/local/via/share/vala-0.32/vapi/gstreamer-pbutils-0.10.vapi",
                    "usr/local/via/share/vala-0.32/vapi/gstreamer-pbutils-1.0.deps",
                    "usr/local/via/share/vala-0.32/vapi/gstreamer-pbutils-1.0.vapi",
                    "usr/local/via/share/vala-0.32/vapi/gstreamer-riff-0.10.deps",
                    "usr/local/via/share/vala-0.32/vapi/gstreamer-riff-0.10.vapi",
                    "usr/local/via/share/vala-0.32/vapi/gstreamer-riff-1.0.deps",
                    "usr/local/via/share/vala-0.32/vapi/gstreamer-riff-1.0.vapi",
                    "usr/local/via/share/vala-0.32/vapi/gstreamer-rtp-0.10.deps",
                    "usr/local/via/share/vala-0.32/vapi/gstreamer-rtp-0.10.vapi",
                    "usr/local/via/share/vala-0.32/vapi/gstreamer-rtp-1.0.deps",
                    "usr/local/via/share/vala-0.32/vapi/gstreamer-rtp-1.0.vapi",
                    "usr/local/via/share/vala-0.32/vapi/gstreamer-rtsp-0.10.deps",
                    "usr/local/via/share/vala-0.32/vapi/gstreamer-rtsp-0.10.vapi",
                    "usr/local/via/share/vala-0.32/vapi/gstreamer-rtsp-1.0.deps",
                    "usr/local/via/share/vala-0.32/vapi/gstreamer-rtsp-1.0.vapi",
                    "usr/local/via/share/vala-0.32/vapi/gstreamer-rtsp-server-1.0.deps",
                    "usr/local/via/share/vala-0.32/vapi/gstreamer-rtsp-server-1.0.vapi",
                    "usr/local/via/share/vala-0.32/vapi/gstreamer-sdp-0.10.deps",
                    "usr/local/via/share/vala-0.32/vapi/gstreamer-sdp-0.10.vapi",
                    "usr/local/via/share/vala-0.32/vapi/gstreamer-sdp-1.0.deps",
                    "usr/local/via/share/vala-0.32/vapi/gstreamer-sdp-1.0.vapi",
                    "usr/local/via/share/vala-0.32/vapi/gstreamer-tag-0.10.deps",
                    "usr/local/via/share/vala-0.32/vapi/gstreamer-tag-0.10.vapi",
                    "usr/local/via/share/vala-0.32/vapi/gstreamer-tag-1.0.deps",
                    "usr/local/via/share/vala-0.32/vapi/gstreamer-tag-1.0.vapi",
                    "usr/local/via/share/vala-0.32/vapi/gstreamer-video-0.10.deps",
                    "usr/local/via/share/vala-0.32/vapi/gstreamer-video-0.10.vapi",
                    "usr/local/via/share/vala-0.32/vapi/gstreamer-video-1.0.deps",
                    "usr/local/via/share/vala-0.32/vapi/gstreamer-video-1.0.vapi",
                    "usr/local/via/share/vala-0.32/vapi/gtk+-2.0.deps",
                    "usr/local/via/share/vala-0.32/vapi/gtk+-2.0.vapi",
                    "usr/local/via/share/vala-0.32/vapi/gtk+-3.0.deps",
                    "usr/local/via/share/vala-0.32/vapi/gtk+-3.0.vapi",
                    "usr/local/via/share/vala-0.32/vapi/gtkmozembed.deps",
                    "usr/local/via/share/vala-0.32/vapi/gtkmozembed.vapi",
                    "usr/local/via/share/vala-0.32/vapi/gtksourceview-2.0.deps",
                    "usr/local/via/share/vala-0.32/vapi/gtksourceview-2.0.vapi",
                    "usr/local/via/share/vala-0.32/vapi/gtksourceview-3.0.deps",
                    "usr/local/via/share/vala-0.32/vapi/gtksourceview-3.0.vapi",
                    "usr/local/via/share/vala-0.32/vapi/gudev-1.0.deps",
                    "usr/local/via/share/vala-0.32/vapi/gudev-1.0.vapi",
                    "usr/local/via/share/vala-0.32/vapi/hal.deps",
                    "usr/local/via/share/vala-0.32/vapi/hal.vapi",
                    "usr/local/via/share/vala-0.32/vapi/hildon-1.deps",
                    "usr/local/via/share/vala-0.32/vapi/hildon-1.vapi",
                    "usr/local/via/share/vala-0.32/vapi/hildon-fm-2.deps",
                    "usr/local/via/share/vala-0.32/vapi/hildon-fm-2.vapi",
                    "usr/local/via/share/vala-0.32/vapi/json-glib-1.0.deps",
                    "usr/local/via/share/vala-0.32/vapi/json-glib-1.0.vapi",
                    "usr/local/via/share/vala-0.32/vapi/libarchive.deps",
                    "usr/local/via/share/vala-0.32/vapi/libarchive.vapi",
                    "usr/local/via/share/vala-0.32/vapi/libbonoboui-2.0.vapi",
                    "usr/local/via/share/vala-0.32/vapi/libdaemon.vapi",
                    "usr/local/via/share/vala-0.32/vapi/libepc-1.0.vapi",
                    "usr/local/via/share/vala-0.32/vapi/libesmtp.vapi",
                    "usr/local/via/share/vala-0.32/vapi/libftdi.deps",
                    "usr/local/via/share/vala-0.32/vapi/libftdi.vapi",
                    "usr/local/via/share/vala-0.32/vapi/libgda-4.0.deps",
                    "usr/local/via/share/vala-0.32/vapi/libgda-4.0.vapi",
                    "usr/local/via/share/vala-0.32/vapi/libgda-report-4.0.deps",
                    "usr/local/via/share/vala-0.32/vapi/libgda-report-4.0.vapi",
                    "usr/local/via/share/vala-0.32/vapi/libgdata.deps",
                    "usr/local/via/share/vala-0.32/vapi/libgdata.vapi",
                    "usr/local/via/share/vala-0.32/vapi/libglade-2.0.deps",
                    "usr/local/via/share/vala-0.32/vapi/libglade-2.0.vapi",
                    "usr/local/via/share/vala-0.32/vapi/libgnome-2.0.vapi",
                    "usr/local/via/share/vala-0.32/vapi/libgnome-menu-3.0.vapi",
                    "usr/local/via/share/vala-0.32/vapi/libgnome-menu.vapi",
                    "usr/local/via/share/vala-0.32/vapi/libgnomeui-2.0.deps",
                    "usr/local/via/share/vala-0.32/vapi/libgnomeui-2.0.vapi",
                    "usr/local/via/share/vala-0.32/vapi/libgsf-1.deps",
                    "usr/local/via/share/vala-0.32/vapi/libgsf-1.vapi",
                    "usr/local/via/share/vala-0.32/vapi/libgvc.vapi",
                    "usr/local/via/share/vala-0.32/vapi/libmagic.vapi",
                    "usr/local/via/share/vala-0.32/vapi/libnl-1.vapi",
                    "usr/local/via/share/vala-0.32/vapi/libnl-2.0.deps",
                    "usr/local/via/share/vala-0.32/vapi/libnl-2.0.vapi",
                    "usr/local/via/share/vala-0.32/vapi/libnl-3.0.deps",
                    "usr/local/via/share/vala-0.32/vapi/libnl-3.0.vapi",
                    "usr/local/via/share/vala-0.32/vapi/libnotify.deps",
                    "usr/local/via/share/vala-0.32/vapi/libnotify.vapi",
                    "usr/local/via/share/vala-0.32/vapi/liboobs-1.vapi",
                    "usr/local/via/share/vala-0.32/vapi/libosso.vapi",
                    "usr/local/via/share/vala-0.32/vapi/libpanelapplet-2.0.deps",
                    "usr/local/via/share/vala-0.32/vapi/libpanelapplet-2.0.vapi",
                    "usr/local/via/share/vala-0.32/vapi/libpeas-1.0.deps",
                    "usr/local/via/share/vala-0.32/vapi/libpeas-1.0.vapi",
                    "usr/local/via/share/vala-0.32/vapi/libpeas-gtk-1.0.deps",
                    "usr/local/via/share/vala-0.32/vapi/libpeas-gtk-1.0.vapi",
                    "usr/local/via/share/vala-0.32/vapi/libpq.vapi",
                    "usr/local/via/share/vala-0.32/vapi/librsvg-2.0.deps",
                    "usr/local/via/share/vala-0.32/vapi/librsvg-2.0.vapi",
                    "usr/local/via/share/vala-0.32/vapi/libsexy.deps",
                    "usr/local/via/share/vala-0.32/vapi/libsexy.vapi",
                    "usr/local/via/share/vala-0.32/vapi/libsoup-2.2.vapi",
                    "usr/local/via/share/vala-0.32/vapi/libsoup-2.4.deps",
                    "usr/local/via/share/vala-0.32/vapi/libsoup-2.4.vapi",
                    "usr/local/via/share/vala-0.32/vapi/libusb-1.0.deps",
                    "usr/local/via/share/vala-0.32/vapi/libusb-1.0.vapi",
                    "usr/local/via/share/vala-0.32/vapi/libusb.vapi",
                    "usr/local/via/share/vala-0.32/vapi/libvala-0.32.vapi",
                    "usr/local/via/share/vala-0.32/vapi/libwnck-1.0.deps",
                    "usr/local/via/share/vala-0.32/vapi/libwnck-1.0.vapi",
                    "usr/local/via/share/vala-0.32/vapi/libwnck-3.0.deps",
                    "usr/local/via/share/vala-0.32/vapi/libwnck-3.0.vapi",
                    "usr/local/via/share/vala-0.32/vapi/libxml-2.0.vapi",
                    "usr/local/via/share/vala-0.32/vapi/linux.deps",
                    "usr/local/via/share/vala-0.32/vapi/linux.vapi",
                    "usr/local/via/share/vala-0.32/vapi/loudmouth-1.0.vapi",
                    "usr/local/via/share/vala-0.32/vapi/lua.vapi",
                    "usr/local/via/share/vala-0.32/vapi/mx-1.0.deps",
                    "usr/local/via/share/vala-0.32/vapi/mx-1.0.vapi",
                    "usr/local/via/share/vala-0.32/vapi/mysql.vapi",
                    "usr/local/via/share/vala-0.32/vapi/orc-0.4.vapi",
                    "usr/local/via/share/vala-0.32/vapi/packagekit-glib2.deps",
                    "usr/local/via/share/vala-0.32/vapi/packagekit-glib2.vapi",
                    "usr/local/via/share/vala-0.32/vapi/pango.deps",
                    "usr/local/via/share/vala-0.32/vapi/pango.vapi",
                    "usr/local/via/share/vala-0.32/vapi/pangocairo.deps",
                    "usr/local/via/share/vala-0.32/vapi/pangocairo.vapi",
                    "usr/local/via/share/vala-0.32/vapi/pixman-1.vapi",
                    "usr/local/via/share/vala-0.32/vapi/poppler-glib.deps",
                    "usr/local/via/share/vala-0.32/vapi/poppler-glib.vapi",
                    "usr/local/via/share/vala-0.32/vapi/posix.vapi",
                    "usr/local/via/share/vala-0.32/vapi/purple.deps",
                    "usr/local/via/share/vala-0.32/vapi/purple.vapi",
                    "usr/local/via/share/vala-0.32/vapi/raptor.vapi",
                    "usr/local/via/share/vala-0.32/vapi/rasqal.deps",
                    "usr/local/via/share/vala-0.32/vapi/rasqal.vapi",
                    "usr/local/via/share/vala-0.32/vapi/readline.vapi",
                    "usr/local/via/share/vala-0.32/vapi/rest-0.6.deps",
                    "usr/local/via/share/vala-0.32/vapi/rest-0.6.vapi",
                    "usr/local/via/share/vala-0.32/vapi/rest-0.7.deps",
                    "usr/local/via/share/vala-0.32/vapi/rest-0.7.vapi",
                    "usr/local/via/share/vala-0.32/vapi/rest-extras-0.6.deps",
                    "usr/local/via/share/vala-0.32/vapi/rest-extras-0.6.vapi",
                    "usr/local/via/share/vala-0.32/vapi/rest-extras-0.7.deps",
                    "usr/local/via/share/vala-0.32/vapi/rest-extras-0.7.vapi",
                    "usr/local/via/share/vala-0.32/vapi/sdl-gfx.deps",
                    "usr/local/via/share/vala-0.32/vapi/sdl-gfx.vapi",
                    "usr/local/via/share/vala-0.32/vapi/sdl-image.deps",
                    "usr/local/via/share/vala-0.32/vapi/sdl-image.vapi",
                    "usr/local/via/share/vala-0.32/vapi/sdl-mixer.deps",
                    "usr/local/via/share/vala-0.32/vapi/sdl-mixer.vapi",
                    "usr/local/via/share/vala-0.32/vapi/sdl-net.deps",
                    "usr/local/via/share/vala-0.32/vapi/sdl-net.vapi",
                    "usr/local/via/share/vala-0.32/vapi/sdl-ttf.deps",
                    "usr/local/via/share/vala-0.32/vapi/sdl-ttf.vapi",
                    "usr/local/via/share/vala-0.32/vapi/sdl.vapi",
                    "usr/local/via/share/vala-0.32/vapi/sqlite3.vapi",
                    "usr/local/via/share/vala-0.32/vapi/taglib_c.vapi",
                    "usr/local/via/share/vala-0.32/vapi/tiff.vapi",
                    "usr/local/via/share/vala-0.32/vapi/tokyocabinet.vapi",
                    "usr/local/via/share/vala-0.32/vapi/tracker-indexer-module-1.0.vapi",
                    "usr/local/via/share/vala-0.32/vapi/twitter-glib-1.0.deps",
                    "usr/local/via/share/vala-0.32/vapi/twitter-glib-1.0.vapi",
                    "usr/local/via/share/vala-0.32/vapi/udisks2.deps",
                    "usr/local/via/share/vala-0.32/vapi/udisks2.vapi",
                    "usr/local/via/share/vala-0.32/vapi/unique-1.0.deps",
                    "usr/local/via/share/vala-0.32/vapi/unique-1.0.vapi",
                    "usr/local/via/share/vala-0.32/vapi/v4l2.vapi",
                    "usr/local/via/share/vala-0.32/vapi/vte-2.90.deps",
                    "usr/local/via/share/vala-0.32/vapi/vte-2.90.vapi",
                    "usr/local/via/share/vala-0.32/vapi/vte.deps",
                    "usr/local/via/share/vala-0.32/vapi/vte.vapi",
                    "usr/local/via/share/vala-0.32/vapi/webkit-1.0.deps",
                    "usr/local/via/share/vala-0.32/vapi/webkit-1.0.vapi",
                    "usr/local/via/share/vala-0.32/vapi/webkit2gtk-4.0.deps",
                    "usr/local/via/share/vala-0.32/vapi/webkit2gtk-4.0.vapi",
                    "usr/local/via/share/vala-0.32/vapi/webkit2gtk-web-extension-4.0.deps",
                    "usr/local/via/share/vala-0.32/vapi/webkit2gtk-web-extension-4.0.vapi",
                    "usr/local/via/share/vala-0.32/vapi/x11.vapi",
                    "usr/local/via/share/vala-0.32/vapi/xcb-icccm.vapi",
                    "usr/local/via/share/vala-0.32/vapi/xcb.vapi",
                    "usr/local/via/share/vala-0.32/vapi/xtst.deps",
                    "usr/local/via/share/vala-0.32/vapi/xtst.vapi",
                    "usr/local/via/share/vala-0.32/vapi/zlib.vapi"
    ]
}
